%!PS-Adobe-3.0 EPSF-3.0
%%Creator: (MATLAB, The Mathworks, Inc. Version 9.1.0.441655 \(R2016b\). Operating System: Mac OS X)
%%Title: (/Users/Pascal/Documents/Tech/LOC/Zeno Stoessel/Beacon/Bericht/Bilder/boxplot_scaled.eps)
%%CreationDate: 2017-03-15T18:15:36
%%Pages: (atend)
%%BoundingBox: 0 0 560 420
%%LanguageLevel: 3
%%EndComments
%%BeginProlog
%%BeginResource: procset (Apache XML Graphics Std ProcSet) 1.2 0
%%Version: 1.2 0
%%Copyright: (Copyright 2001-2003,2010 The Apache Software Foundation. License terms: http://www.apache.org/licenses/LICENSE-2.0)
/bd{bind def}bind def
/ld{load def}bd
/GR/grestore ld
/M/moveto ld
/LJ/setlinejoin ld
/C/curveto ld
/f/fill ld
/LW/setlinewidth ld
/GC/setgray ld
/t/show ld
/N/newpath ld
/CT/concat ld
/cp/closepath ld
/S/stroke ld
/L/lineto ld
/CC/setcmykcolor ld
/A/ashow ld
/GS/gsave ld
/RC/setrgbcolor ld
/RM/rmoveto ld
/ML/setmiterlimit ld
/re {4 2 roll M
1 index 0 rlineto
0 exch rlineto
neg 0 rlineto
cp } bd
/_ctm matrix def
/_tm matrix def
/BT { _ctm currentmatrix pop matrix _tm copy pop 0 0 moveto } bd
/ET { _ctm setmatrix } bd
/iTm { _ctm setmatrix _tm concat } bd
/Tm { _tm astore pop iTm 0 0 moveto } bd
/ux 0.0 def
/uy 0.0 def
/F {
  /Tp exch def
  /Tf exch def
  Tf findfont Tp scalefont setfont
  /cf Tf def  /cs Tp def
} bd
/ULS {currentpoint /uy exch def /ux exch def} bd
/ULE {
  /Tcx currentpoint pop def
  gsave
  newpath
  cf findfont cs scalefont dup
  /FontMatrix get 0 get /Ts exch def /FontInfo get dup
  /UnderlinePosition get Ts mul /To exch def
  /UnderlineThickness get Ts mul /Tt exch def
  ux uy To add moveto  Tcx uy To add lineto
  Tt setlinewidth stroke
  grestore
} bd
/OLE {
  /Tcx currentpoint pop def
  gsave
  newpath
  cf findfont cs scalefont dup
  /FontMatrix get 0 get /Ts exch def /FontInfo get dup
  /UnderlinePosition get Ts mul /To exch def
  /UnderlineThickness get Ts mul /Tt exch def
  ux uy To add cs add moveto Tcx uy To add cs add lineto
  Tt setlinewidth stroke
  grestore
} bd
/SOE {
  /Tcx currentpoint pop def
  gsave
  newpath
  cf findfont cs scalefont dup
  /FontMatrix get 0 get /Ts exch def /FontInfo get dup
  /UnderlinePosition get Ts mul /To exch def
  /UnderlineThickness get Ts mul /Tt exch def
  ux uy To add cs 10 mul 26 idiv add moveto Tcx uy To add cs 10 mul 26 idiv add lineto
  Tt setlinewidth stroke
  grestore
} bd
/QT {
/Y22 exch store
/X22 exch store
/Y21 exch store
/X21 exch store
currentpoint
/Y21 load 2 mul add 3 div exch
/X21 load 2 mul add 3 div exch
/X21 load 2 mul /X22 load add 3 div
/Y21 load 2 mul /Y22 load add 3 div
/X22 load /Y22 load curveto
} bd
/SSPD {
dup length /d exch dict def
{
/v exch def
/k exch def
currentpagedevice k known {
/cpdv currentpagedevice k get def
v cpdv ne {
/upd false def
/nullv v type /nulltype eq def
/nullcpdv cpdv type /nulltype eq def
nullv nullcpdv or
{
/upd true def
} {
/sametype v type cpdv type eq def
sametype {
v type /arraytype eq {
/vlen v length def
/cpdvlen cpdv length def
vlen cpdvlen eq {
0 1 vlen 1 sub {
/i exch def
/obj v i get def
/cpdobj cpdv i get def
obj cpdobj ne {
/upd true def
exit
} if
} for
} {
/upd true def
} ifelse
} {
v type /dicttype eq {
v {
/dv exch def
/dk exch def
/cpddv cpdv dk get def
dv cpddv ne {
/upd true def
exit
} if
} forall
} {
/upd true def
} ifelse
} ifelse
} if
} ifelse
upd true eq {
d k v put
} if
} if
} if
} forall
d length 0 gt {
d setpagedevice
} if
} bd
/RE { % /NewFontName [NewEncodingArray] /FontName RE -
  findfont dup length dict begin
  {
    1 index /FID ne
    {def} {pop pop} ifelse
  } forall
  /Encoding exch def
  /FontName 1 index def
  currentdict definefont pop
  end
} bind def
%%EndResource
%%BeginResource: procset (Apache XML Graphics EPS ProcSet) 1.0 0
%%Version: 1.0 0
%%Copyright: (Copyright 2002-2003 The Apache Software Foundation. License terms: http://www.apache.org/licenses/LICENSE-2.0)
/BeginEPSF { %def
/b4_Inc_state save def         % Save state for cleanup
/dict_count countdictstack def % Count objects on dict stack
/op_count count 1 sub def      % Count objects on operand stack
userdict begin                 % Push userdict on dict stack
/showpage { } def              % Redefine showpage, { } = null proc
0 setgray 0 setlinecap         % Prepare graphics state
1 setlinewidth 0 setlinejoin
10 setmiterlimit [ ] 0 setdash newpath
/languagelevel where           % If level not equal to 1 then
{pop languagelevel             % set strokeadjust and
1 ne                           % overprint to their defaults.
{false setstrokeadjust false setoverprint
} if
} if
} bd
/EndEPSF { %def
count op_count sub {pop} repeat            % Clean up stacks
countdictstack dict_count sub {end} repeat
b4_Inc_state restore
} bd
%%EndResource
%FOPBeginFontDict
%%IncludeResource: font Courier-Bold
%%IncludeResource: font Helvetica
%%IncludeResource: font Courier-BoldOblique
%%IncludeResource: font Courier-Oblique
%%IncludeResource: font Times-Roman
%%IncludeResource: font Helvetica-BoldOblique
%%IncludeResource: font Helvetica-Bold
%%IncludeResource: font Helvetica-Oblique
%%IncludeResource: font Times-BoldItalic
%%IncludeResource: font Courier
%%IncludeResource: font Times-Italic
%%IncludeResource: font Times-Bold
%%IncludeResource: font Symbol
%%IncludeResource: font ZapfDingbats
%FOPEndFontDict
%%BeginResource: encoding WinAnsiEncoding
/WinAnsiEncoding [
/.notdef /.notdef /.notdef /.notdef /.notdef
/.notdef /.notdef /.notdef /.notdef /.notdef
/.notdef /.notdef /.notdef /.notdef /.notdef
/.notdef /.notdef /.notdef /.notdef /.notdef
/.notdef /.notdef /.notdef /.notdef /.notdef
/.notdef /.notdef /.notdef /.notdef /.notdef
/.notdef /.notdef /space /exclam /quotedbl
/numbersign /dollar /percent /ampersand /quotesingle
/parenleft /parenright /asterisk /plus /comma
/hyphen /period /slash /zero /one
/two /three /four /five /six
/seven /eight /nine /colon /semicolon
/less /equal /greater /question /at
/A /B /C /D /E
/F /G /H /I /J
/K /L /M /N /O
/P /Q /R /S /T
/U /V /W /X /Y
/Z /bracketleft /backslash /bracketright /asciicircum
/underscore /quoteleft /a /b /c
/d /e /f /g /h
/i /j /k /l /m
/n /o /p /q /r
/s /t /u /v /w
/x /y /z /braceleft /bar
/braceright /asciitilde /bullet /Euro /bullet
/quotesinglbase /florin /quotedblbase /ellipsis /dagger
/daggerdbl /circumflex /perthousand /Scaron /guilsinglleft
/OE /bullet /Zcaron /bullet /bullet
/quoteleft /quoteright /quotedblleft /quotedblright /bullet
/endash /emdash /asciitilde /trademark /scaron
/guilsinglright /oe /bullet /zcaron /Ydieresis
/space /exclamdown /cent /sterling /currency
/yen /brokenbar /section /dieresis /copyright
/ordfeminine /guillemotleft /logicalnot /sfthyphen /registered
/macron /degree /plusminus /twosuperior /threesuperior
/acute /mu /paragraph /middot /cedilla
/onesuperior /ordmasculine /guillemotright /onequarter /onehalf
/threequarters /questiondown /Agrave /Aacute /Acircumflex
/Atilde /Adieresis /Aring /AE /Ccedilla
/Egrave /Eacute /Ecircumflex /Edieresis /Igrave
/Iacute /Icircumflex /Idieresis /Eth /Ntilde
/Ograve /Oacute /Ocircumflex /Otilde /Odieresis
/multiply /Oslash /Ugrave /Uacute /Ucircumflex
/Udieresis /Yacute /Thorn /germandbls /agrave
/aacute /acircumflex /atilde /adieresis /aring
/ae /ccedilla /egrave /eacute /ecircumflex
/edieresis /igrave /iacute /icircumflex /idieresis
/eth /ntilde /ograve /oacute /ocircumflex
/otilde /odieresis /divide /oslash /ugrave
/uacute /ucircumflex /udieresis /yacute /thorn
/ydieresis
] def
%%EndResource
%FOPBeginFontReencode
/Courier-Bold findfont
dup length dict begin
  {1 index /FID ne {def} {pop pop} ifelse} forall
  /Encoding WinAnsiEncoding def
  currentdict
end
/Courier-Bold exch definefont pop
/Helvetica findfont
dup length dict begin
  {1 index /FID ne {def} {pop pop} ifelse} forall
  /Encoding WinAnsiEncoding def
  currentdict
end
/Helvetica exch definefont pop
/Courier-BoldOblique findfont
dup length dict begin
  {1 index /FID ne {def} {pop pop} ifelse} forall
  /Encoding WinAnsiEncoding def
  currentdict
end
/Courier-BoldOblique exch definefont pop
/Courier-Oblique findfont
dup length dict begin
  {1 index /FID ne {def} {pop pop} ifelse} forall
  /Encoding WinAnsiEncoding def
  currentdict
end
/Courier-Oblique exch definefont pop
/Times-Roman findfont
dup length dict begin
  {1 index /FID ne {def} {pop pop} ifelse} forall
  /Encoding WinAnsiEncoding def
  currentdict
end
/Times-Roman exch definefont pop
/Helvetica-BoldOblique findfont
dup length dict begin
  {1 index /FID ne {def} {pop pop} ifelse} forall
  /Encoding WinAnsiEncoding def
  currentdict
end
/Helvetica-BoldOblique exch definefont pop
/Helvetica-Bold findfont
dup length dict begin
  {1 index /FID ne {def} {pop pop} ifelse} forall
  /Encoding WinAnsiEncoding def
  currentdict
end
/Helvetica-Bold exch definefont pop
/Helvetica-Oblique findfont
dup length dict begin
  {1 index /FID ne {def} {pop pop} ifelse} forall
  /Encoding WinAnsiEncoding def
  currentdict
end
/Helvetica-Oblique exch definefont pop
/Times-BoldItalic findfont
dup length dict begin
  {1 index /FID ne {def} {pop pop} ifelse} forall
  /Encoding WinAnsiEncoding def
  currentdict
end
/Times-BoldItalic exch definefont pop
/Courier findfont
dup length dict begin
  {1 index /FID ne {def} {pop pop} ifelse} forall
  /Encoding WinAnsiEncoding def
  currentdict
end
/Courier exch definefont pop
/Times-Italic findfont
dup length dict begin
  {1 index /FID ne {def} {pop pop} ifelse} forall
  /Encoding WinAnsiEncoding def
  currentdict
end
/Times-Italic exch definefont pop
/Times-Bold findfont
dup length dict begin
  {1 index /FID ne {def} {pop pop} ifelse} forall
  /Encoding WinAnsiEncoding def
  currentdict
end
/Times-Bold exch definefont pop
%FOPEndFontReencode
%%EndProlog
%%Page: 1 1
%%PageBoundingBox: 0 0 560 420
%%BeginPageSetup
[1 0 0 -1 0 420] CT
%%EndPageSetup
GS
1 GC
N
0 0 560 420 re
f
GR
GS
1 GC
N
0 0 560 420 re
f
GR
GS
1 GC
N
73 374 M
507 374 L
507 31.5 L
73 31.5 L
cp
f
GR
GS
0.149 GC
2 setlinecap
1 LJ
0.5 LW
N
73 374 M
507 374 L
S
GR
GS
0.149 GC
2 setlinecap
1 LJ
0.5 LW
N
73 31.5 M
507 31.5 L
S
GR
GS
0.149 GC
2 setlinecap
1 LJ
0.5 LW
N
73.362 374 M
73.362 369.66 L
S
GR
GS
0.149 GC
2 setlinecap
1 LJ
0.5 LW
N
74.087 374 M
74.087 369.66 L
S
GR
GS
0.149 GC
2 setlinecap
1 LJ
0.5 LW
N
74.811 374 M
74.811 369.66 L
S
GR
GS
0.149 GC
2 setlinecap
1 LJ
0.5 LW
N
76.26 374 M
76.26 369.66 L
S
GR
GS
0.149 GC
2 setlinecap
1 LJ
0.5 LW
N
77.71 374 M
77.71 369.66 L
S
GR
GS
0.149 GC
2 setlinecap
1 LJ
0.5 LW
N
79.159 374 M
79.159 369.66 L
S
GR
GS
0.149 GC
2 setlinecap
1 LJ
0.5 LW
N
82.057 374 M
82.057 369.66 L
S
GR
GS
0.149 GC
2 setlinecap
1 LJ
0.5 LW
N
86.404 374 M
86.404 369.66 L
S
GR
GS
0.149 GC
2 setlinecap
1 LJ
0.5 LW
N
93.649 374 M
93.649 369.66 L
S
GR
GS
0.149 GC
2 setlinecap
1 LJ
0.5 LW
N
100.895 374 M
100.895 369.66 L
S
GR
GS
0.149 GC
2 setlinecap
1 LJ
0.5 LW
N
115.386 374 M
115.386 369.66 L
S
GR
GS
0.149 GC
2 setlinecap
1 LJ
0.5 LW
N
129.876 374 M
129.876 369.66 L
S
GR
GS
0.149 GC
2 setlinecap
1 LJ
0.5 LW
N
144.367 374 M
144.367 369.66 L
S
GR
GS
0.149 GC
2 setlinecap
1 LJ
0.5 LW
N
173.349 374 M
173.349 369.66 L
S
GR
GS
0.149 GC
2 setlinecap
1 LJ
0.5 LW
N
202.331 374 M
202.331 369.66 L
S
GR
GS
0.149 GC
2 setlinecap
1 LJ
0.5 LW
N
245.803 374 M
245.803 369.66 L
S
GR
GS
0.149 GC
2 setlinecap
1 LJ
0.5 LW
N
289.275 374 M
289.275 369.66 L
S
GR
GS
0.149 GC
2 setlinecap
1 LJ
0.5 LW
N
361.73 374 M
361.73 369.66 L
S
GR
GS
0.149 GC
2 setlinecap
1 LJ
0.5 LW
N
434.184 374 M
434.184 369.66 L
S
GR
GS
0.149 GC
2 setlinecap
1 LJ
0.5 LW
N
506.638 374 M
506.638 369.66 L
S
GR
GS
0.149 GC
2 setlinecap
1 LJ
0.5 LW
N
73.362 31.5 M
73.362 35.84 L
S
GR
GS
0.149 GC
2 setlinecap
1 LJ
0.5 LW
N
74.087 31.5 M
74.087 35.84 L
S
GR
GS
0.149 GC
2 setlinecap
1 LJ
0.5 LW
N
74.811 31.5 M
74.811 35.84 L
S
GR
GS
0.149 GC
2 setlinecap
1 LJ
0.5 LW
N
76.26 31.5 M
76.26 35.84 L
S
GR
GS
0.149 GC
2 setlinecap
1 LJ
0.5 LW
N
77.71 31.5 M
77.71 35.84 L
S
GR
GS
0.149 GC
2 setlinecap
1 LJ
0.5 LW
N
79.159 31.5 M
79.159 35.84 L
S
GR
GS
0.149 GC
2 setlinecap
1 LJ
0.5 LW
N
82.057 31.5 M
82.057 35.84 L
S
GR
GS
0.149 GC
2 setlinecap
1 LJ
0.5 LW
N
86.404 31.5 M
86.404 35.84 L
S
GR
GS
0.149 GC
2 setlinecap
1 LJ
0.5 LW
N
93.649 31.5 M
93.649 35.84 L
S
GR
GS
0.149 GC
2 setlinecap
1 LJ
0.5 LW
N
100.895 31.5 M
100.895 35.84 L
S
GR
GS
0.149 GC
2 setlinecap
1 LJ
0.5 LW
N
115.386 31.5 M
115.386 35.84 L
S
GR
GS
0.149 GC
2 setlinecap
1 LJ
0.5 LW
N
129.876 31.5 M
129.876 35.84 L
S
GR
GS
0.149 GC
2 setlinecap
1 LJ
0.5 LW
N
144.367 31.5 M
144.367 35.84 L
S
GR
GS
0.149 GC
2 setlinecap
1 LJ
0.5 LW
N
173.349 31.5 M
173.349 35.84 L
S
GR
GS
0.149 GC
2 setlinecap
1 LJ
0.5 LW
N
202.331 31.5 M
202.331 35.84 L
S
GR
GS
0.149 GC
2 setlinecap
1 LJ
0.5 LW
N
245.803 31.5 M
245.803 35.84 L
S
GR
GS
0.149 GC
2 setlinecap
1 LJ
0.5 LW
N
289.275 31.5 M
289.275 35.84 L
S
GR
GS
0.149 GC
2 setlinecap
1 LJ
0.5 LW
N
361.73 31.5 M
361.73 35.84 L
S
GR
GS
0.149 GC
2 setlinecap
1 LJ
0.5 LW
N
434.184 31.5 M
434.184 35.84 L
S
GR
GS
0.149 GC
2 setlinecap
1 LJ
0.5 LW
N
506.638 31.5 M
506.638 35.84 L
S
GR
GS
[1 0 0 1 73.36227 378] CT
0.149 GC
/Helvetica 10 F
GS
[1 0 0 1 0 0] CT
-7 10 moveto 
1 -1 scale
(0.1) t 
GR
GR
GS
[1 0 0 1 74.08681 378] CT
0.149 GC
/Helvetica 10 F
GS
[1 0 0 1 0 0] CT
-10 10 moveto 
1 -1 scale
(0.15) t 
GR
GR
GS
[1 0 0 1 74.81136 378] CT
0.149 GC
/Helvetica 10 F
GS
[1 0 0 1 0 0] CT
-7 10 moveto 
1 -1 scale
(0.2) t 
GR
GR
GS
[1 0 0 1 76.26044 378] CT
0.149 GC
/Helvetica 10 F
GS
[1 0 0 1 0 0] CT
-7 10 moveto 
1 -1 scale
(0.3) t 
GR
GR
GS
[1 0 0 1 77.70952 378] CT
0.149 GC
/Helvetica 10 F
GS
[1 0 0 1 0 0] CT
-7 10 moveto 
1 -1 scale
(0.4) t 
GR
GR
GS
[1 0 0 1 79.1586 378] CT
0.149 GC
/Helvetica 10 F
GS
[1 0 0 1 0 0] CT
-7 10 moveto 
1 -1 scale
(0.5) t 
GR
GR
GS
[1 0 0 1 82.05676 378] CT
0.149 GC
/Helvetica 10 F
GS
[1 0 0 1 0 0] CT
-7 10 moveto 
1 -1 scale
(0.7) t 
GR
GR
GS
[1 0 0 1 86.40401 378] CT
0.149 GC
/Helvetica 10 F
GS
[1 0 0 1 0 0] CT
-3 10 moveto 
1 -1 scale
(1) t 
GR
GR
GS
[1 0 0 1 93.64941 378] CT
0.149 GC
/Helvetica 10 F
GS
[1 0 0 1 0 0] CT
-7 10 moveto 
1 -1 scale
(1.5) t 
GR
GR
GS
[1 0 0 1 100.89482 378] CT
0.149 GC
/Helvetica 10 F
GS
[1 0 0 1 0 0] CT
-3 10 moveto 
1 -1 scale
(2) t 
GR
GR
GS
[1 0 0 1 115.38564 378] CT
0.149 GC
/Helvetica 10 F
GS
[1 0 0 1 0 0] CT
-3 10 moveto 
1 -1 scale
(3) t 
GR
GR
GS
[1 0 0 1 129.87646 378] CT
0.149 GC
/Helvetica 10 F
GS
[1 0 0 1 0 0] CT
-3 10 moveto 
1 -1 scale
(4) t 
GR
GR
GS
[1 0 0 1 144.36728 378] CT
0.149 GC
/Helvetica 10 F
GS
[1 0 0 1 0 0] CT
-3 10 moveto 
1 -1 scale
(5) t 
GR
GR
GS
[1 0 0 1 173.34891 378] CT
0.149 GC
/Helvetica 10 F
GS
[1 0 0 1 0 0] CT
-3 10 moveto 
1 -1 scale
(7) t 
GR
GR
GS
[1 0 0 1 202.33055 378] CT
0.149 GC
/Helvetica 10 F
GS
[1 0 0 1 0 0] CT
-3 10 moveto 
1 -1 scale
(9) t 
GR
GR
GS
[1 0 0 1 245.80301 378] CT
0.149 GC
/Helvetica 10 F
GS
[1 0 0 1 0 0] CT
-6 10 moveto 
1 -1 scale
(12) t 
GR
GR
GS
[1 0 0 1 289.27545 378] CT
0.149 GC
/Helvetica 10 F
GS
[1 0 0 1 0 0] CT
-6 10 moveto 
1 -1 scale
(15) t 
GR
GR
GS
[1 0 0 1 361.72955 378] CT
0.149 GC
/Helvetica 10 F
GS
[1 0 0 1 0 0] CT
-6 10 moveto 
1 -1 scale
(20) t 
GR
GR
GS
[1 0 0 1 434.18362 378] CT
0.149 GC
/Helvetica 10 F
GS
[1 0 0 1 0 0] CT
-6 10 moveto 
1 -1 scale
(25) t 
GR
GR
GS
[1 0 0 1 506.63773 378] CT
0.149 GC
/Helvetica 10 F
GS
[1 0 0 1 0 0] CT
-6 10 moveto 
1 -1 scale
(30) t 
GR
GR
GS
[1 0 0 1 290.00021 391.5] CT
0.149 GC
/Helvetica 11 F
GS
[1 0 0 1 0 0] CT
-31 11 moveto 
1 -1 scale
(Distance [m]) t 
GR
GR
GS
0.149 GC
2 setlinecap
1 LJ
0.5 LW
N
73 374 M
73 31.5 L
S
GR
GS
0.149 GC
2 setlinecap
1 LJ
0.5 LW
N
507 374 M
507 31.5 L
S
GR
GS
0.149 GC
2 setlinecap
1 LJ
0.5 LW
N
73 345.977 M
77.34 345.977 L
S
GR
GS
0.149 GC
2 setlinecap
1 LJ
0.5 LW
N
73 314.841 M
77.34 314.841 L
S
GR
GS
0.149 GC
2 setlinecap
1 LJ
0.5 LW
N
73 283.705 M
77.34 283.705 L
S
GR
GS
0.149 GC
2 setlinecap
1 LJ
0.5 LW
N
73 252.568 M
77.34 252.568 L
S
GR
GS
0.149 GC
2 setlinecap
1 LJ
0.5 LW
N
73 221.432 M
77.34 221.432 L
S
GR
GS
0.149 GC
2 setlinecap
1 LJ
0.5 LW
N
73 190.295 M
77.34 190.295 L
S
GR
GS
0.149 GC
2 setlinecap
1 LJ
0.5 LW
N
73 159.159 M
77.34 159.159 L
S
GR
GS
0.149 GC
2 setlinecap
1 LJ
0.5 LW
N
73 128.023 M
77.34 128.023 L
S
GR
GS
0.149 GC
2 setlinecap
1 LJ
0.5 LW
N
73 96.886 M
77.34 96.886 L
S
GR
GS
0.149 GC
2 setlinecap
1 LJ
0.5 LW
N
73 65.75 M
77.34 65.75 L
S
GR
GS
0.149 GC
2 setlinecap
1 LJ
0.5 LW
N
73 34.614 M
77.34 34.614 L
S
GR
GS
0.149 GC
2 setlinecap
1 LJ
0.5 LW
N
507 345.977 M
502.66 345.977 L
S
GR
GS
0.149 GC
2 setlinecap
1 LJ
0.5 LW
N
507 314.841 M
502.66 314.841 L
S
GR
GS
0.149 GC
2 setlinecap
1 LJ
0.5 LW
N
507 283.705 M
502.66 283.705 L
S
GR
GS
0.149 GC
2 setlinecap
1 LJ
0.5 LW
N
507 252.568 M
502.66 252.568 L
S
GR
GS
0.149 GC
2 setlinecap
1 LJ
0.5 LW
N
507 221.432 M
502.66 221.432 L
S
GR
GS
0.149 GC
2 setlinecap
1 LJ
0.5 LW
N
507 190.295 M
502.66 190.295 L
S
GR
GS
0.149 GC
2 setlinecap
1 LJ
0.5 LW
N
507 159.159 M
502.66 159.159 L
S
GR
GS
0.149 GC
2 setlinecap
1 LJ
0.5 LW
N
507 128.023 M
502.66 128.023 L
S
GR
GS
0.149 GC
2 setlinecap
1 LJ
0.5 LW
N
507 96.886 M
502.66 96.886 L
S
GR
GS
0.149 GC
2 setlinecap
1 LJ
0.5 LW
N
507 65.75 M
502.66 65.75 L
S
GR
GS
0.149 GC
2 setlinecap
1 LJ
0.5 LW
N
507 34.614 M
502.66 34.614 L
S
GR
GS
[1 0 0 1 69 345.97726] CT
0.149 GC
/Helvetica 10 F
GS
[1 0 0 1 0 0] CT
-16 3.5 moveto 
1 -1 scale
(-90) t 
GR
GR
GS
[1 0 0 1 69 314.84091] CT
0.149 GC
/Helvetica 10 F
GS
[1 0 0 1 0 0] CT
-16 3.5 moveto 
1 -1 scale
(-85) t 
GR
GR
GS
[1 0 0 1 69 283.70456] CT
0.149 GC
/Helvetica 10 F
GS
[1 0 0 1 0 0] CT
-16 3.5 moveto 
1 -1 scale
(-80) t 
GR
GR
GS
[1 0 0 1 69 252.56818] CT
0.149 GC
/Helvetica 10 F
GS
[1 0 0 1 0 0] CT
-16 3.5 moveto 
1 -1 scale
(-75) t 
GR
GR
GS
[1 0 0 1 69 221.43182] CT
0.149 GC
/Helvetica 10 F
GS
[1 0 0 1 0 0] CT
-16 3.5 moveto 
1 -1 scale
(-70) t 
GR
GR
GS
[1 0 0 1 69 190.29546] CT
0.149 GC
/Helvetica 10 F
GS
[1 0 0 1 0 0] CT
-16 3.5 moveto 
1 -1 scale
(-65) t 
GR
GR
GS
[1 0 0 1 69 159.15909] CT
0.149 GC
/Helvetica 10 F
GS
[1 0 0 1 0 0] CT
-16 3.5 moveto 
1 -1 scale
(-60) t 
GR
GR
GS
[1 0 0 1 69 128.02272] CT
0.149 GC
/Helvetica 10 F
GS
[1 0 0 1 0 0] CT
-16 3.5 moveto 
1 -1 scale
(-55) t 
GR
GR
GS
[1 0 0 1 69 96.88636] CT
0.149 GC
/Helvetica 10 F
GS
[1 0 0 1 0 0] CT
-16 3.5 moveto 
1 -1 scale
(-50) t 
GR
GR
GS
[1 0 0 1 69 65.75] CT
0.149 GC
/Helvetica 10 F
GS
[1 0 0 1 0 0] CT
-16 3.5 moveto 
1 -1 scale
(-45) t 
GR
GR
GS
[1 0 0 1 69 34.61364] CT
0.149 GC
/Helvetica 10 F
GS
[1 0 0 1 0 0] CT
-16 3.5 moveto 
1 -1 scale
(-40) t 
GR
GR
GS
[0 -1 1 0 50.5 202.74986] CT
0.149 GC
/Helvetica 11 F
GS
[1 0 0 1 0 0] CT
-27 -3 moveto 
1 -1 scale
(RSS [dBm]) t 
GR
GR
GS
[10 6] 0 setdash
2 LJ
0.5 LW
N
73.362 75.091 M
73.362 53.295 L
S
GR
GS
[10 6] 0 setdash
2 LJ
0.5 LW
N
74.087 59.523 M
74.087 47.068 L
S
GR
GS
[10 6] 0 setdash
2 LJ
0.5 LW
N
74.811 118.682 M
74.811 96.886 L
S
GR
GS
[10 6] 0 setdash
2 LJ
0.5 LW
N
76.26 62.636 M
76.26 53.295 L
S
GR
GS
[10 6] 0 setdash
2 LJ
0.5 LW
N
77.71 90.659 M
77.71 78.205 L
S
GR
GS
[10 6] 0 setdash
2 LJ
0.5 LW
N
79.159 90.659 M
79.159 84.432 L
S
GR
GS
[10 6] 0 setdash
2 LJ
0.5 LW
N
82.057 96.886 M
82.057 96.886 L
S
GR
GS
[10 6] 0 setdash
2 LJ
0.5 LW
N
86.404 152.932 M
86.404 146.705 L
S
GR
GS
[10 6] 0 setdash
2 LJ
0.5 LW
N
93.649 121.795 M
93.649 115.568 L
S
GR
GS
[10 6] 0 setdash
2 LJ
0.5 LW
N
100.895 134.25 M
100.895 121.795 L
S
GR
GS
[10 6] 0 setdash
2 LJ
0.5 LW
N
115.386 149.818 M
115.386 128.023 L
S
GR
GS
[10 6] 0 setdash
2 LJ
0.5 LW
N
129.876 171.614 M
129.876 165.386 L
S
GR
GS
[10 6] 0 setdash
2 LJ
0.5 LW
N
144.367 174.727 M
144.367 165.386 L
S
GR
GS
[10 6] 0 setdash
2 LJ
0.5 LW
N
173.349 180.955 M
173.349 152.932 L
S
GR
GS
[10 6] 0 setdash
2 LJ
0.5 LW
N
202.331 208.977 M
202.331 184.068 L
S
GR
GS
[10 6] 0 setdash
2 LJ
0.5 LW
N
245.803 249.455 M
245.803 240.114 L
S
GR
GS
[10 6] 0 setdash
2 LJ
0.5 LW
N
289.275 246.341 M
289.275 227.659 L
S
GR
GS
[10 6] 0 setdash
2 LJ
0.5 LW
N
361.73 283.705 M
361.73 271.25 L
S
GR
GS
[10 6] 0 setdash
2 LJ
0.5 LW
N
434.184 280.591 M
434.184 258.795 L
S
GR
GS
[10 6] 0 setdash
2 LJ
0.5 LW
N
506.638 283.705 M
506.638 265.023 L
S
GR
GS
[10 6] 0 setdash
2 LJ
0.5 LW
N
73.362 128.023 M
73.362 103.114 L
S
GR
GS
[10 6] 0 setdash
2 LJ
0.5 LW
N
74.087 103.114 M
74.087 96.886 L
S
GR
GS
[10 6] 0 setdash
2 LJ
0.5 LW
N
74.811 152.932 M
74.811 134.25 L
S
GR
GS
[10 6] 0 setdash
2 LJ
0.5 LW
N
76.26 190.295 M
76.26 131.136 L
S
GR
GS
[10 6] 0 setdash
2 LJ
0.5 LW
N
77.71 177.841 M
77.71 171.614 L
S
GR
GS
[10 6] 0 setdash
2 LJ
0.5 LW
N
79.159 128.023 M
79.159 115.568 L
S
GR
GS
[10 6] 0 setdash
2 LJ
0.5 LW
N
82.057 140.477 M
82.057 121.795 L
S
GR
GS
[10 6] 0 setdash
2 LJ
0.5 LW
N
86.404 177.841 M
86.404 165.386 L
S
GR
GS
[10 6] 0 setdash
2 LJ
0.5 LW
N
93.649 165.386 M
93.649 143.591 L
S
GR
GS
[10 6] 0 setdash
2 LJ
0.5 LW
N
100.895 215.205 M
100.895 171.614 L
S
GR
GS
[10 6] 0 setdash
2 LJ
0.5 LW
N
115.386 233.886 M
115.386 199.636 L
S
GR
GS
[10 6] 0 setdash
2 LJ
0.5 LW
N
129.876 208.977 M
129.876 190.295 L
S
GR
GS
[10 6] 0 setdash
2 LJ
0.5 LW
N
144.367 240.114 M
144.367 208.977 L
S
GR
GS
[10 6] 0 setdash
2 LJ
0.5 LW
N
173.349 221.432 M
173.349 202.75 L
S
GR
GS
[10 6] 0 setdash
2 LJ
0.5 LW
N
202.331 277.477 M
202.331 240.114 L
S
GR
GS
[10 6] 0 setdash
2 LJ
0.5 LW
N
245.803 302.386 M
245.803 271.25 L
S
GR
GS
[10 6] 0 setdash
2 LJ
0.5 LW
N
289.275 289.932 M
289.275 268.136 L
S
GR
GS
[10 6] 0 setdash
2 LJ
0.5 LW
N
361.73 314.841 M
361.73 302.386 L
S
GR
GS
[10 6] 0 setdash
2 LJ
0.5 LW
N
434.184 352.205 M
434.184 317.955 L
S
GR
GS
[10 6] 0 setdash
2 LJ
0.5 LW
N
506.638 333.523 M
506.638 308.614 L
S
GR
GS
1 LJ
0.5 LW
N
73.272 53.295 M
73.453 53.295 L
S
GR
GS
1 LJ
0.5 LW
N
73.996 47.068 M
74.177 47.068 L
S
GR
GS
1 LJ
0.5 LW
N
74.721 96.886 M
74.902 96.886 L
S
GR
GS
1 LJ
0.5 LW
N
76.17 53.295 M
76.351 53.295 L
S
GR
GS
1 LJ
0.5 LW
N
77.619 78.205 M
77.8 78.205 L
S
GR
GS
1 LJ
0.5 LW
N
79.068 84.432 M
79.249 84.432 L
S
GR
GS
1 LJ
0.5 LW
N
81.966 96.886 M
82.147 96.886 L
S
GR
GS
1 LJ
0.5 LW
N
86.313 146.705 M
86.495 146.705 L
S
GR
GS
1 LJ
0.5 LW
N
93.559 115.568 M
93.74 115.568 L
S
GR
GS
1 LJ
0.5 LW
N
100.804 121.795 M
100.985 121.795 L
S
GR
GS
1 LJ
0.5 LW
N
115.295 128.023 M
115.476 128.023 L
S
GR
GS
1 LJ
0.5 LW
N
129.786 165.386 M
129.967 165.386 L
S
GR
GS
1 LJ
0.5 LW
N
144.277 165.386 M
144.458 165.386 L
S
GR
GS
1 LJ
0.5 LW
N
173.258 152.932 M
173.439 152.932 L
S
GR
GS
1 LJ
0.5 LW
N
202.24 184.068 M
202.421 184.068 L
S
GR
GS
1 LJ
0.5 LW
N
245.712 240.114 M
245.894 240.114 L
S
GR
GS
1 LJ
0.5 LW
N
289.185 227.659 M
289.366 227.659 L
S
GR
GS
1 LJ
0.5 LW
N
361.639 271.25 M
361.82 271.25 L
S
GR
GS
1 LJ
0.5 LW
N
434.093 258.795 M
434.274 258.795 L
S
GR
GS
1 LJ
0.5 LW
N
506.547 265.023 M
506.728 265.023 L
S
GR
GS
1 LJ
0.5 LW
N
73.272 128.023 M
73.453 128.023 L
S
GR
GS
1 LJ
0.5 LW
N
73.996 103.114 M
74.177 103.114 L
S
GR
GS
1 LJ
0.5 LW
N
74.721 152.932 M
74.902 152.932 L
S
GR
GS
1 LJ
0.5 LW
N
76.17 190.295 M
76.351 190.295 L
S
GR
GS
1 LJ
0.5 LW
N
77.619 177.841 M
77.8 177.841 L
S
GR
GS
1 LJ
0.5 LW
N
79.068 128.023 M
79.249 128.023 L
S
GR
GS
1 LJ
0.5 LW
N
81.966 140.477 M
82.147 140.477 L
S
GR
GS
1 LJ
0.5 LW
N
86.313 177.841 M
86.495 177.841 L
S
GR
GS
1 LJ
0.5 LW
N
93.559 165.386 M
93.74 165.386 L
S
GR
GS
1 LJ
0.5 LW
N
100.804 215.205 M
100.985 215.205 L
S
GR
GS
1 LJ
0.5 LW
N
115.295 233.886 M
115.476 233.886 L
S
GR
GS
1 LJ
0.5 LW
N
129.786 208.977 M
129.967 208.977 L
S
GR
GS
1 LJ
0.5 LW
N
144.277 240.114 M
144.458 240.114 L
S
GR
GS
1 LJ
0.5 LW
N
173.258 221.432 M
173.439 221.432 L
S
GR
GS
1 LJ
0.5 LW
N
202.24 277.477 M
202.421 277.477 L
S
GR
GS
1 LJ
0.5 LW
N
245.712 302.386 M
245.894 302.386 L
S
GR
GS
1 LJ
0.5 LW
N
289.185 289.932 M
289.366 289.932 L
S
GR
GS
1 LJ
0.5 LW
N
361.639 314.841 M
361.82 314.841 L
S
GR
GS
1 LJ
0.5 LW
N
434.093 352.205 M
434.274 352.205 L
S
GR
GS
1 LJ
0.5 LW
N
506.547 333.523 M
506.728 333.523 L
S
GR
GS
0 0 1 RC
1 LJ
0.5 LW
N
73.181 103.114 M
73.181 75.091 L
73.543 75.091 L
73.543 103.114 L
73.181 103.114 L
S
GR
GS
0 0 1 RC
1 LJ
0.5 LW
N
73.906 96.886 M
73.906 59.523 L
74.268 59.523 L
74.268 96.886 L
73.906 96.886 L
S
GR
GS
0 0 1 RC
1 LJ
0.5 LW
N
74.63 134.25 M
74.63 118.682 L
74.992 118.682 L
74.992 134.25 L
74.63 134.25 L
S
GR
GS
0 0 1 RC
1 LJ
0.5 LW
N
76.079 131.136 M
76.079 62.636 L
76.442 62.636 L
76.442 131.136 L
76.079 131.136 L
S
GR
GS
0 0 1 RC
1 LJ
0.5 LW
N
77.528 171.614 M
77.528 90.659 L
77.891 90.659 L
77.891 171.614 L
77.528 171.614 L
S
GR
GS
0 0 1 RC
1 LJ
0.5 LW
N
78.977 115.568 M
78.977 90.659 L
79.34 90.659 L
79.34 115.568 L
78.977 115.568 L
S
GR
GS
0 0 1 RC
1 LJ
0.5 LW
N
81.876 121.795 M
81.876 96.886 L
82.238 96.886 L
82.238 121.795 L
81.876 121.795 L
S
GR
GS
0 0 1 RC
1 LJ
0.5 LW
N
86.223 165.386 M
86.223 152.932 L
86.585 152.932 L
86.585 165.386 L
86.223 165.386 L
S
GR
GS
0 0 1 RC
1 LJ
0.5 LW
N
93.468 143.591 M
93.468 121.795 L
93.831 121.795 L
93.831 143.591 L
93.468 143.591 L
S
GR
GS
0 0 1 RC
1 LJ
0.5 LW
N
100.714 171.614 M
100.714 134.25 L
101.076 134.25 L
101.076 171.614 L
100.714 171.614 L
S
GR
GS
0 0 1 RC
1 LJ
0.5 LW
N
115.205 199.636 M
115.205 149.818 L
115.567 149.818 L
115.567 199.636 L
115.205 199.636 L
S
GR
GS
0 0 1 RC
1 LJ
0.5 LW
N
129.695 190.295 M
129.695 171.614 L
130.058 171.614 L
130.058 190.295 L
129.695 190.295 L
S
GR
GS
0 0 1 RC
1 LJ
0.5 LW
N
144.186 208.977 M
144.186 174.727 L
144.548 174.727 L
144.548 208.977 L
144.186 208.977 L
S
GR
GS
0 0 1 RC
1 LJ
0.5 LW
N
173.168 202.75 M
173.168 180.955 L
173.53 180.955 L
173.53 202.75 L
173.168 202.75 L
S
GR
GS
0 0 1 RC
1 LJ
0.5 LW
N
202.149 240.114 M
202.149 208.977 L
202.512 208.977 L
202.512 240.114 L
202.149 240.114 L
S
GR
GS
0 0 1 RC
1 LJ
0.5 LW
N
245.622 271.25 M
245.622 249.455 L
245.984 249.455 L
245.984 271.25 L
245.622 271.25 L
S
GR
GS
0 0 1 RC
1 LJ
0.5 LW
N
289.094 268.136 M
289.094 246.341 L
289.457 246.341 L
289.457 268.136 L
289.094 268.136 L
S
GR
GS
0 0 1 RC
1 LJ
0.5 LW
N
361.548 302.386 M
361.548 283.705 L
361.911 283.705 L
361.911 302.386 L
361.548 302.386 L
S
GR
GS
0 0 1 RC
1 LJ
0.5 LW
N
434.003 317.955 M
434.003 280.591 L
434.365 280.591 L
434.365 317.955 L
434.003 317.955 L
S
GR
GS
0 0 1 RC
1 LJ
0.5 LW
N
506.457 308.614 M
506.457 283.705 L
506.819 283.705 L
506.819 308.614 L
506.457 308.614 L
S
GR
GS
1 0 0 RC
1 LJ
0.5 LW
N
73.181 93.773 M
73.543 93.773 L
S
GR
GS
1 0 0 RC
1 LJ
0.5 LW
N
73.906 71.977 M
74.268 71.977 L
S
GR
GS
1 0 0 RC
1 LJ
0.5 LW
N
74.63 128.023 M
74.992 128.023 L
S
GR
GS
1 0 0 RC
1 LJ
0.5 LW
N
76.079 87.545 M
76.442 87.545 L
S
GR
GS
1 0 0 RC
1 LJ
0.5 LW
N
77.528 115.568 M
77.891 115.568 L
S
GR
GS
1 0 0 RC
1 LJ
0.5 LW
N
78.977 103.114 M
79.34 103.114 L
S
GR
GS
1 0 0 RC
1 LJ
0.5 LW
N
81.876 109.341 M
82.238 109.341 L
S
GR
GS
1 0 0 RC
1 LJ
0.5 LW
N
86.223 159.159 M
86.585 159.159 L
S
GR
GS
1 0 0 RC
1 LJ
0.5 LW
N
93.468 128.023 M
93.831 128.023 L
S
GR
GS
1 0 0 RC
1 LJ
0.5 LW
N
100.714 146.705 M
101.076 146.705 L
S
GR
GS
1 0 0 RC
1 LJ
0.5 LW
N
115.205 165.386 M
115.567 165.386 L
S
GR
GS
1 0 0 RC
1 LJ
0.5 LW
N
129.695 177.841 M
130.058 177.841 L
S
GR
GS
1 0 0 RC
1 LJ
0.5 LW
N
144.186 193.409 M
144.548 193.409 L
S
GR
GS
1 0 0 RC
1 LJ
0.5 LW
N
173.168 193.409 M
173.53 193.409 L
S
GR
GS
1 0 0 RC
1 LJ
0.5 LW
N
202.149 221.432 M
202.512 221.432 L
S
GR
GS
1 0 0 RC
1 LJ
0.5 LW
N
245.622 258.795 M
245.984 258.795 L
S
GR
GS
1 0 0 RC
1 LJ
0.5 LW
N
289.094 252.568 M
289.457 252.568 L
S
GR
GS
1 0 0 RC
1 LJ
0.5 LW
N
361.548 293.045 M
361.911 293.045 L
S
GR
GS
1 0 0 RC
1 LJ
0.5 LW
N
434.003 289.932 M
434.365 289.932 L
S
GR
GS
1 0 0 RC
1 LJ
0.5 LW
N
506.457 296.159 M
506.819 296.159 L
S
GR
GS
[1 0 0 1 73.36227 152.93182] CT
1 0 0 RC
10.0 ML
0.5 LW
N
0 -3 M
0 3 L
-3 0 M
3 0 L
S
GR
GS
[1 0 0 1 74.81136 159.15909] CT
1 0 0 RC
10.0 ML
0.5 LW
N
0 -3 M
0 3 L
-3 0 M
3 0 L
S
GR
GS
[1 0 0 1 77.70952 308.61365] CT
1 0 0 RC
10.0 ML
0.5 LW
N
0 -3 M
0 3 L
-3 0 M
3 0 L
S
GR
GS
[1 0 0 1 86.40401 202.75] CT
1 0 0 RC
10.0 ML
0.5 LW
N
0 -3 M
0 3 L
-3 0 M
3 0 L
S
GR
GS
[1 0 0 1 86.40401 96.88636] CT
1 0 0 RC
10.0 ML
0.5 LW
N
0 -3 M
0 3 L
-3 0 M
3 0 L
S
GR
GS
[1 0 0 1 86.40401 96.88636] CT
1 0 0 RC
10.0 ML
0.5 LW
N
0 -3 M
0 3 L
-3 0 M
3 0 L
S
GR
GS
[1 0 0 1 173.34891 265.02274] CT
1 0 0 RC
10.0 ML
0.5 LW
N
0 -3 M
0 3 L
-3 0 M
3 0 L
S
GR
GS
[1 0 0 1 202.33055 308.61365] CT
1 0 0 RC
10.0 ML
0.5 LW
N
0 -3 M
0 3 L
-3 0 M
3 0 L
S
GR
GS
[1 0 0 1 361.72955 358.43182] CT
1 0 0 RC
10.0 ML
0.5 LW
N
0 -3 M
0 3 L
-3 0 M
3 0 L
S
GR
GS
[1 0 0 1 361.72955 345.97726] CT
1 0 0 RC
10.0 ML
0.5 LW
N
0 -3 M
0 3 L
-3 0 M
3 0 L
S
GR
%%Trailer
%%Pages: 1
%%EOF
