%!PS-Adobe-3.0 EPSF-3.0
%%Creator: (MATLAB, The Mathworks, Inc. Version 9.1.0.441655 \(R2016b\). Operating System: Mac OS X)
%%Title: (/Users/Pascal/Documents/Tech/LOC/Zeno Stoessel/Beacon/Bericht/Bilder/boxplot.eps)
%%CreationDate: 2017-03-15T18:10:26
%%Pages: (atend)
%%BoundingBox: 0 0 560 420
%%LanguageLevel: 3
%%EndComments
%%BeginProlog
%%BeginResource: procset (Apache XML Graphics Std ProcSet) 1.2 0
%%Version: 1.2 0
%%Copyright: (Copyright 2001-2003,2010 The Apache Software Foundation. License terms: http://www.apache.org/licenses/LICENSE-2.0)
/bd{bind def}bind def
/ld{load def}bd
/GR/grestore ld
/M/moveto ld
/LJ/setlinejoin ld
/C/curveto ld
/f/fill ld
/LW/setlinewidth ld
/GC/setgray ld
/t/show ld
/N/newpath ld
/CT/concat ld
/cp/closepath ld
/S/stroke ld
/L/lineto ld
/CC/setcmykcolor ld
/A/ashow ld
/GS/gsave ld
/RC/setrgbcolor ld
/RM/rmoveto ld
/ML/setmiterlimit ld
/re {4 2 roll M
1 index 0 rlineto
0 exch rlineto
neg 0 rlineto
cp } bd
/_ctm matrix def
/_tm matrix def
/BT { _ctm currentmatrix pop matrix _tm copy pop 0 0 moveto } bd
/ET { _ctm setmatrix } bd
/iTm { _ctm setmatrix _tm concat } bd
/Tm { _tm astore pop iTm 0 0 moveto } bd
/ux 0.0 def
/uy 0.0 def
/F {
  /Tp exch def
  /Tf exch def
  Tf findfont Tp scalefont setfont
  /cf Tf def  /cs Tp def
} bd
/ULS {currentpoint /uy exch def /ux exch def} bd
/ULE {
  /Tcx currentpoint pop def
  gsave
  newpath
  cf findfont cs scalefont dup
  /FontMatrix get 0 get /Ts exch def /FontInfo get dup
  /UnderlinePosition get Ts mul /To exch def
  /UnderlineThickness get Ts mul /Tt exch def
  ux uy To add moveto  Tcx uy To add lineto
  Tt setlinewidth stroke
  grestore
} bd
/OLE {
  /Tcx currentpoint pop def
  gsave
  newpath
  cf findfont cs scalefont dup
  /FontMatrix get 0 get /Ts exch def /FontInfo get dup
  /UnderlinePosition get Ts mul /To exch def
  /UnderlineThickness get Ts mul /Tt exch def
  ux uy To add cs add moveto Tcx uy To add cs add lineto
  Tt setlinewidth stroke
  grestore
} bd
/SOE {
  /Tcx currentpoint pop def
  gsave
  newpath
  cf findfont cs scalefont dup
  /FontMatrix get 0 get /Ts exch def /FontInfo get dup
  /UnderlinePosition get Ts mul /To exch def
  /UnderlineThickness get Ts mul /Tt exch def
  ux uy To add cs 10 mul 26 idiv add moveto Tcx uy To add cs 10 mul 26 idiv add lineto
  Tt setlinewidth stroke
  grestore
} bd
/QT {
/Y22 exch store
/X22 exch store
/Y21 exch store
/X21 exch store
currentpoint
/Y21 load 2 mul add 3 div exch
/X21 load 2 mul add 3 div exch
/X21 load 2 mul /X22 load add 3 div
/Y21 load 2 mul /Y22 load add 3 div
/X22 load /Y22 load curveto
} bd
/SSPD {
dup length /d exch dict def
{
/v exch def
/k exch def
currentpagedevice k known {
/cpdv currentpagedevice k get def
v cpdv ne {
/upd false def
/nullv v type /nulltype eq def
/nullcpdv cpdv type /nulltype eq def
nullv nullcpdv or
{
/upd true def
} {
/sametype v type cpdv type eq def
sametype {
v type /arraytype eq {
/vlen v length def
/cpdvlen cpdv length def
vlen cpdvlen eq {
0 1 vlen 1 sub {
/i exch def
/obj v i get def
/cpdobj cpdv i get def
obj cpdobj ne {
/upd true def
exit
} if
} for
} {
/upd true def
} ifelse
} {
v type /dicttype eq {
v {
/dv exch def
/dk exch def
/cpddv cpdv dk get def
dv cpddv ne {
/upd true def
exit
} if
} forall
} {
/upd true def
} ifelse
} ifelse
} if
} ifelse
upd true eq {
d k v put
} if
} if
} if
} forall
d length 0 gt {
d setpagedevice
} if
} bd
/RE { % /NewFontName [NewEncodingArray] /FontName RE -
  findfont dup length dict begin
  {
    1 index /FID ne
    {def} {pop pop} ifelse
  } forall
  /Encoding exch def
  /FontName 1 index def
  currentdict definefont pop
  end
} bind def
%%EndResource
%%BeginResource: procset (Apache XML Graphics EPS ProcSet) 1.0 0
%%Version: 1.0 0
%%Copyright: (Copyright 2002-2003 The Apache Software Foundation. License terms: http://www.apache.org/licenses/LICENSE-2.0)
/BeginEPSF { %def
/b4_Inc_state save def         % Save state for cleanup
/dict_count countdictstack def % Count objects on dict stack
/op_count count 1 sub def      % Count objects on operand stack
userdict begin                 % Push userdict on dict stack
/showpage { } def              % Redefine showpage, { } = null proc
0 setgray 0 setlinecap         % Prepare graphics state
1 setlinewidth 0 setlinejoin
10 setmiterlimit [ ] 0 setdash newpath
/languagelevel where           % If level not equal to 1 then
{pop languagelevel             % set strokeadjust and
1 ne                           % overprint to their defaults.
{false setstrokeadjust false setoverprint
} if
} if
} bd
/EndEPSF { %def
count op_count sub {pop} repeat            % Clean up stacks
countdictstack dict_count sub {end} repeat
b4_Inc_state restore
} bd
%%EndResource
%FOPBeginFontDict
%%IncludeResource: font Courier-Bold
%%IncludeResource: font Helvetica
%%IncludeResource: font Courier-BoldOblique
%%IncludeResource: font Courier-Oblique
%%IncludeResource: font Times-Roman
%%IncludeResource: font Helvetica-BoldOblique
%%IncludeResource: font Helvetica-Bold
%%IncludeResource: font Helvetica-Oblique
%%IncludeResource: font Times-BoldItalic
%%IncludeResource: font Courier
%%IncludeResource: font Times-Italic
%%IncludeResource: font Times-Bold
%%IncludeResource: font Symbol
%%IncludeResource: font ZapfDingbats
%FOPEndFontDict
%%BeginResource: encoding WinAnsiEncoding
/WinAnsiEncoding [
/.notdef /.notdef /.notdef /.notdef /.notdef
/.notdef /.notdef /.notdef /.notdef /.notdef
/.notdef /.notdef /.notdef /.notdef /.notdef
/.notdef /.notdef /.notdef /.notdef /.notdef
/.notdef /.notdef /.notdef /.notdef /.notdef
/.notdef /.notdef /.notdef /.notdef /.notdef
/.notdef /.notdef /space /exclam /quotedbl
/numbersign /dollar /percent /ampersand /quotesingle
/parenleft /parenright /asterisk /plus /comma
/hyphen /period /slash /zero /one
/two /three /four /five /six
/seven /eight /nine /colon /semicolon
/less /equal /greater /question /at
/A /B /C /D /E
/F /G /H /I /J
/K /L /M /N /O
/P /Q /R /S /T
/U /V /W /X /Y
/Z /bracketleft /backslash /bracketright /asciicircum
/underscore /quoteleft /a /b /c
/d /e /f /g /h
/i /j /k /l /m
/n /o /p /q /r
/s /t /u /v /w
/x /y /z /braceleft /bar
/braceright /asciitilde /bullet /Euro /bullet
/quotesinglbase /florin /quotedblbase /ellipsis /dagger
/daggerdbl /circumflex /perthousand /Scaron /guilsinglleft
/OE /bullet /Zcaron /bullet /bullet
/quoteleft /quoteright /quotedblleft /quotedblright /bullet
/endash /emdash /asciitilde /trademark /scaron
/guilsinglright /oe /bullet /zcaron /Ydieresis
/space /exclamdown /cent /sterling /currency
/yen /brokenbar /section /dieresis /copyright
/ordfeminine /guillemotleft /logicalnot /sfthyphen /registered
/macron /degree /plusminus /twosuperior /threesuperior
/acute /mu /paragraph /middot /cedilla
/onesuperior /ordmasculine /guillemotright /onequarter /onehalf
/threequarters /questiondown /Agrave /Aacute /Acircumflex
/Atilde /Adieresis /Aring /AE /Ccedilla
/Egrave /Eacute /Ecircumflex /Edieresis /Igrave
/Iacute /Icircumflex /Idieresis /Eth /Ntilde
/Ograve /Oacute /Ocircumflex /Otilde /Odieresis
/multiply /Oslash /Ugrave /Uacute /Ucircumflex
/Udieresis /Yacute /Thorn /germandbls /agrave
/aacute /acircumflex /atilde /adieresis /aring
/ae /ccedilla /egrave /eacute /ecircumflex
/edieresis /igrave /iacute /icircumflex /idieresis
/eth /ntilde /ograve /oacute /ocircumflex
/otilde /odieresis /divide /oslash /ugrave
/uacute /ucircumflex /udieresis /yacute /thorn
/ydieresis
] def
%%EndResource
%FOPBeginFontReencode
/Courier-Bold findfont
dup length dict begin
  {1 index /FID ne {def} {pop pop} ifelse} forall
  /Encoding WinAnsiEncoding def
  currentdict
end
/Courier-Bold exch definefont pop
/Helvetica findfont
dup length dict begin
  {1 index /FID ne {def} {pop pop} ifelse} forall
  /Encoding WinAnsiEncoding def
  currentdict
end
/Helvetica exch definefont pop
/Courier-BoldOblique findfont
dup length dict begin
  {1 index /FID ne {def} {pop pop} ifelse} forall
  /Encoding WinAnsiEncoding def
  currentdict
end
/Courier-BoldOblique exch definefont pop
/Courier-Oblique findfont
dup length dict begin
  {1 index /FID ne {def} {pop pop} ifelse} forall
  /Encoding WinAnsiEncoding def
  currentdict
end
/Courier-Oblique exch definefont pop
/Times-Roman findfont
dup length dict begin
  {1 index /FID ne {def} {pop pop} ifelse} forall
  /Encoding WinAnsiEncoding def
  currentdict
end
/Times-Roman exch definefont pop
/Helvetica-BoldOblique findfont
dup length dict begin
  {1 index /FID ne {def} {pop pop} ifelse} forall
  /Encoding WinAnsiEncoding def
  currentdict
end
/Helvetica-BoldOblique exch definefont pop
/Helvetica-Bold findfont
dup length dict begin
  {1 index /FID ne {def} {pop pop} ifelse} forall
  /Encoding WinAnsiEncoding def
  currentdict
end
/Helvetica-Bold exch definefont pop
/Helvetica-Oblique findfont
dup length dict begin
  {1 index /FID ne {def} {pop pop} ifelse} forall
  /Encoding WinAnsiEncoding def
  currentdict
end
/Helvetica-Oblique exch definefont pop
/Times-BoldItalic findfont
dup length dict begin
  {1 index /FID ne {def} {pop pop} ifelse} forall
  /Encoding WinAnsiEncoding def
  currentdict
end
/Times-BoldItalic exch definefont pop
/Courier findfont
dup length dict begin
  {1 index /FID ne {def} {pop pop} ifelse} forall
  /Encoding WinAnsiEncoding def
  currentdict
end
/Courier exch definefont pop
/Times-Italic findfont
dup length dict begin
  {1 index /FID ne {def} {pop pop} ifelse} forall
  /Encoding WinAnsiEncoding def
  currentdict
end
/Times-Italic exch definefont pop
/Times-Bold findfont
dup length dict begin
  {1 index /FID ne {def} {pop pop} ifelse} forall
  /Encoding WinAnsiEncoding def
  currentdict
end
/Times-Bold exch definefont pop
%FOPEndFontReencode
%%EndProlog
%%Page: 1 1
%%PageBoundingBox: 0 0 560 420
%%BeginPageSetup
[1 0 0 -1 0 420] CT
%%EndPageSetup
GS
1 GC
N
0 0 560 420 re
f
GR
GS
1 GC
N
0 0 560 420 re
f
GR
GS
1 GC
N
73 374 M
507 374 L
507 31.5 L
73 31.5 L
cp
f
GR
GS
0.149 GC
2 setlinecap
1 LJ
0.5 LW
N
73 374 M
507 374 L
S
GR
GS
0.149 GC
2 setlinecap
1 LJ
0.5 LW
N
73 31.5 M
507 31.5 L
S
GR
GS
0.149 GC
2 setlinecap
1 LJ
0.5 LW
N
83.85 374 M
83.85 369.66 L
S
GR
GS
0.149 GC
2 setlinecap
1 LJ
0.5 LW
N
105.55 374 M
105.55 369.66 L
S
GR
GS
0.149 GC
2 setlinecap
1 LJ
0.5 LW
N
127.25 374 M
127.25 369.66 L
S
GR
GS
0.149 GC
2 setlinecap
1 LJ
0.5 LW
N
148.95 374 M
148.95 369.66 L
S
GR
GS
0.149 GC
2 setlinecap
1 LJ
0.5 LW
N
170.65 374 M
170.65 369.66 L
S
GR
GS
0.149 GC
2 setlinecap
1 LJ
0.5 LW
N
192.35 374 M
192.35 369.66 L
S
GR
GS
0.149 GC
2 setlinecap
1 LJ
0.5 LW
N
214.05 374 M
214.05 369.66 L
S
GR
GS
0.149 GC
2 setlinecap
1 LJ
0.5 LW
N
235.75 374 M
235.75 369.66 L
S
GR
GS
0.149 GC
2 setlinecap
1 LJ
0.5 LW
N
257.45 374 M
257.45 369.66 L
S
GR
GS
0.149 GC
2 setlinecap
1 LJ
0.5 LW
N
279.15 374 M
279.15 369.66 L
S
GR
GS
0.149 GC
2 setlinecap
1 LJ
0.5 LW
N
300.85 374 M
300.85 369.66 L
S
GR
GS
0.149 GC
2 setlinecap
1 LJ
0.5 LW
N
322.55 374 M
322.55 369.66 L
S
GR
GS
0.149 GC
2 setlinecap
1 LJ
0.5 LW
N
344.25 374 M
344.25 369.66 L
S
GR
GS
0.149 GC
2 setlinecap
1 LJ
0.5 LW
N
365.95 374 M
365.95 369.66 L
S
GR
GS
0.149 GC
2 setlinecap
1 LJ
0.5 LW
N
387.65 374 M
387.65 369.66 L
S
GR
GS
0.149 GC
2 setlinecap
1 LJ
0.5 LW
N
409.35 374 M
409.35 369.66 L
S
GR
GS
0.149 GC
2 setlinecap
1 LJ
0.5 LW
N
431.05 374 M
431.05 369.66 L
S
GR
GS
0.149 GC
2 setlinecap
1 LJ
0.5 LW
N
452.75 374 M
452.75 369.66 L
S
GR
GS
0.149 GC
2 setlinecap
1 LJ
0.5 LW
N
474.45 374 M
474.45 369.66 L
S
GR
GS
0.149 GC
2 setlinecap
1 LJ
0.5 LW
N
496.15 374 M
496.15 369.66 L
S
GR
GS
0.149 GC
2 setlinecap
1 LJ
0.5 LW
N
83.85 31.5 M
83.85 35.84 L
S
GR
GS
0.149 GC
2 setlinecap
1 LJ
0.5 LW
N
105.55 31.5 M
105.55 35.84 L
S
GR
GS
0.149 GC
2 setlinecap
1 LJ
0.5 LW
N
127.25 31.5 M
127.25 35.84 L
S
GR
GS
0.149 GC
2 setlinecap
1 LJ
0.5 LW
N
148.95 31.5 M
148.95 35.84 L
S
GR
GS
0.149 GC
2 setlinecap
1 LJ
0.5 LW
N
170.65 31.5 M
170.65 35.84 L
S
GR
GS
0.149 GC
2 setlinecap
1 LJ
0.5 LW
N
192.35 31.5 M
192.35 35.84 L
S
GR
GS
0.149 GC
2 setlinecap
1 LJ
0.5 LW
N
214.05 31.5 M
214.05 35.84 L
S
GR
GS
0.149 GC
2 setlinecap
1 LJ
0.5 LW
N
235.75 31.5 M
235.75 35.84 L
S
GR
GS
0.149 GC
2 setlinecap
1 LJ
0.5 LW
N
257.45 31.5 M
257.45 35.84 L
S
GR
GS
0.149 GC
2 setlinecap
1 LJ
0.5 LW
N
279.15 31.5 M
279.15 35.84 L
S
GR
GS
0.149 GC
2 setlinecap
1 LJ
0.5 LW
N
300.85 31.5 M
300.85 35.84 L
S
GR
GS
0.149 GC
2 setlinecap
1 LJ
0.5 LW
N
322.55 31.5 M
322.55 35.84 L
S
GR
GS
0.149 GC
2 setlinecap
1 LJ
0.5 LW
N
344.25 31.5 M
344.25 35.84 L
S
GR
GS
0.149 GC
2 setlinecap
1 LJ
0.5 LW
N
365.95 31.5 M
365.95 35.84 L
S
GR
GS
0.149 GC
2 setlinecap
1 LJ
0.5 LW
N
387.65 31.5 M
387.65 35.84 L
S
GR
GS
0.149 GC
2 setlinecap
1 LJ
0.5 LW
N
409.35 31.5 M
409.35 35.84 L
S
GR
GS
0.149 GC
2 setlinecap
1 LJ
0.5 LW
N
431.05 31.5 M
431.05 35.84 L
S
GR
GS
0.149 GC
2 setlinecap
1 LJ
0.5 LW
N
452.75 31.5 M
452.75 35.84 L
S
GR
GS
0.149 GC
2 setlinecap
1 LJ
0.5 LW
N
474.45 31.5 M
474.45 35.84 L
S
GR
GS
0.149 GC
2 setlinecap
1 LJ
0.5 LW
N
496.15 31.5 M
496.15 35.84 L
S
GR
GS
[1 0 0 1 83.85 378] CT
0.149 GC
/Helvetica 10 F
GS
[1 0 0 1 0 0] CT
-7 10 moveto 
1 -1 scale
(0.1) t 
GR
GR
GS
[1 0 0 1 105.55 378] CT
0.149 GC
/Helvetica 10 F
GS
[1 0 0 1 0 0] CT
-10 10 moveto 
1 -1 scale
(0.15) t 
GR
GR
GS
[1 0 0 1 127.25 378] CT
0.149 GC
/Helvetica 10 F
GS
[1 0 0 1 0 0] CT
-7 10 moveto 
1 -1 scale
(0.2) t 
GR
GR
GS
[1 0 0 1 148.95 378] CT
0.149 GC
/Helvetica 10 F
GS
[1 0 0 1 0 0] CT
-7 10 moveto 
1 -1 scale
(0.3) t 
GR
GR
GS
[1 0 0 1 170.64999 378] CT
0.149 GC
/Helvetica 10 F
GS
[1 0 0 1 0 0] CT
-7 10 moveto 
1 -1 scale
(0.4) t 
GR
GR
GS
[1 0 0 1 192.35001 378] CT
0.149 GC
/Helvetica 10 F
GS
[1 0 0 1 0 0] CT
-7 10 moveto 
1 -1 scale
(0.5) t 
GR
GR
GS
[1 0 0 1 214.05 378] CT
0.149 GC
/Helvetica 10 F
GS
[1 0 0 1 0 0] CT
-7 10 moveto 
1 -1 scale
(0.7) t 
GR
GR
GS
[1 0 0 1 235.75 378] CT
0.149 GC
/Helvetica 10 F
GS
[1 0 0 1 0 0] CT
-3 10 moveto 
1 -1 scale
(1) t 
GR
GR
GS
[1 0 0 1 257.45001 378] CT
0.149 GC
/Helvetica 10 F
GS
[1 0 0 1 0 0] CT
-7 10 moveto 
1 -1 scale
(1.5) t 
GR
GR
GS
[1 0 0 1 279.14999 378] CT
0.149 GC
/Helvetica 10 F
GS
[1 0 0 1 0 0] CT
-3 10 moveto 
1 -1 scale
(2) t 
GR
GR
GS
[1 0 0 1 300.85001 378] CT
0.149 GC
/Helvetica 10 F
GS
[1 0 0 1 0 0] CT
-3 10 moveto 
1 -1 scale
(3) t 
GR
GR
GS
[1 0 0 1 322.54999 378] CT
0.149 GC
/Helvetica 10 F
GS
[1 0 0 1 0 0] CT
-3 10 moveto 
1 -1 scale
(4) t 
GR
GR
GS
[1 0 0 1 344.25 378] CT
0.149 GC
/Helvetica 10 F
GS
[1 0 0 1 0 0] CT
-3 10 moveto 
1 -1 scale
(5) t 
GR
GR
GS
[1 0 0 1 365.95001 378] CT
0.149 GC
/Helvetica 10 F
GS
[1 0 0 1 0 0] CT
-3 10 moveto 
1 -1 scale
(7) t 
GR
GR
GS
[1 0 0 1 387.64999 378] CT
0.149 GC
/Helvetica 10 F
GS
[1 0 0 1 0 0] CT
-3 10 moveto 
1 -1 scale
(9) t 
GR
GR
GS
[1 0 0 1 409.35001 378] CT
0.149 GC
/Helvetica 10 F
GS
[1 0 0 1 0 0] CT
-6 10 moveto 
1 -1 scale
(12) t 
GR
GR
GS
[1 0 0 1 431.04999 378] CT
0.149 GC
/Helvetica 10 F
GS
[1 0 0 1 0 0] CT
-6 10 moveto 
1 -1 scale
(15) t 
GR
GR
GS
[1 0 0 1 452.75 378] CT
0.149 GC
/Helvetica 10 F
GS
[1 0 0 1 0 0] CT
-6 10 moveto 
1 -1 scale
(20) t 
GR
GR
GS
[1 0 0 1 474.45001 378] CT
0.149 GC
/Helvetica 10 F
GS
[1 0 0 1 0 0] CT
-6 10 moveto 
1 -1 scale
(25) t 
GR
GR
GS
[1 0 0 1 496.14999 378] CT
0.149 GC
/Helvetica 10 F
GS
[1 0 0 1 0 0] CT
-6 10 moveto 
1 -1 scale
(30) t 
GR
GR
GS
[1 0 0 1 290.00021 391.5] CT
0.149 GC
/Helvetica 11 F
GS
[1 0 0 1 0 0] CT
-31 11 moveto 
1 -1 scale
(Distance [m]) t 
GR
GR
GS
0.149 GC
2 setlinecap
1 LJ
0.5 LW
N
73 374 M
73 31.5 L
S
GR
GS
0.149 GC
2 setlinecap
1 LJ
0.5 LW
N
507 374 M
507 31.5 L
S
GR
GS
0.149 GC
2 setlinecap
1 LJ
0.5 LW
N
73 345.977 M
77.34 345.977 L
S
GR
GS
0.149 GC
2 setlinecap
1 LJ
0.5 LW
N
73 314.841 M
77.34 314.841 L
S
GR
GS
0.149 GC
2 setlinecap
1 LJ
0.5 LW
N
73 283.705 M
77.34 283.705 L
S
GR
GS
0.149 GC
2 setlinecap
1 LJ
0.5 LW
N
73 252.568 M
77.34 252.568 L
S
GR
GS
0.149 GC
2 setlinecap
1 LJ
0.5 LW
N
73 221.432 M
77.34 221.432 L
S
GR
GS
0.149 GC
2 setlinecap
1 LJ
0.5 LW
N
73 190.295 M
77.34 190.295 L
S
GR
GS
0.149 GC
2 setlinecap
1 LJ
0.5 LW
N
73 159.159 M
77.34 159.159 L
S
GR
GS
0.149 GC
2 setlinecap
1 LJ
0.5 LW
N
73 128.023 M
77.34 128.023 L
S
GR
GS
0.149 GC
2 setlinecap
1 LJ
0.5 LW
N
73 96.886 M
77.34 96.886 L
S
GR
GS
0.149 GC
2 setlinecap
1 LJ
0.5 LW
N
73 65.75 M
77.34 65.75 L
S
GR
GS
0.149 GC
2 setlinecap
1 LJ
0.5 LW
N
73 34.614 M
77.34 34.614 L
S
GR
GS
0.149 GC
2 setlinecap
1 LJ
0.5 LW
N
507 345.977 M
502.66 345.977 L
S
GR
GS
0.149 GC
2 setlinecap
1 LJ
0.5 LW
N
507 314.841 M
502.66 314.841 L
S
GR
GS
0.149 GC
2 setlinecap
1 LJ
0.5 LW
N
507 283.705 M
502.66 283.705 L
S
GR
GS
0.149 GC
2 setlinecap
1 LJ
0.5 LW
N
507 252.568 M
502.66 252.568 L
S
GR
GS
0.149 GC
2 setlinecap
1 LJ
0.5 LW
N
507 221.432 M
502.66 221.432 L
S
GR
GS
0.149 GC
2 setlinecap
1 LJ
0.5 LW
N
507 190.295 M
502.66 190.295 L
S
GR
GS
0.149 GC
2 setlinecap
1 LJ
0.5 LW
N
507 159.159 M
502.66 159.159 L
S
GR
GS
0.149 GC
2 setlinecap
1 LJ
0.5 LW
N
507 128.023 M
502.66 128.023 L
S
GR
GS
0.149 GC
2 setlinecap
1 LJ
0.5 LW
N
507 96.886 M
502.66 96.886 L
S
GR
GS
0.149 GC
2 setlinecap
1 LJ
0.5 LW
N
507 65.75 M
502.66 65.75 L
S
GR
GS
0.149 GC
2 setlinecap
1 LJ
0.5 LW
N
507 34.614 M
502.66 34.614 L
S
GR
GS
[1 0 0 1 69 345.97726] CT
0.149 GC
/Helvetica 10 F
GS
[1 0 0 1 0 0] CT
-16 3.5 moveto 
1 -1 scale
(-90) t 
GR
GR
GS
[1 0 0 1 69 314.84091] CT
0.149 GC
/Helvetica 10 F
GS
[1 0 0 1 0 0] CT
-16 3.5 moveto 
1 -1 scale
(-85) t 
GR
GR
GS
[1 0 0 1 69 283.70456] CT
0.149 GC
/Helvetica 10 F
GS
[1 0 0 1 0 0] CT
-16 3.5 moveto 
1 -1 scale
(-80) t 
GR
GR
GS
[1 0 0 1 69 252.56818] CT
0.149 GC
/Helvetica 10 F
GS
[1 0 0 1 0 0] CT
-16 3.5 moveto 
1 -1 scale
(-75) t 
GR
GR
GS
[1 0 0 1 69 221.43182] CT
0.149 GC
/Helvetica 10 F
GS
[1 0 0 1 0 0] CT
-16 3.5 moveto 
1 -1 scale
(-70) t 
GR
GR
GS
[1 0 0 1 69 190.29546] CT
0.149 GC
/Helvetica 10 F
GS
[1 0 0 1 0 0] CT
-16 3.5 moveto 
1 -1 scale
(-65) t 
GR
GR
GS
[1 0 0 1 69 159.15909] CT
0.149 GC
/Helvetica 10 F
GS
[1 0 0 1 0 0] CT
-16 3.5 moveto 
1 -1 scale
(-60) t 
GR
GR
GS
[1 0 0 1 69 128.02272] CT
0.149 GC
/Helvetica 10 F
GS
[1 0 0 1 0 0] CT
-16 3.5 moveto 
1 -1 scale
(-55) t 
GR
GR
GS
[1 0 0 1 69 96.88636] CT
0.149 GC
/Helvetica 10 F
GS
[1 0 0 1 0 0] CT
-16 3.5 moveto 
1 -1 scale
(-50) t 
GR
GR
GS
[1 0 0 1 69 65.75] CT
0.149 GC
/Helvetica 10 F
GS
[1 0 0 1 0 0] CT
-16 3.5 moveto 
1 -1 scale
(-45) t 
GR
GR
GS
[1 0 0 1 69 34.61364] CT
0.149 GC
/Helvetica 10 F
GS
[1 0 0 1 0 0] CT
-16 3.5 moveto 
1 -1 scale
(-40) t 
GR
GR
GS
[0 -1 1 0 50.5 202.74986] CT
0.149 GC
/Helvetica 11 F
GS
[1 0 0 1 0 0] CT
-27 -3 moveto 
1 -1 scale
(RSS [dBm]) t 
GR
GR
GS
[10 6] 0 setdash
2 LJ
0.5 LW
N
83.85 75.091 M
83.85 53.295 L
S
GR
GS
[10 6] 0 setdash
2 LJ
0.5 LW
N
105.55 59.523 M
105.55 47.068 L
S
GR
GS
[10 6] 0 setdash
2 LJ
0.5 LW
N
127.25 118.682 M
127.25 96.886 L
S
GR
GS
[10 6] 0 setdash
2 LJ
0.5 LW
N
148.95 62.636 M
148.95 53.295 L
S
GR
GS
[10 6] 0 setdash
2 LJ
0.5 LW
N
170.65 90.659 M
170.65 78.205 L
S
GR
GS
[10 6] 0 setdash
2 LJ
0.5 LW
N
192.35 90.659 M
192.35 84.432 L
S
GR
GS
[10 6] 0 setdash
2 LJ
0.5 LW
N
214.05 96.886 M
214.05 96.886 L
S
GR
GS
[10 6] 0 setdash
2 LJ
0.5 LW
N
235.75 152.932 M
235.75 146.705 L
S
GR
GS
[10 6] 0 setdash
2 LJ
0.5 LW
N
257.45 121.795 M
257.45 115.568 L
S
GR
GS
[10 6] 0 setdash
2 LJ
0.5 LW
N
279.15 134.25 M
279.15 121.795 L
S
GR
GS
[10 6] 0 setdash
2 LJ
0.5 LW
N
300.85 149.818 M
300.85 128.023 L
S
GR
GS
[10 6] 0 setdash
2 LJ
0.5 LW
N
322.55 171.614 M
322.55 165.386 L
S
GR
GS
[10 6] 0 setdash
2 LJ
0.5 LW
N
344.25 174.727 M
344.25 165.386 L
S
GR
GS
[10 6] 0 setdash
2 LJ
0.5 LW
N
365.95 180.955 M
365.95 152.932 L
S
GR
GS
[10 6] 0 setdash
2 LJ
0.5 LW
N
387.65 208.977 M
387.65 184.068 L
S
GR
GS
[10 6] 0 setdash
2 LJ
0.5 LW
N
409.35 249.455 M
409.35 240.114 L
S
GR
GS
[10 6] 0 setdash
2 LJ
0.5 LW
N
431.05 246.341 M
431.05 227.659 L
S
GR
GS
[10 6] 0 setdash
2 LJ
0.5 LW
N
452.75 283.705 M
452.75 271.25 L
S
GR
GS
[10 6] 0 setdash
2 LJ
0.5 LW
N
474.45 280.591 M
474.45 258.795 L
S
GR
GS
[10 6] 0 setdash
2 LJ
0.5 LW
N
496.15 283.705 M
496.15 265.023 L
S
GR
GS
[10 6] 0 setdash
2 LJ
0.5 LW
N
83.85 128.023 M
83.85 103.114 L
S
GR
GS
[10 6] 0 setdash
2 LJ
0.5 LW
N
105.55 103.114 M
105.55 96.886 L
S
GR
GS
[10 6] 0 setdash
2 LJ
0.5 LW
N
127.25 152.932 M
127.25 134.25 L
S
GR
GS
[10 6] 0 setdash
2 LJ
0.5 LW
N
148.95 190.295 M
148.95 131.136 L
S
GR
GS
[10 6] 0 setdash
2 LJ
0.5 LW
N
170.65 177.841 M
170.65 171.614 L
S
GR
GS
[10 6] 0 setdash
2 LJ
0.5 LW
N
192.35 128.023 M
192.35 115.568 L
S
GR
GS
[10 6] 0 setdash
2 LJ
0.5 LW
N
214.05 140.477 M
214.05 121.795 L
S
GR
GS
[10 6] 0 setdash
2 LJ
0.5 LW
N
235.75 177.841 M
235.75 165.386 L
S
GR
GS
[10 6] 0 setdash
2 LJ
0.5 LW
N
257.45 165.386 M
257.45 143.591 L
S
GR
GS
[10 6] 0 setdash
2 LJ
0.5 LW
N
279.15 215.205 M
279.15 171.614 L
S
GR
GS
[10 6] 0 setdash
2 LJ
0.5 LW
N
300.85 233.886 M
300.85 199.636 L
S
GR
GS
[10 6] 0 setdash
2 LJ
0.5 LW
N
322.55 208.977 M
322.55 190.295 L
S
GR
GS
[10 6] 0 setdash
2 LJ
0.5 LW
N
344.25 240.114 M
344.25 208.977 L
S
GR
GS
[10 6] 0 setdash
2 LJ
0.5 LW
N
365.95 221.432 M
365.95 202.75 L
S
GR
GS
[10 6] 0 setdash
2 LJ
0.5 LW
N
387.65 277.477 M
387.65 240.114 L
S
GR
GS
[10 6] 0 setdash
2 LJ
0.5 LW
N
409.35 302.386 M
409.35 271.25 L
S
GR
GS
[10 6] 0 setdash
2 LJ
0.5 LW
N
431.05 289.932 M
431.05 268.136 L
S
GR
GS
[10 6] 0 setdash
2 LJ
0.5 LW
N
452.75 314.841 M
452.75 302.386 L
S
GR
GS
[10 6] 0 setdash
2 LJ
0.5 LW
N
474.45 352.205 M
474.45 317.955 L
S
GR
GS
[10 6] 0 setdash
2 LJ
0.5 LW
N
496.15 333.523 M
496.15 308.614 L
S
GR
GS
1 LJ
0.5 LW
N
81.137 53.295 M
86.563 53.295 L
S
GR
GS
1 LJ
0.5 LW
N
102.838 47.068 M
108.262 47.068 L
S
GR
GS
1 LJ
0.5 LW
N
124.537 96.886 M
129.962 96.886 L
S
GR
GS
1 LJ
0.5 LW
N
146.238 53.295 M
151.663 53.295 L
S
GR
GS
1 LJ
0.5 LW
N
167.938 78.205 M
173.363 78.205 L
S
GR
GS
1 LJ
0.5 LW
N
189.637 84.432 M
195.063 84.432 L
S
GR
GS
1 LJ
0.5 LW
N
211.337 96.886 M
216.762 96.886 L
S
GR
GS
1 LJ
0.5 LW
N
233.038 146.705 M
238.462 146.705 L
S
GR
GS
1 LJ
0.5 LW
N
254.738 115.568 M
260.163 115.568 L
S
GR
GS
1 LJ
0.5 LW
N
276.438 121.795 M
281.862 121.795 L
S
GR
GS
1 LJ
0.5 LW
N
298.138 128.023 M
303.563 128.023 L
S
GR
GS
1 LJ
0.5 LW
N
319.837 165.386 M
325.263 165.386 L
S
GR
GS
1 LJ
0.5 LW
N
341.538 165.386 M
346.962 165.386 L
S
GR
GS
1 LJ
0.5 LW
N
363.237 152.932 M
368.663 152.932 L
S
GR
GS
1 LJ
0.5 LW
N
384.938 184.068 M
390.362 184.068 L
S
GR
GS
1 LJ
0.5 LW
N
406.638 240.114 M
412.063 240.114 L
S
GR
GS
1 LJ
0.5 LW
N
428.337 227.659 M
433.763 227.659 L
S
GR
GS
1 LJ
0.5 LW
N
450.038 271.25 M
455.462 271.25 L
S
GR
GS
1 LJ
0.5 LW
N
471.737 258.795 M
477.163 258.795 L
S
GR
GS
1 LJ
0.5 LW
N
493.438 265.023 M
498.862 265.023 L
S
GR
GS
1 LJ
0.5 LW
N
81.137 128.023 M
86.563 128.023 L
S
GR
GS
1 LJ
0.5 LW
N
102.838 103.114 M
108.262 103.114 L
S
GR
GS
1 LJ
0.5 LW
N
124.537 152.932 M
129.962 152.932 L
S
GR
GS
1 LJ
0.5 LW
N
146.238 190.295 M
151.663 190.295 L
S
GR
GS
1 LJ
0.5 LW
N
167.938 177.841 M
173.363 177.841 L
S
GR
GS
1 LJ
0.5 LW
N
189.637 128.023 M
195.063 128.023 L
S
GR
GS
1 LJ
0.5 LW
N
211.337 140.477 M
216.762 140.477 L
S
GR
GS
1 LJ
0.5 LW
N
233.038 177.841 M
238.462 177.841 L
S
GR
GS
1 LJ
0.5 LW
N
254.738 165.386 M
260.163 165.386 L
S
GR
GS
1 LJ
0.5 LW
N
276.438 215.205 M
281.862 215.205 L
S
GR
GS
1 LJ
0.5 LW
N
298.138 233.886 M
303.563 233.886 L
S
GR
GS
1 LJ
0.5 LW
N
319.837 208.977 M
325.263 208.977 L
S
GR
GS
1 LJ
0.5 LW
N
341.538 240.114 M
346.962 240.114 L
S
GR
GS
1 LJ
0.5 LW
N
363.237 221.432 M
368.663 221.432 L
S
GR
GS
1 LJ
0.5 LW
N
384.938 277.477 M
390.362 277.477 L
S
GR
GS
1 LJ
0.5 LW
N
406.638 302.386 M
412.063 302.386 L
S
GR
GS
1 LJ
0.5 LW
N
428.337 289.932 M
433.763 289.932 L
S
GR
GS
1 LJ
0.5 LW
N
450.038 314.841 M
455.462 314.841 L
S
GR
GS
1 LJ
0.5 LW
N
471.737 352.205 M
477.163 352.205 L
S
GR
GS
1 LJ
0.5 LW
N
493.438 333.523 M
498.862 333.523 L
S
GR
GS
0 0 1 RC
1 LJ
0.5 LW
N
78.425 103.114 M
78.425 75.091 L
89.275 75.091 L
89.275 103.114 L
78.425 103.114 L
S
GR
GS
0 0 1 RC
1 LJ
0.5 LW
N
100.125 96.886 M
100.125 59.523 L
110.975 59.523 L
110.975 96.886 L
100.125 96.886 L
S
GR
GS
0 0 1 RC
1 LJ
0.5 LW
N
121.825 134.25 M
121.825 118.682 L
132.675 118.682 L
132.675 134.25 L
121.825 134.25 L
S
GR
GS
0 0 1 RC
1 LJ
0.5 LW
N
143.525 131.136 M
143.525 62.636 L
154.375 62.636 L
154.375 131.136 L
143.525 131.136 L
S
GR
GS
0 0 1 RC
1 LJ
0.5 LW
N
165.225 171.614 M
165.225 90.659 L
176.075 90.659 L
176.075 171.614 L
165.225 171.614 L
S
GR
GS
0 0 1 RC
1 LJ
0.5 LW
N
186.925 115.568 M
186.925 90.659 L
197.775 90.659 L
197.775 115.568 L
186.925 115.568 L
S
GR
GS
0 0 1 RC
1 LJ
0.5 LW
N
208.625 121.795 M
208.625 96.886 L
219.475 96.886 L
219.475 121.795 L
208.625 121.795 L
S
GR
GS
0 0 1 RC
1 LJ
0.5 LW
N
230.325 165.386 M
230.325 152.932 L
241.175 152.932 L
241.175 165.386 L
230.325 165.386 L
S
GR
GS
0 0 1 RC
1 LJ
0.5 LW
N
252.025 143.591 M
252.025 121.795 L
262.875 121.795 L
262.875 143.591 L
252.025 143.591 L
S
GR
GS
0 0 1 RC
1 LJ
0.5 LW
N
273.725 171.614 M
273.725 134.25 L
284.575 134.25 L
284.575 171.614 L
273.725 171.614 L
S
GR
GS
0 0 1 RC
1 LJ
0.5 LW
N
295.425 199.636 M
295.425 149.818 L
306.275 149.818 L
306.275 199.636 L
295.425 199.636 L
S
GR
GS
0 0 1 RC
1 LJ
0.5 LW
N
317.125 190.295 M
317.125 171.614 L
327.975 171.614 L
327.975 190.295 L
317.125 190.295 L
S
GR
GS
0 0 1 RC
1 LJ
0.5 LW
N
338.825 208.977 M
338.825 174.727 L
349.675 174.727 L
349.675 208.977 L
338.825 208.977 L
S
GR
GS
0 0 1 RC
1 LJ
0.5 LW
N
360.525 202.75 M
360.525 180.955 L
371.375 180.955 L
371.375 202.75 L
360.525 202.75 L
S
GR
GS
0 0 1 RC
1 LJ
0.5 LW
N
382.225 240.114 M
382.225 208.977 L
393.075 208.977 L
393.075 240.114 L
382.225 240.114 L
S
GR
GS
0 0 1 RC
1 LJ
0.5 LW
N
403.925 271.25 M
403.925 249.455 L
414.775 249.455 L
414.775 271.25 L
403.925 271.25 L
S
GR
GS
0 0 1 RC
1 LJ
0.5 LW
N
425.625 268.136 M
425.625 246.341 L
436.475 246.341 L
436.475 268.136 L
425.625 268.136 L
S
GR
GS
0 0 1 RC
1 LJ
0.5 LW
N
447.325 302.386 M
447.325 283.705 L
458.175 283.705 L
458.175 302.386 L
447.325 302.386 L
S
GR
GS
0 0 1 RC
1 LJ
0.5 LW
N
469.025 317.955 M
469.025 280.591 L
479.875 280.591 L
479.875 317.955 L
469.025 317.955 L
S
GR
GS
0 0 1 RC
1 LJ
0.5 LW
N
490.725 308.614 M
490.725 283.705 L
501.575 283.705 L
501.575 308.614 L
490.725 308.614 L
S
GR
GS
1 0 0 RC
1 LJ
0.5 LW
N
78.425 93.773 M
89.275 93.773 L
S
GR
GS
1 0 0 RC
1 LJ
0.5 LW
N
100.125 71.977 M
110.975 71.977 L
S
GR
GS
1 0 0 RC
1 LJ
0.5 LW
N
121.825 128.023 M
132.675 128.023 L
S
GR
GS
1 0 0 RC
1 LJ
0.5 LW
N
143.525 87.545 M
154.375 87.545 L
S
GR
GS
1 0 0 RC
1 LJ
0.5 LW
N
165.225 115.568 M
176.075 115.568 L
S
GR
GS
1 0 0 RC
1 LJ
0.5 LW
N
186.925 103.114 M
197.775 103.114 L
S
GR
GS
1 0 0 RC
1 LJ
0.5 LW
N
208.625 109.341 M
219.475 109.341 L
S
GR
GS
1 0 0 RC
1 LJ
0.5 LW
N
230.325 159.159 M
241.175 159.159 L
S
GR
GS
1 0 0 RC
1 LJ
0.5 LW
N
252.025 128.023 M
262.875 128.023 L
S
GR
GS
1 0 0 RC
1 LJ
0.5 LW
N
273.725 146.705 M
284.575 146.705 L
S
GR
GS
1 0 0 RC
1 LJ
0.5 LW
N
295.425 165.386 M
306.275 165.386 L
S
GR
GS
1 0 0 RC
1 LJ
0.5 LW
N
317.125 177.841 M
327.975 177.841 L
S
GR
GS
1 0 0 RC
1 LJ
0.5 LW
N
338.825 193.409 M
349.675 193.409 L
S
GR
GS
1 0 0 RC
1 LJ
0.5 LW
N
360.525 193.409 M
371.375 193.409 L
S
GR
GS
1 0 0 RC
1 LJ
0.5 LW
N
382.225 221.432 M
393.075 221.432 L
S
GR
GS
1 0 0 RC
1 LJ
0.5 LW
N
403.925 258.795 M
414.775 258.795 L
S
GR
GS
1 0 0 RC
1 LJ
0.5 LW
N
425.625 252.568 M
436.475 252.568 L
S
GR
GS
1 0 0 RC
1 LJ
0.5 LW
N
447.325 293.045 M
458.175 293.045 L
S
GR
GS
1 0 0 RC
1 LJ
0.5 LW
N
469.025 289.932 M
479.875 289.932 L
S
GR
GS
1 0 0 RC
1 LJ
0.5 LW
N
490.725 296.159 M
501.575 296.159 L
S
GR
GS
[1 0 0 1 83.85 152.93182] CT
1 0 0 RC
10.0 ML
0.5 LW
N
0 -3 M
0 3 L
-3 0 M
3 0 L
S
GR
GS
[1 0 0 1 127.25 159.15909] CT
1 0 0 RC
10.0 ML
0.5 LW
N
0 -3 M
0 3 L
-3 0 M
3 0 L
S
GR
GS
[1 0 0 1 170.64999 308.61365] CT
1 0 0 RC
10.0 ML
0.5 LW
N
0 -3 M
0 3 L
-3 0 M
3 0 L
S
GR
GS
[1 0 0 1 235.75 202.75] CT
1 0 0 RC
10.0 ML
0.5 LW
N
0 -3 M
0 3 L
-3 0 M
3 0 L
S
GR
GS
[1 0 0 1 235.75 96.88636] CT
1 0 0 RC
10.0 ML
0.5 LW
N
0 -3 M
0 3 L
-3 0 M
3 0 L
S
GR
GS
[1 0 0 1 235.75 96.88636] CT
1 0 0 RC
10.0 ML
0.5 LW
N
0 -3 M
0 3 L
-3 0 M
3 0 L
S
GR
GS
[1 0 0 1 365.95001 265.02274] CT
1 0 0 RC
10.0 ML
0.5 LW
N
0 -3 M
0 3 L
-3 0 M
3 0 L
S
GR
GS
[1 0 0 1 387.64999 308.61365] CT
1 0 0 RC
10.0 ML
0.5 LW
N
0 -3 M
0 3 L
-3 0 M
3 0 L
S
GR
GS
[1 0 0 1 452.75 358.43182] CT
1 0 0 RC
10.0 ML
0.5 LW
N
0 -3 M
0 3 L
-3 0 M
3 0 L
S
GR
GS
[1 0 0 1 452.75 345.97726] CT
1 0 0 RC
10.0 ML
0.5 LW
N
0 -3 M
0 3 L
-3 0 M
3 0 L
S
GR
%%Trailer
%%Pages: 1
%%EOF
