%!PS-Adobe-3.0 EPSF-3.0
%%Creator: (MATLAB, The Mathworks, Inc. Version 9.1.0.441655 \(R2016b\). Operating System: Mac OS X)
%%Title: (/Users/Pascal/Documents/Tech/LOC/Zeno Stoessel/Trilateration_and_Multilateration/Bericht/Bilder/location_cde.eps)
%%CreationDate: 2017-03-20T21:12:24
%%Pages: (atend)
%%BoundingBox: 0 0 384 650
%%LanguageLevel: 3
%%EndComments
%%BeginProlog
%%BeginResource: procset (Apache XML Graphics Std ProcSet) 1.2 0
%%Version: 1.2 0
%%Copyright: (Copyright 2001-2003,2010 The Apache Software Foundation. License terms: http://www.apache.org/licenses/LICENSE-2.0)
/bd{bind def}bind def
/ld{load def}bd
/GR/grestore ld
/M/moveto ld
/LJ/setlinejoin ld
/C/curveto ld
/f/fill ld
/LW/setlinewidth ld
/GC/setgray ld
/t/show ld
/N/newpath ld
/CT/concat ld
/cp/closepath ld
/S/stroke ld
/L/lineto ld
/CC/setcmykcolor ld
/A/ashow ld
/GS/gsave ld
/RC/setrgbcolor ld
/RM/rmoveto ld
/ML/setmiterlimit ld
/re {4 2 roll M
1 index 0 rlineto
0 exch rlineto
neg 0 rlineto
cp } bd
/_ctm matrix def
/_tm matrix def
/BT { _ctm currentmatrix pop matrix _tm copy pop 0 0 moveto } bd
/ET { _ctm setmatrix } bd
/iTm { _ctm setmatrix _tm concat } bd
/Tm { _tm astore pop iTm 0 0 moveto } bd
/ux 0.0 def
/uy 0.0 def
/F {
  /Tp exch def
  /Tf exch def
  Tf findfont Tp scalefont setfont
  /cf Tf def  /cs Tp def
} bd
/ULS {currentpoint /uy exch def /ux exch def} bd
/ULE {
  /Tcx currentpoint pop def
  gsave
  newpath
  cf findfont cs scalefont dup
  /FontMatrix get 0 get /Ts exch def /FontInfo get dup
  /UnderlinePosition get Ts mul /To exch def
  /UnderlineThickness get Ts mul /Tt exch def
  ux uy To add moveto  Tcx uy To add lineto
  Tt setlinewidth stroke
  grestore
} bd
/OLE {
  /Tcx currentpoint pop def
  gsave
  newpath
  cf findfont cs scalefont dup
  /FontMatrix get 0 get /Ts exch def /FontInfo get dup
  /UnderlinePosition get Ts mul /To exch def
  /UnderlineThickness get Ts mul /Tt exch def
  ux uy To add cs add moveto Tcx uy To add cs add lineto
  Tt setlinewidth stroke
  grestore
} bd
/SOE {
  /Tcx currentpoint pop def
  gsave
  newpath
  cf findfont cs scalefont dup
  /FontMatrix get 0 get /Ts exch def /FontInfo get dup
  /UnderlinePosition get Ts mul /To exch def
  /UnderlineThickness get Ts mul /Tt exch def
  ux uy To add cs 10 mul 26 idiv add moveto Tcx uy To add cs 10 mul 26 idiv add lineto
  Tt setlinewidth stroke
  grestore
} bd
/QT {
/Y22 exch store
/X22 exch store
/Y21 exch store
/X21 exch store
currentpoint
/Y21 load 2 mul add 3 div exch
/X21 load 2 mul add 3 div exch
/X21 load 2 mul /X22 load add 3 div
/Y21 load 2 mul /Y22 load add 3 div
/X22 load /Y22 load curveto
} bd
/SSPD {
dup length /d exch dict def
{
/v exch def
/k exch def
currentpagedevice k known {
/cpdv currentpagedevice k get def
v cpdv ne {
/upd false def
/nullv v type /nulltype eq def
/nullcpdv cpdv type /nulltype eq def
nullv nullcpdv or
{
/upd true def
} {
/sametype v type cpdv type eq def
sametype {
v type /arraytype eq {
/vlen v length def
/cpdvlen cpdv length def
vlen cpdvlen eq {
0 1 vlen 1 sub {
/i exch def
/obj v i get def
/cpdobj cpdv i get def
obj cpdobj ne {
/upd true def
exit
} if
} for
} {
/upd true def
} ifelse
} {
v type /dicttype eq {
v {
/dv exch def
/dk exch def
/cpddv cpdv dk get def
dv cpddv ne {
/upd true def
exit
} if
} forall
} {
/upd true def
} ifelse
} ifelse
} if
} ifelse
upd true eq {
d k v put
} if
} if
} if
} forall
d length 0 gt {
d setpagedevice
} if
} bd
/RE { % /NewFontName [NewEncodingArray] /FontName RE -
  findfont dup length dict begin
  {
    1 index /FID ne
    {def} {pop pop} ifelse
  } forall
  /Encoding exch def
  /FontName 1 index def
  currentdict definefont pop
  end
} bind def
%%EndResource
%%BeginResource: procset (Apache XML Graphics EPS ProcSet) 1.0 0
%%Version: 1.0 0
%%Copyright: (Copyright 2002-2003 The Apache Software Foundation. License terms: http://www.apache.org/licenses/LICENSE-2.0)
/BeginEPSF { %def
/b4_Inc_state save def         % Save state for cleanup
/dict_count countdictstack def % Count objects on dict stack
/op_count count 1 sub def      % Count objects on operand stack
userdict begin                 % Push userdict on dict stack
/showpage { } def              % Redefine showpage, { } = null proc
0 setgray 0 setlinecap         % Prepare graphics state
1 setlinewidth 0 setlinejoin
10 setmiterlimit [ ] 0 setdash newpath
/languagelevel where           % If level not equal to 1 then
{pop languagelevel             % set strokeadjust and
1 ne                           % overprint to their defaults.
{false setstrokeadjust false setoverprint
} if
} if
} bd
/EndEPSF { %def
count op_count sub {pop} repeat            % Clean up stacks
countdictstack dict_count sub {end} repeat
b4_Inc_state restore
} bd
%%EndResource
%FOPBeginFontDict
%%IncludeResource: font Courier-Bold
%%IncludeResource: font Helvetica
%%IncludeResource: font Courier-BoldOblique
%%IncludeResource: font Courier-Oblique
%%IncludeResource: font Times-Roman
%%IncludeResource: font Helvetica-BoldOblique
%%IncludeResource: font Helvetica-Bold
%%IncludeResource: font Helvetica-Oblique
%%IncludeResource: font Times-BoldItalic
%%IncludeResource: font Courier
%%IncludeResource: font Times-Italic
%%IncludeResource: font Times-Bold
%%IncludeResource: font Symbol
%%IncludeResource: font ZapfDingbats
%FOPEndFontDict
%%BeginResource: encoding WinAnsiEncoding
/WinAnsiEncoding [
/.notdef /.notdef /.notdef /.notdef /.notdef
/.notdef /.notdef /.notdef /.notdef /.notdef
/.notdef /.notdef /.notdef /.notdef /.notdef
/.notdef /.notdef /.notdef /.notdef /.notdef
/.notdef /.notdef /.notdef /.notdef /.notdef
/.notdef /.notdef /.notdef /.notdef /.notdef
/.notdef /.notdef /space /exclam /quotedbl
/numbersign /dollar /percent /ampersand /quotesingle
/parenleft /parenright /asterisk /plus /comma
/hyphen /period /slash /zero /one
/two /three /four /five /six
/seven /eight /nine /colon /semicolon
/less /equal /greater /question /at
/A /B /C /D /E
/F /G /H /I /J
/K /L /M /N /O
/P /Q /R /S /T
/U /V /W /X /Y
/Z /bracketleft /backslash /bracketright /asciicircum
/underscore /quoteleft /a /b /c
/d /e /f /g /h
/i /j /k /l /m
/n /o /p /q /r
/s /t /u /v /w
/x /y /z /braceleft /bar
/braceright /asciitilde /bullet /Euro /bullet
/quotesinglbase /florin /quotedblbase /ellipsis /dagger
/daggerdbl /circumflex /perthousand /Scaron /guilsinglleft
/OE /bullet /Zcaron /bullet /bullet
/quoteleft /quoteright /quotedblleft /quotedblright /bullet
/endash /emdash /asciitilde /trademark /scaron
/guilsinglright /oe /bullet /zcaron /Ydieresis
/space /exclamdown /cent /sterling /currency
/yen /brokenbar /section /dieresis /copyright
/ordfeminine /guillemotleft /logicalnot /sfthyphen /registered
/macron /degree /plusminus /twosuperior /threesuperior
/acute /mu /paragraph /middot /cedilla
/onesuperior /ordmasculine /guillemotright /onequarter /onehalf
/threequarters /questiondown /Agrave /Aacute /Acircumflex
/Atilde /Adieresis /Aring /AE /Ccedilla
/Egrave /Eacute /Ecircumflex /Edieresis /Igrave
/Iacute /Icircumflex /Idieresis /Eth /Ntilde
/Ograve /Oacute /Ocircumflex /Otilde /Odieresis
/multiply /Oslash /Ugrave /Uacute /Ucircumflex
/Udieresis /Yacute /Thorn /germandbls /agrave
/aacute /acircumflex /atilde /adieresis /aring
/ae /ccedilla /egrave /eacute /ecircumflex
/edieresis /igrave /iacute /icircumflex /idieresis
/eth /ntilde /ograve /oacute /ocircumflex
/otilde /odieresis /divide /oslash /ugrave
/uacute /ucircumflex /udieresis /yacute /thorn
/ydieresis
] def
%%EndResource
%FOPBeginFontReencode
/Courier-Bold findfont
dup length dict begin
  {1 index /FID ne {def} {pop pop} ifelse} forall
  /Encoding WinAnsiEncoding def
  currentdict
end
/Courier-Bold exch definefont pop
/Helvetica findfont
dup length dict begin
  {1 index /FID ne {def} {pop pop} ifelse} forall
  /Encoding WinAnsiEncoding def
  currentdict
end
/Helvetica exch definefont pop
/Courier-BoldOblique findfont
dup length dict begin
  {1 index /FID ne {def} {pop pop} ifelse} forall
  /Encoding WinAnsiEncoding def
  currentdict
end
/Courier-BoldOblique exch definefont pop
/Courier-Oblique findfont
dup length dict begin
  {1 index /FID ne {def} {pop pop} ifelse} forall
  /Encoding WinAnsiEncoding def
  currentdict
end
/Courier-Oblique exch definefont pop
/Times-Roman findfont
dup length dict begin
  {1 index /FID ne {def} {pop pop} ifelse} forall
  /Encoding WinAnsiEncoding def
  currentdict
end
/Times-Roman exch definefont pop
/Helvetica-BoldOblique findfont
dup length dict begin
  {1 index /FID ne {def} {pop pop} ifelse} forall
  /Encoding WinAnsiEncoding def
  currentdict
end
/Helvetica-BoldOblique exch definefont pop
/Helvetica-Bold findfont
dup length dict begin
  {1 index /FID ne {def} {pop pop} ifelse} forall
  /Encoding WinAnsiEncoding def
  currentdict
end
/Helvetica-Bold exch definefont pop
/Helvetica-Oblique findfont
dup length dict begin
  {1 index /FID ne {def} {pop pop} ifelse} forall
  /Encoding WinAnsiEncoding def
  currentdict
end
/Helvetica-Oblique exch definefont pop
/Times-BoldItalic findfont
dup length dict begin
  {1 index /FID ne {def} {pop pop} ifelse} forall
  /Encoding WinAnsiEncoding def
  currentdict
end
/Times-BoldItalic exch definefont pop
/Courier findfont
dup length dict begin
  {1 index /FID ne {def} {pop pop} ifelse} forall
  /Encoding WinAnsiEncoding def
  currentdict
end
/Courier exch definefont pop
/Times-Italic findfont
dup length dict begin
  {1 index /FID ne {def} {pop pop} ifelse} forall
  /Encoding WinAnsiEncoding def
  currentdict
end
/Times-Italic exch definefont pop
/Times-Bold findfont
dup length dict begin
  {1 index /FID ne {def} {pop pop} ifelse} forall
  /Encoding WinAnsiEncoding def
  currentdict
end
/Times-Bold exch definefont pop
%FOPEndFontReencode
%%EndProlog
%%Page: 1 1
%%PageBoundingBox: 0 0 384 650
%%BeginPageSetup
[1 0 0 -1 0 650] CT
%%EndPageSetup
GS
1 GC
N
0 0 384 650 re
f
GR
GS
1 GC
N
0 0 384 650 re
f
GR
GS
1 GC
N
155.058 253.041 M
310.677 193.336 L
242.442 148.873 L
86.823 208.579 L
cp
f
GR
GS
1 GC
N
86.823 208.579 M
242.442 148.873 L
242.442 65.959 L
86.823 125.664 L
cp
f
GR
GS
1 GC
N
242.442 148.873 M
310.677 193.336 L
310.677 110.421 L
242.442 65.959 L
cp
f
GR
GS
0.873 GC
1 LJ
0.5 LW
N
155.058 253.041 M
86.823 208.579 L
S
GR
GS
0.873 GC
1 LJ
0.5 LW
N
192.11 238.826 M
123.875 194.363 L
S
GR
GS
0.873 GC
1 LJ
0.5 LW
N
229.162 224.61 M
160.927 180.148 L
S
GR
GS
0.873 GC
1 LJ
0.5 LW
N
266.214 210.395 M
197.98 165.932 L
S
GR
GS
0.873 GC
1 LJ
0.5 LW
N
303.267 196.179 M
235.032 151.716 L
S
GR
GS
0.873 GC
1 LJ
0.5 LW
N
86.823 208.579 M
86.823 125.664 L
S
GR
GS
0.873 GC
1 LJ
0.5 LW
N
123.875 194.363 M
123.875 111.448 L
S
GR
GS
0.873 GC
1 LJ
0.5 LW
N
160.927 180.148 M
160.927 97.233 L
S
GR
GS
0.873 GC
1 LJ
0.5 LW
N
197.98 165.932 M
197.98 83.017 L
S
GR
GS
0.873 GC
1 LJ
0.5 LW
N
235.032 151.716 M
235.032 68.802 L
S
GR
GS
0.873 GC
1 LJ
0.5 LW
N
310.677 193.336 M
155.058 253.041 L
S
GR
GS
0.873 GC
1 LJ
0.5 LW
N
282.246 174.81 M
126.627 234.515 L
S
GR
GS
0.873 GC
1 LJ
0.5 LW
N
253.815 156.284 M
98.195 215.989 L
S
GR
GS
0.873 GC
1 LJ
0.5 LW
N
310.677 110.421 M
310.677 193.336 L
S
GR
GS
0.873 GC
1 LJ
0.5 LW
N
282.246 91.895 M
282.246 174.81 L
S
GR
GS
0.873 GC
1 LJ
0.5 LW
N
253.815 73.369 M
253.815 156.284 L
S
GR
GS
0.873 GC
1 LJ
0.5 LW
N
242.442 148.873 M
86.823 208.579 L
S
GR
GS
0.873 GC
1 LJ
0.5 LW
N
242.442 108.427 M
86.823 168.133 L
S
GR
GS
0.873 GC
1 LJ
0.5 LW
N
242.442 67.981 M
86.823 127.686 L
S
GR
GS
0.873 GC
1 LJ
0.5 LW
N
310.677 193.336 M
242.442 148.873 L
S
GR
GS
0.873 GC
1 LJ
0.5 LW
N
310.677 152.89 M
242.442 108.427 L
S
GR
GS
0.873 GC
1 LJ
0.5 LW
N
310.677 112.444 M
242.442 67.981 L
S
GR
GS
[1 0 0 1 250.64418 88.28003] CT
/Helvetica 10 F
GS
[1 0 0 1 0 0] CT
-8 3.5 moveto 
1 -1 scale
(C) t 
GR
GR
GS
[1 0 0 1 250.64418 82.2131] CT
1 0 0 RC
10.0 ML
0.5 LW
N
-2.121 -2.121 M
2.121 2.121 L
-2.121 2.121 M
2.121 -2.121 L
S
GR
GS
[1 0 0 1 288.99689 139.45935] CT
/Helvetica 10 F
GS
[1 0 0 1 0 0] CT
-8 3.5 moveto 
1 -1 scale
(D) t 
GR
GR
GS
[1 0 0 1 211.51025 171.92587] CT
/Helvetica 10 F
GS
[1 0 0 1 0 0] CT
-7 3.5 moveto 
1 -1 scale
(P) t 
GR
GR
GS
[1 0 0 1 279.73386 136.9463] CT
1 0 0 RC
10.0 ML
0.5 LW
N
-2.121 -2.121 M
2.121 2.121 L
-2.121 2.121 M
2.121 -2.121 L
S
GR
GS
[1 0 0 1 201.98593 169.07382] CT
0 0.447 0.741 RC
N
1 0 M
1 0.552 0.552 1 0 1 C
-0.552 1 -1 0.552 -1 0 C
-1 -0.552 -0.552 -1 0 -1 C
0.552 -1 1 -0.552 1 0 C
cp
f
GR
GS
[1 0 0 1 201.88126 168.87498] CT
0 0.447 0.741 RC
N
/f-891180347{1 0 M
1 0.552 0.552 1 0 1 C
-0.552 1 -1 0.552 -1 0 C
-1 -0.552 -0.552 -1 0 -1 C
0.552 -1 1 -0.552 1 0 C
cp}def
f-891180347
f
GR
GS
[1 0 0 1 201.8893 168.95497] CT
0 0.447 0.741 RC
N
f-891180347
f
GR
GS
[1 0 0 1 201.89624 168.84554] CT
0 0.447 0.741 RC
N
f-891180347
f
GR
GS
[1 0 0 1 202.02481 169.1649] CT
0 0.447 0.741 RC
N
f-891180347
f
GR
GS
[1 0 0 1 201.89743 169.03496] CT
0 0.447 0.741 RC
N
f-891180347
f
GR
GS
[1 0 0 1 201.73132 168.74336] CT
0 0.447 0.741 RC
N
f-891180347
f
GR
GS
[1 0 0 1 201.92476 168.84901] CT
0 0.447 0.741 RC
N
f-891180347
f
GR
GS
[1 0 0 1 201.92624 168.78661] CT
0 0.447 0.741 RC
N
f-891180347
f
GR
GS
[1 0 0 1 202.07695 169.03708] CT
0 0.447 0.741 RC
N
f-891180347
f
GR
GS
[1 0 0 1 201.97902 168.98073] CT
0 0.447 0.741 RC
N
f-891180347
f
GR
GS
[1 0 0 1 201.89131 169.01192] CT
0 0.447 0.741 RC
N
f-891180347
f
GR
GS
[1 0 0 1 201.96339 168.94012] CT
0 0.447 0.741 RC
N
f-891180347
f
GR
GS
[1 0 0 1 202.22339 169.33417] CT
0 0.447 0.741 RC
N
f-891180347
f
GR
GS
[1 0 0 1 201.9736 169.02777] CT
0 0.447 0.741 RC
N
f-891180347
f
GR
GS
[1 0 0 1 201.88254 169.11371] CT
0 0.447 0.741 RC
N
f-891180347
f
GR
GS
[1 0 0 1 202.00423 169.03889] CT
0 0.447 0.741 RC
N
f-891180347
f
GR
GS
[1 0 0 1 202.11058 169.17513] CT
0 0.447 0.741 RC
N
f-891180347
f
GR
GS
[1 0 0 1 201.97093 168.94998] CT
0 0.447 0.741 RC
N
f-891180347
f
GR
GS
[1 0 0 1 201.9588 169.10651] CT
0 0.447 0.741 RC
N
f-891180347
f
GR
GS
[1 0 0 1 202.39772 169.62646] CT
0 0.447 0.741 RC
N
f-891180347
f
GR
GS
[1 0 0 1 201.75978 168.7961] CT
0 0.447 0.741 RC
N
f-891180347
f
GR
GS
[1 0 0 1 201.83501 168.92163] CT
0 0.447 0.741 RC
N
f-891180347
f
GR
GS
[1 0 0 1 201.97916 169.02995] CT
0 0.447 0.741 RC
N
f-891180347
f
GR
GS
[1 0 0 1 202.09802 169.26155] CT
0 0.447 0.741 RC
N
f-891180347
f
GR
GS
[1 0 0 1 201.86563 168.9328] CT
0 0.447 0.741 RC
N
f-891180347
f
GR
GS
[1 0 0 1 201.88943 169.05345] CT
0 0.447 0.741 RC
N
f-891180347
f
GR
GS
[1 0 0 1 201.97177 169.06931] CT
0 0.447 0.741 RC
N
f-891180347
f
GR
GS
[1 0 0 1 201.97514 169.01456] CT
0 0.447 0.741 RC
N
f-891180347
f
GR
GS
[1 0 0 1 201.89775 169.13345] CT
0 0.447 0.741 RC
N
f-891180347
f
GR
GS
[1 0 0 1 202.0952 169.18375] CT
0 0.447 0.741 RC
N
f-891180347
f
GR
GS
[1 0 0 1 201.99713 169.12746] CT
0 0.447 0.741 RC
N
f-891180347
f
GR
GS
[1 0 0 1 202.01082 169.16037] CT
0 0.447 0.741 RC
N
f-891180347
f
GR
GS
[1 0 0 1 202.01746 169.05087] CT
0 0.447 0.741 RC
N
f-891180347
f
GR
GS
[1 0 0 1 201.90935 168.90674] CT
0 0.447 0.741 RC
N
f-891180347
f
GR
GS
[1 0 0 1 202.15887 169.39526] CT
0 0.447 0.741 RC
N
f-891180347
f
GR
GS
[1 0 0 1 202.17271 169.42813] CT
0 0.447 0.741 RC
N
f-891180347
f
GR
GS
[1 0 0 1 201.97551 169.06371] CT
0 0.447 0.741 RC
N
f-891180347
f
GR
GS
[1 0 0 1 201.9221 168.7993] CT
0 0.447 0.741 RC
N
f-891180347
f
GR
GS
[1 0 0 1 202.24721 169.41283] CT
0 0.447 0.741 RC
N
f-891180347
f
GR
GS
0.149 GC
10.0 ML
0.5 LW
N
155.058 253.041 M
310.677 193.336 L
S
GR
GS
0.149 GC
10.0 ML
0.5 LW
N
303.267 196.179 M
306.758 198.454 L
S
GR
GS
[1 0 0 1 310.1091 200.63779] CT
0.149 GC
/Helvetica 10 F
GS
[1 0 0 1 0 0] CT
0 10 moveto 
1 -1 scale
(8000) t 
GR
GR
GS
[1 0 0 1 79.98046 204.12012] CT
0.149 GC
/Helvetica 10 F
GS
[1 0 0 1 0 0] CT
-6 3.5 moveto 
1 -1 scale
(0) t 
GR
GR
GS
0.149 GC
10.0 ML
0.5 LW
N
86.823 208.579 M
83.332 206.304 L
S
GR
GS
0.149 GC
10.0 ML
0.5 LW
N
155.058 253.041 M
86.823 208.579 L
S
GR
GS
0.149 GC
10.0 ML
0.5 LW
N
86.823 208.579 M
86.823 125.664 L
S
GR
GS
0.149 GC
1 setlinecap
1 LJ
0.5 LW
N
266.214 210.395 M
269.706 212.67 L
S
GR
GS
[1 0 0 1 273.05688 214.85336] CT
0.149 GC
/Helvetica 10 F
GS
[1 0 0 1 0 0] CT
0 10 moveto 
1 -1 scale
(6000) t 
GR
GR
GS
0.149 GC
2 setlinecap
1 LJ
0.5 LW
N
98.195 215.989 M
94.305 217.482 L
S
GR
GS
[1 0 0 1 79.98046 163.67387] CT
0.149 GC
/Helvetica 10 F
GS
[1 0 0 1 0 0] CT
-23 3.5 moveto 
1 -1 scale
(2000) t 
GR
GR
GS
[1 0 0 1 90.57038 218.91467] CT
0.149 GC
/Helvetica 10 F
GS
[1 0 0 1 0 0] CT
-23 10 moveto 
1 -1 scale
(4000) t 
GR
GR
GS
0.149 GC
1 setlinecap
1 LJ
0.5 LW
N
86.823 168.133 M
83.332 165.858 L
S
GR
GS
[0 -1 1 0 53.15598 167.12135] CT
0.149 GC
/Helvetica 11 F
GS
[1 0 0 1 0 0] CT
-28 -3 moveto 
1 -1 scale
(z axis [mm]) t 
GR
GR
GS
[1 0 0 1 232.62956 254.78206] CT
0.149 GC
/Helvetica 11 F
GS
[1 0 0 1 0 0] CT
0 11 moveto 
1 -1 scale
(x axis [mm]) t 
GR
GR
GS
0.149 GC
1 setlinecap
1 LJ
0.5 LW
N
229.162 224.61 M
232.653 226.885 L
S
GR
GS
[1 0 0 1 236.00468 229.06894] CT
0.149 GC
/Helvetica 10 F
GS
[1 0 0 1 0 0] CT
0 10 moveto 
1 -1 scale
(4000) t 
GR
GR
GS
[1 0 0 1 99.33206 258.59277] CT
0.149 GC
/Helvetica 11 F
GS
[1 0 0 1 0 0] CT
-56 11 moveto 
1 -1 scale
(y axis [mm]) t 
GR
GR
GS
[1 0 0 1 79.98046 123.22765] CT
0.149 GC
/Helvetica 10 F
GS
[1 0 0 1 0 0] CT
-23 3.5 moveto 
1 -1 scale
(4000) t 
GR
GR
GS
0.149 GC
2 setlinecap
1 LJ
0.5 LW
N
86.823 127.686 M
83.332 125.411 L
S
GR
GS
0.149 GC
1 setlinecap
1 LJ
0.5 LW
N
126.627 234.515 M
122.736 236.008 L
S
GR
GS
[1 0 0 1 119.00154 237.44078] CT
0.149 GC
/Helvetica 10 F
GS
[1 0 0 1 0 0] CT
-23 10 moveto 
1 -1 scale
(2000) t 
GR
GR
GS
0.149 GC
1 setlinecap
1 LJ
0.5 LW
N
192.11 238.826 M
195.601 241.101 L
S
GR
GS
[1 0 0 1 221.53345 142.70401] CT
/Helvetica 10 F
GS
[1 0 0 1 0 0] CT
-7 3.5 moveto 
1 -1 scale
(E) t 
GR
GR
GS
[1 0 0 1 198.95247 243.28452] CT
0.149 GC
/Helvetica 10 F
GS
[1 0 0 1 0 0] CT
0 10 moveto 
1 -1 scale
(2000) t 
GR
GR
GS
[1 0 0 1 212.2704 140.19096] CT
1 0 0 RC
10.0 ML
0.5 LW
N
-2.121 -2.121 M
2.121 2.121 L
-2.121 2.121 M
2.121 -2.121 L
S
GR
GS
0.149 GC
2 setlinecap
1 LJ
0.5 LW
N
155.058 253.041 M
151.167 254.534 L
S
GR
GS
0.149 GC
2 setlinecap
1 LJ
0.5 LW
N
155.058 253.041 M
158.549 255.316 L
S
GR
GS
[1 0 0 1 147.43269 255.96689] CT
0.149 GC
/Helvetica 10 F
GS
[1 0 0 1 0 0] CT
-6 10 moveto 
1 -1 scale
(0) t 
GR
GR
GS
[1 0 0 1 161.90027 257.50009] CT
0.149 GC
/Helvetica 10 F
GS
[1 0 0 1 0 0] CT
0 10 moveto 
1 -1 scale
(0) t 
GR
GR
GS
1 GC
N
86 112 M
86 85.5 L
218.5 85.5 L
218.5 112 L
cp
f
GR
GS
[1 0 0 1 123 93] CT
/Helvetica 9 F
GS
[1 0 0 1 0 0] CT
0 3.5 moveto 
1 -1 scale
(calculated coordinates) t 
GR
GR
GS
[1 0 0 1 105 93] CT
0 0.447 0.741 RC
N
f-891180347
f
GR
GS
[1 0 0 1 123 104.5] CT
/Helvetica 9 F
GS
[1 0 0 1 0 0] CT
0 3.5 moveto 
1 -1 scale
(ref points) t 
GR
GR
GS
[1 0 0 1 105 104.5] CT
1 0 0 RC
10.0 ML
0.5 LW
N
-2.121 -2.121 M
2.121 2.121 L
-2.121 2.121 M
2.121 -2.121 L
S
GR
GS
0.149 GC
10.0 ML
0.5 LW
N
86 112 M
86 85.5 L
218.5 85.5 L
218.5 112 L
cp
S
GR
GS
1 GC
N
84.559 420.928 M
276.406 442.096 L
313.941 406.768 L
122.094 385.6 L
cp
f
GR
GS
1 GC
N
122.094 385.6 M
313.941 406.768 L
313.941 313.072 L
122.094 291.904 L
cp
f
GR
GS
1 GC
N
84.559 420.928 M
122.094 385.6 L
122.094 291.904 L
84.559 327.232 L
cp
f
GR
GS
0.873 GC
1 LJ
0.5 LW
N
84.559 420.928 M
122.094 385.6 L
S
GR
GS
0.873 GC
1 LJ
0.5 LW
N
130.237 425.968 M
167.772 390.64 L
S
GR
GS
0.873 GC
1 LJ
0.5 LW
N
175.915 431.008 M
213.449 395.68 L
S
GR
GS
0.873 GC
1 LJ
0.5 LW
N
221.593 436.048 M
259.127 400.72 L
S
GR
GS
0.873 GC
1 LJ
0.5 LW
N
267.271 441.088 M
304.805 405.76 L
S
GR
GS
0.873 GC
1 LJ
0.5 LW
N
122.094 385.6 M
122.094 291.904 L
S
GR
GS
0.873 GC
1 LJ
0.5 LW
N
167.772 390.64 M
167.772 296.944 L
S
GR
GS
0.873 GC
1 LJ
0.5 LW
N
213.449 395.68 M
213.449 301.984 L
S
GR
GS
0.873 GC
1 LJ
0.5 LW
N
259.127 400.72 M
259.127 307.024 L
S
GR
GS
0.873 GC
1 LJ
0.5 LW
N
304.805 405.76 M
304.805 312.064 L
S
GR
GS
0.873 GC
1 LJ
0.5 LW
N
276.406 442.096 M
84.559 420.928 L
S
GR
GS
0.873 GC
1 LJ
0.5 LW
N
292.046 427.376 M
100.198 406.208 L
S
GR
GS
0.873 GC
1 LJ
0.5 LW
N
307.685 412.656 M
115.838 391.488 L
S
GR
GS
0.873 GC
1 LJ
0.5 LW
N
84.559 420.928 M
84.559 327.232 L
S
GR
GS
0.873 GC
1 LJ
0.5 LW
N
100.198 406.208 M
100.198 312.512 L
S
GR
GS
0.873 GC
1 LJ
0.5 LW
N
115.838 391.488 M
115.838 297.792 L
S
GR
GS
0.873 GC
1 LJ
0.5 LW
N
313.941 406.768 M
122.094 385.6 L
S
GR
GS
0.873 GC
1 LJ
0.5 LW
N
313.941 383.915 M
122.094 362.747 L
S
GR
GS
0.873 GC
1 LJ
0.5 LW
N
313.941 361.062 M
122.094 339.894 L
S
GR
GS
0.873 GC
1 LJ
0.5 LW
N
313.941 338.21 M
122.094 317.042 L
S
GR
GS
0.873 GC
1 LJ
0.5 LW
N
313.941 315.357 M
122.094 294.189 L
S
GR
GS
0.873 GC
1 LJ
0.5 LW
N
122.094 385.6 M
84.559 420.928 L
S
GR
GS
0.873 GC
1 LJ
0.5 LW
N
122.094 362.747 M
84.559 398.076 L
S
GR
GS
0.873 GC
1 LJ
0.5 LW
N
122.094 339.894 M
84.559 375.223 L
S
GR
GS
0.873 GC
1 LJ
0.5 LW
N
122.094 317.042 M
84.559 352.37 L
S
GR
GS
0.873 GC
1 LJ
0.5 LW
N
122.094 294.189 M
84.559 329.518 L
S
GR
GS
0.149 GC
2 setlinecap
1 LJ
0.5 LW
N
276.406 442.096 M
313.941 406.768 L
S
GR
GS
[1 0 0 1 225.14897 388.96777] CT
0 0.447 0.741 RC
N
f-891180347
f
GR
GS
[1 0 0 1 225.22881 389.15549] CT
0 0.447 0.741 RC
N
f-891180347
f
GR
GS
[1 0 0 1 225.17839 389.22379] CT
0 0.447 0.741 RC
N
f-891180347
f
GR
GS
[1 0 0 1 225.22284 389.11993] CT
0 0.447 0.741 RC
N
f-891180347
f
GR
GS
[1 0 0 1 225.12799 389.29208] CT
0 0.447 0.741 RC
N
f-891180347
f
GR
GS
[1 0 0 1 225.01868 388.97046] CT
0 0.447 0.741 RC
N
f-891180347
f
GR
GS
[1 0 0 1 225.20674 389.37302] CT
0 0.447 0.741 RC
N
f-891180347
f
GR
GS
[1 0 0 1 225.08211 389.24564] CT
0 0.447 0.741 RC
N
f-891180347
f
GR
GS
[1 0 0 1 225.02234 389.33401] CT
0 0.447 0.741 RC
N
f-891180347
f
GR
GS
[1 0 0 1 225.20399 389.11624] CT
0 0.447 0.741 RC
N
f-891180347
f
GR
GS
[1 0 0 1 225.21094 389.04883] CT
0 0.447 0.741 RC
N
f-891180347
f
GR
GS
[1 0 0 1 225.00694 389.10898] CT
0 0.447 0.741 RC
N
f-891180347
f
GR
GS
[1 0 0 1 225.1528 389.45303] CT
0 0.447 0.741 RC
N
f-891180347
f
GR
GS
[1 0 0 1 225.15005 389.19629] CT
0 0.447 0.741 RC
N
f-891180347
f
GR
GS
[1 0 0 1 225.00343 389.12079] CT
0 0.447 0.741 RC
N
f-891180347
f
GR
GS
[1 0 0 1 225.15245 389.24365] CT
0 0.447 0.741 RC
N
f-891180347
f
GR
GS
[1 0 0 1 225.11494 389.28009] CT
0 0.447 0.741 RC
N
f-891180347
f
GR
GS
[1 0 0 1 224.95537 389.23648] CT
0 0.447 0.741 RC
N
f-891180347
f
GR
GS
[1 0 0 1 225.11142 389.29184] CT
0 0.447 0.741 RC
N
f-891180347
f
GR
GS
[1 0 0 1 224.90497 389.30481] CT
0 0.447 0.741 RC
N
f-891180347
f
GR
GS
[1 0 0 1 225.00938 389.32202] CT
0 0.447 0.741 RC
N
f-891180347
f
GR
GS
[1 0 0 1 225.09138 389.1817] CT
0 0.447 0.741 RC
N
f-891180347
f
GR
GS
[1 0 0 1 225.18768 389.32529] CT
0 0.447 0.741 RC
N
f-891180347
f
GR
GS
[1 0 0 1 225.04102 389.25] CT
0 0.447 0.741 RC
N
f-891180347
f
GR
GS
[1 0 0 1 224.97885 389.08157] CT
0 0.447 0.741 RC
N
f-891180347
f
GR
GS
[1 0 0 1 224.98825 389.27097] CT
0 0.447 0.741 RC
N
f-891180347
f
GR
GS
[1 0 0 1 225.01051 389.21902] CT
0 0.447 0.741 RC
N
f-891180347
f
GR
GS
[1 0 0 1 224.94727 389.31918] CT
0 0.447 0.741 RC
N
f-891180347
f
GR
GS
[1 0 0 1 225.09633 389.44174] CT
0 0.447 0.741 RC
N
f-891180347
f
GR
GS
[1 0 0 1 224.93439 389.35101] CT
0 0.447 0.741 RC
N
f-891180347
f
GR
GS
[1 0 0 1 224.94977 388.94763] CT
0 0.447 0.741 RC
N
f-891180347
f
GR
GS
[1 0 0 1 224.97891 389.24713] CT
0 0.447 0.741 RC
N
f-891180347
f
GR
GS
[1 0 0 1 225.00607 389.49921] CT
0 0.447 0.741 RC
N
f-891180347
f
GR
GS
[1 0 0 1 224.89922 389.22537] CT
0 0.447 0.741 RC
N
f-891180347
f
GR
GS
[1 0 0 1 225.12718 389.63788] CT
0 0.447 0.741 RC
N
f-891180347
f
GR
GS
[1 0 0 1 224.98254 389.40082] CT
0 0.447 0.741 RC
N
f-891180347
f
GR
GS
[1 0 0 1 224.88078 389.59637] CT
0 0.447 0.741 RC
N
f-891180347
f
GR
GS
[1 0 0 1 224.86794 389.6282] CT
0 0.447 0.741 RC
N
f-891180347
f
GR
GS
[1 0 0 1 225.03285 389.93076] CT
0 0.447 0.741 RC
N
f-891180347
f
GR
GS
[1 0 0 1 224.84 389.6004] CT
0 0.447 0.741 RC
N
f-891180347
f
GR
GS
[1 0 0 1 236.25949 397.71619] CT
/Helvetica 10 F
GS
[1 0 0 1 0 0] CT
-7 3.5 moveto 
1 -1 scale
(P) t 
GR
GR
GS
0.149 GC
2 setlinecap
1 LJ
0.5 LW
N
307.685 412.656 M
312.481 413.185 L
S
GR
GS
[1 0 0 1 316.45724 413.6236] CT
0.149 GC
/Helvetica 10 F
GS
[1 0 0 1 0 0] CT
0 10 moveto 
1 -1 scale
(4000) t 
GR
GR
GS
[1 0 0 1 309.09894 336.35669] CT
/Helvetica 10 F
GS
[1 0 0 1 0 0] CT
-8 3.5 moveto 
1 -1 scale
(C) t 
GR
GR
GS
[1 0 0 1 75.78699 419.96042] CT
0.149 GC
/Helvetica 10 F
GS
[1 0 0 1 0 0] CT
-6 3.5 moveto 
1 -1 scale
(0) t 
GR
GR
GS
0.149 GC
2 setlinecap
1 LJ
0.5 LW
N
84.559 420.928 M
79.763 420.399 L
S
GR
GS
[1 0 0 1 309.09894 329.50089] CT
1 0 0 RC
10.0 ML
0.5 LW
N
-2.121 -2.121 M
2.121 2.121 L
-2.121 2.121 M
2.121 -2.121 L
S
GR
GS
0.149 GC
10.0 ML
0.5 LW
N
84.559 420.928 M
81.045 424.236 L
S
GR
GS
0.149 GC
10.0 ML
0.5 LW
N
84.559 420.928 M
276.406 442.096 L
S
GR
GS
0.149 GC
10.0 ML
0.5 LW
N
84.559 420.928 M
84.559 327.232 L
S
GR
GS
[1 0 0 1 75.78699 397.10776] CT
0.149 GC
/Helvetica 10 F
GS
[1 0 0 1 0 0] CT
-23 3.5 moveto 
1 -1 scale
(1000) t 
GR
GR
GS
0.149 GC
1 setlinecap
1 LJ
0.5 LW
N
84.559 398.076 M
79.763 397.546 L
S
GR
GS
[1 0 0 1 325.11533 450.58939] CT
0.149 GC
/Helvetica 11 F
GS
[1 0 0 1 0 0] CT
0 11 moveto 
1 -1 scale
(y axis [mm]) t 
GR
GR
GS
[1 0 0 1 75.78699 374.2551] CT
0.149 GC
/Helvetica 10 F
GS
[1 0 0 1 0 0] CT
-23 3.5 moveto 
1 -1 scale
(2000) t 
GR
GR
GS
0.149 GC
1 setlinecap
1 LJ
0.5 LW
N
84.559 375.223 M
79.763 374.694 L
S
GR
GS
0.149 GC
1 setlinecap
1 LJ
0.5 LW
N
130.237 425.968 M
126.723 429.275 L
S
GR
GS
[0 -1 1 0 50.23376 374.08032] CT
0.149 GC
/Helvetica 11 F
GS
[1 0 0 1 0 0] CT
-28 -3 moveto 
1 -1 scale
(z axis [mm]) t 
GR
GR
GS
[1 0 0 1 78.13265 426.97705] CT
0.149 GC
/Helvetica 10 F
GS
[1 0 0 1 0 0] CT
-6 10 moveto 
1 -1 scale
(0) t 
GR
GR
GS
0.149 GC
1 setlinecap
1 LJ
0.5 LW
N
292.046 427.376 M
296.842 427.905 L
S
GR
GS
[1 0 0 1 75.78699 351.40244] CT
0.149 GC
/Helvetica 10 F
GS
[1 0 0 1 0 0] CT
-23 3.5 moveto 
1 -1 scale
(3000) t 
GR
GR
GS
[1 0 0 1 300.81784 428.34387] CT
0.149 GC
/Helvetica 10 F
GS
[1 0 0 1 0 0] CT
0 10 moveto 
1 -1 scale
(2000) t 
GR
GR
GS
0.149 GC
1 setlinecap
1 LJ
0.5 LW
N
84.559 352.37 M
79.763 351.841 L
S
GR
GS
[1 0 0 1 75.78699 328.54977] CT
0.149 GC
/Helvetica 10 F
GS
[1 0 0 1 0 0] CT
-23 3.5 moveto 
1 -1 scale
(4000) t 
GR
GR
GS
0.149 GC
2 setlinecap
1 LJ
0.5 LW
N
84.559 329.518 M
79.763 328.988 L
S
GR
GS
0.149 GC
1 setlinecap
1 LJ
0.5 LW
N
175.915 431.008 M
172.401 434.315 L
S
GR
GS
[1 0 0 1 189.11926 454.12958] CT
0.149 GC
/Helvetica 11 F
GS
[1 0 0 1 0 0] CT
-56 11 moveto 
1 -1 scale
(x axis [mm]) t 
GR
GR
GS
[1 0 0 1 123.81059 432.01703] CT
0.149 GC
/Helvetica 10 F
GS
[1 0 0 1 0 0] CT
-23 10 moveto 
1 -1 scale
(2000) t 
GR
GR
GS
[1 0 0 1 286.16104 381.9259] CT
1 0 0 RC
10.0 ML
0.5 LW
N
-2.121 -2.121 M
2.121 2.121 L
-2.121 2.121 M
2.121 -2.121 L
S
GR
GS
[1 0 0 1 297.58054 390.04169] CT
/Helvetica 10 F
GS
[1 0 0 1 0 0] CT
-8 3.5 moveto 
1 -1 scale
(D) t 
GR
GR
GS
[1 0 0 1 172.32512 333.60995] CT
1 0 0 RC
10.0 ML
0.5 LW
N
-2.121 -2.121 M
2.121 2.121 L
-2.121 2.121 M
2.121 -2.121 L
S
GR
GS
0.149 GC
10.0 ML
0.5 LW
N
221.593 436.048 M
218.079 439.355 L
S
GR
GS
[1 0 0 1 183.74461 341.72577] CT
/Helvetica 10 F
GS
[1 0 0 1 0 0] CT
-7 3.5 moveto 
1 -1 scale
(E) t 
GR
GR
GS
[1 0 0 1 169.48853 437.05704] CT
0.149 GC
/Helvetica 10 F
GS
[1 0 0 1 0 0] CT
-23 10 moveto 
1 -1 scale
(4000) t 
GR
GR
GS
0.149 GC
2 setlinecap
1 LJ
0.5 LW
N
267.271 441.088 M
263.757 444.395 L
S
GR
GS
0.149 GC
2 setlinecap
1 LJ
0.5 LW
N
276.406 442.096 M
281.203 442.625 L
S
GR
GS
[1 0 0 1 215.16646 442.09702] CT
0.149 GC
/Helvetica 10 F
GS
[1 0 0 1 0 0] CT
-23 10 moveto 
1 -1 scale
(6000) t 
GR
GR
GS
[1 0 0 1 285.17844 443.06418] CT
0.149 GC
/Helvetica 10 F
GS
[1 0 0 1 0 0] CT
0 10 moveto 
1 -1 scale
(0) t 
GR
GR
GS
[1 0 0 1 260.84439 447.13699] CT
0.149 GC
/Helvetica 10 F
GS
[1 0 0 1 0 0] CT
-23 10 moveto 
1 -1 scale
(8000) t 
GR
GR
GS
1 GC
N
230 315 M
230 288.5 L
362.5 288.5 L
362.5 315 L
cp
f
GR
GS
[1 0 0 1 267 296] CT
/Helvetica 9 F
GS
[1 0 0 1 0 0] CT
0 3.5 moveto 
1 -1 scale
(calculated coordinates) t 
GR
GR
GS
[1 0 0 1 249 296] CT
0 0.447 0.741 RC
N
f-891180347
f
GR
GS
[1 0 0 1 267 307.5] CT
/Helvetica 9 F
GS
[1 0 0 1 0 0] CT
0 3.5 moveto 
1 -1 scale
(ref points) t 
GR
GR
GS
[1 0 0 1 249 307.5] CT
1 0 0 RC
10.0 ML
0.5 LW
N
-2.121 -2.121 M
2.121 2.121 L
-2.121 2.121 M
2.121 -2.121 L
S
GR
GS
0.149 GC
10.0 ML
0.5 LW
N
230 315 M
230 288.5 L
362.5 288.5 L
362.5 315 L
cp
S
GR
%%Trailer
%%Pages: 1
%%EOF
