%!PS-Adobe-3.0 EPSF-3.0
%%Creator: (MATLAB, The Mathworks, Inc. Version 9.1.0.441655 \(R2016b\). Operating System: Mac OS X)
%%Title: (/Users/Pascal/Documents/Tech/LOC/Zeno Stoessel/Trilateration_and_Multilateration/Bericht/Bilder/location_abc.eps)
%%CreationDate: 2017-03-20T20:12:00
%%Pages: (atend)
%%BoundingBox: 0 0 472 704
%%LanguageLevel: 3
%%EndComments
%%BeginProlog
%%BeginResource: procset (Apache XML Graphics Std ProcSet) 1.2 0
%%Version: 1.2 0
%%Copyright: (Copyright 2001-2003,2010 The Apache Software Foundation. License terms: http://www.apache.org/licenses/LICENSE-2.0)
/bd{bind def}bind def
/ld{load def}bd
/GR/grestore ld
/M/moveto ld
/LJ/setlinejoin ld
/C/curveto ld
/f/fill ld
/LW/setlinewidth ld
/GC/setgray ld
/t/show ld
/N/newpath ld
/CT/concat ld
/cp/closepath ld
/S/stroke ld
/L/lineto ld
/CC/setcmykcolor ld
/A/ashow ld
/GS/gsave ld
/RC/setrgbcolor ld
/RM/rmoveto ld
/ML/setmiterlimit ld
/re {4 2 roll M
1 index 0 rlineto
0 exch rlineto
neg 0 rlineto
cp } bd
/_ctm matrix def
/_tm matrix def
/BT { _ctm currentmatrix pop matrix _tm copy pop 0 0 moveto } bd
/ET { _ctm setmatrix } bd
/iTm { _ctm setmatrix _tm concat } bd
/Tm { _tm astore pop iTm 0 0 moveto } bd
/ux 0.0 def
/uy 0.0 def
/F {
  /Tp exch def
  /Tf exch def
  Tf findfont Tp scalefont setfont
  /cf Tf def  /cs Tp def
} bd
/ULS {currentpoint /uy exch def /ux exch def} bd
/ULE {
  /Tcx currentpoint pop def
  gsave
  newpath
  cf findfont cs scalefont dup
  /FontMatrix get 0 get /Ts exch def /FontInfo get dup
  /UnderlinePosition get Ts mul /To exch def
  /UnderlineThickness get Ts mul /Tt exch def
  ux uy To add moveto  Tcx uy To add lineto
  Tt setlinewidth stroke
  grestore
} bd
/OLE {
  /Tcx currentpoint pop def
  gsave
  newpath
  cf findfont cs scalefont dup
  /FontMatrix get 0 get /Ts exch def /FontInfo get dup
  /UnderlinePosition get Ts mul /To exch def
  /UnderlineThickness get Ts mul /Tt exch def
  ux uy To add cs add moveto Tcx uy To add cs add lineto
  Tt setlinewidth stroke
  grestore
} bd
/SOE {
  /Tcx currentpoint pop def
  gsave
  newpath
  cf findfont cs scalefont dup
  /FontMatrix get 0 get /Ts exch def /FontInfo get dup
  /UnderlinePosition get Ts mul /To exch def
  /UnderlineThickness get Ts mul /Tt exch def
  ux uy To add cs 10 mul 26 idiv add moveto Tcx uy To add cs 10 mul 26 idiv add lineto
  Tt setlinewidth stroke
  grestore
} bd
/QT {
/Y22 exch store
/X22 exch store
/Y21 exch store
/X21 exch store
currentpoint
/Y21 load 2 mul add 3 div exch
/X21 load 2 mul add 3 div exch
/X21 load 2 mul /X22 load add 3 div
/Y21 load 2 mul /Y22 load add 3 div
/X22 load /Y22 load curveto
} bd
/SSPD {
dup length /d exch dict def
{
/v exch def
/k exch def
currentpagedevice k known {
/cpdv currentpagedevice k get def
v cpdv ne {
/upd false def
/nullv v type /nulltype eq def
/nullcpdv cpdv type /nulltype eq def
nullv nullcpdv or
{
/upd true def
} {
/sametype v type cpdv type eq def
sametype {
v type /arraytype eq {
/vlen v length def
/cpdvlen cpdv length def
vlen cpdvlen eq {
0 1 vlen 1 sub {
/i exch def
/obj v i get def
/cpdobj cpdv i get def
obj cpdobj ne {
/upd true def
exit
} if
} for
} {
/upd true def
} ifelse
} {
v type /dicttype eq {
v {
/dv exch def
/dk exch def
/cpddv cpdv dk get def
dv cpddv ne {
/upd true def
exit
} if
} forall
} {
/upd true def
} ifelse
} ifelse
} if
} ifelse
upd true eq {
d k v put
} if
} if
} if
} forall
d length 0 gt {
d setpagedevice
} if
} bd
/RE { % /NewFontName [NewEncodingArray] /FontName RE -
  findfont dup length dict begin
  {
    1 index /FID ne
    {def} {pop pop} ifelse
  } forall
  /Encoding exch def
  /FontName 1 index def
  currentdict definefont pop
  end
} bind def
%%EndResource
%%BeginResource: procset (Apache XML Graphics EPS ProcSet) 1.0 0
%%Version: 1.0 0
%%Copyright: (Copyright 2002-2003 The Apache Software Foundation. License terms: http://www.apache.org/licenses/LICENSE-2.0)
/BeginEPSF { %def
/b4_Inc_state save def         % Save state for cleanup
/dict_count countdictstack def % Count objects on dict stack
/op_count count 1 sub def      % Count objects on operand stack
userdict begin                 % Push userdict on dict stack
/showpage { } def              % Redefine showpage, { } = null proc
0 setgray 0 setlinecap         % Prepare graphics state
1 setlinewidth 0 setlinejoin
10 setmiterlimit [ ] 0 setdash newpath
/languagelevel where           % If level not equal to 1 then
{pop languagelevel             % set strokeadjust and
1 ne                           % overprint to their defaults.
{false setstrokeadjust false setoverprint
} if
} if
} bd
/EndEPSF { %def
count op_count sub {pop} repeat            % Clean up stacks
countdictstack dict_count sub {end} repeat
b4_Inc_state restore
} bd
%%EndResource
%FOPBeginFontDict
%%IncludeResource: font Courier-Bold
%%IncludeResource: font Helvetica
%%IncludeResource: font Courier-BoldOblique
%%IncludeResource: font Courier-Oblique
%%IncludeResource: font Times-Roman
%%IncludeResource: font Helvetica-BoldOblique
%%IncludeResource: font Helvetica-Bold
%%IncludeResource: font Helvetica-Oblique
%%IncludeResource: font Times-BoldItalic
%%IncludeResource: font Courier
%%IncludeResource: font Times-Italic
%%IncludeResource: font Times-Bold
%%IncludeResource: font Symbol
%%IncludeResource: font ZapfDingbats
%FOPEndFontDict
%%BeginResource: encoding WinAnsiEncoding
/WinAnsiEncoding [
/.notdef /.notdef /.notdef /.notdef /.notdef
/.notdef /.notdef /.notdef /.notdef /.notdef
/.notdef /.notdef /.notdef /.notdef /.notdef
/.notdef /.notdef /.notdef /.notdef /.notdef
/.notdef /.notdef /.notdef /.notdef /.notdef
/.notdef /.notdef /.notdef /.notdef /.notdef
/.notdef /.notdef /space /exclam /quotedbl
/numbersign /dollar /percent /ampersand /quotesingle
/parenleft /parenright /asterisk /plus /comma
/hyphen /period /slash /zero /one
/two /three /four /five /six
/seven /eight /nine /colon /semicolon
/less /equal /greater /question /at
/A /B /C /D /E
/F /G /H /I /J
/K /L /M /N /O
/P /Q /R /S /T
/U /V /W /X /Y
/Z /bracketleft /backslash /bracketright /asciicircum
/underscore /quoteleft /a /b /c
/d /e /f /g /h
/i /j /k /l /m
/n /o /p /q /r
/s /t /u /v /w
/x /y /z /braceleft /bar
/braceright /asciitilde /bullet /Euro /bullet
/quotesinglbase /florin /quotedblbase /ellipsis /dagger
/daggerdbl /circumflex /perthousand /Scaron /guilsinglleft
/OE /bullet /Zcaron /bullet /bullet
/quoteleft /quoteright /quotedblleft /quotedblright /bullet
/endash /emdash /asciitilde /trademark /scaron
/guilsinglright /oe /bullet /zcaron /Ydieresis
/space /exclamdown /cent /sterling /currency
/yen /brokenbar /section /dieresis /copyright
/ordfeminine /guillemotleft /logicalnot /sfthyphen /registered
/macron /degree /plusminus /twosuperior /threesuperior
/acute /mu /paragraph /middot /cedilla
/onesuperior /ordmasculine /guillemotright /onequarter /onehalf
/threequarters /questiondown /Agrave /Aacute /Acircumflex
/Atilde /Adieresis /Aring /AE /Ccedilla
/Egrave /Eacute /Ecircumflex /Edieresis /Igrave
/Iacute /Icircumflex /Idieresis /Eth /Ntilde
/Ograve /Oacute /Ocircumflex /Otilde /Odieresis
/multiply /Oslash /Ugrave /Uacute /Ucircumflex
/Udieresis /Yacute /Thorn /germandbls /agrave
/aacute /acircumflex /atilde /adieresis /aring
/ae /ccedilla /egrave /eacute /ecircumflex
/edieresis /igrave /iacute /icircumflex /idieresis
/eth /ntilde /ograve /oacute /ocircumflex
/otilde /odieresis /divide /oslash /ugrave
/uacute /ucircumflex /udieresis /yacute /thorn
/ydieresis
] def
%%EndResource
%FOPBeginFontReencode
/Courier-Bold findfont
dup length dict begin
  {1 index /FID ne {def} {pop pop} ifelse} forall
  /Encoding WinAnsiEncoding def
  currentdict
end
/Courier-Bold exch definefont pop
/Helvetica findfont
dup length dict begin
  {1 index /FID ne {def} {pop pop} ifelse} forall
  /Encoding WinAnsiEncoding def
  currentdict
end
/Helvetica exch definefont pop
/Courier-BoldOblique findfont
dup length dict begin
  {1 index /FID ne {def} {pop pop} ifelse} forall
  /Encoding WinAnsiEncoding def
  currentdict
end
/Courier-BoldOblique exch definefont pop
/Courier-Oblique findfont
dup length dict begin
  {1 index /FID ne {def} {pop pop} ifelse} forall
  /Encoding WinAnsiEncoding def
  currentdict
end
/Courier-Oblique exch definefont pop
/Times-Roman findfont
dup length dict begin
  {1 index /FID ne {def} {pop pop} ifelse} forall
  /Encoding WinAnsiEncoding def
  currentdict
end
/Times-Roman exch definefont pop
/Helvetica-BoldOblique findfont
dup length dict begin
  {1 index /FID ne {def} {pop pop} ifelse} forall
  /Encoding WinAnsiEncoding def
  currentdict
end
/Helvetica-BoldOblique exch definefont pop
/Helvetica-Bold findfont
dup length dict begin
  {1 index /FID ne {def} {pop pop} ifelse} forall
  /Encoding WinAnsiEncoding def
  currentdict
end
/Helvetica-Bold exch definefont pop
/Helvetica-Oblique findfont
dup length dict begin
  {1 index /FID ne {def} {pop pop} ifelse} forall
  /Encoding WinAnsiEncoding def
  currentdict
end
/Helvetica-Oblique exch definefont pop
/Times-BoldItalic findfont
dup length dict begin
  {1 index /FID ne {def} {pop pop} ifelse} forall
  /Encoding WinAnsiEncoding def
  currentdict
end
/Times-BoldItalic exch definefont pop
/Courier findfont
dup length dict begin
  {1 index /FID ne {def} {pop pop} ifelse} forall
  /Encoding WinAnsiEncoding def
  currentdict
end
/Courier exch definefont pop
/Times-Italic findfont
dup length dict begin
  {1 index /FID ne {def} {pop pop} ifelse} forall
  /Encoding WinAnsiEncoding def
  currentdict
end
/Times-Italic exch definefont pop
/Times-Bold findfont
dup length dict begin
  {1 index /FID ne {def} {pop pop} ifelse} forall
  /Encoding WinAnsiEncoding def
  currentdict
end
/Times-Bold exch definefont pop
%FOPEndFontReencode
%%EndProlog
%%Page: 1 1
%%PageBoundingBox: 0 0 472 704
%%BeginPageSetup
[1 0 0 -1 0 704] CT
%%EndPageSetup
GS
1 GC
N
0 0 472 704 re
f
GR
GS
1 GC
N
0 0 472 704 re
f
GR
GS
1 GC
N
199.568 318.351 M
401.453 240.895 L
312.932 183.214 L
111.047 260.67 L
cp
f
GR
GS
1 GC
N
111.047 260.67 M
312.932 183.214 L
312.932 75.649 L
111.047 153.105 L
cp
f
GR
GS
1 GC
N
312.932 183.214 M
401.453 240.895 L
401.453 133.33 L
312.932 75.649 L
cp
f
GR
GS
0.873 GC
1 LJ
0.5 LW
N
199.568 318.351 M
111.047 260.67 L
S
GR
GS
0.873 GC
1 LJ
0.5 LW
N
247.636 299.909 M
159.115 242.228 L
S
GR
GS
0.873 GC
1 LJ
0.5 LW
N
295.704 281.467 M
207.183 223.786 L
S
GR
GS
0.873 GC
1 LJ
0.5 LW
N
343.771 263.026 M
255.251 205.344 L
S
GR
GS
0.873 GC
1 LJ
0.5 LW
N
391.839 244.584 M
303.318 186.902 L
S
GR
GS
0.873 GC
1 LJ
0.5 LW
N
111.047 260.67 M
111.047 153.105 L
S
GR
GS
0.873 GC
1 LJ
0.5 LW
N
159.115 242.228 M
159.115 134.663 L
S
GR
GS
0.873 GC
1 LJ
0.5 LW
N
207.183 223.786 M
207.183 116.221 L
S
GR
GS
0.873 GC
1 LJ
0.5 LW
N
255.251 205.344 M
255.251 97.779 L
S
GR
GS
0.873 GC
1 LJ
0.5 LW
N
303.318 186.902 M
303.318 79.337 L
S
GR
GS
0.873 GC
1 LJ
0.5 LW
N
401.453 240.895 M
199.568 318.351 L
S
GR
GS
0.873 GC
1 LJ
0.5 LW
N
364.569 216.861 M
162.684 294.317 L
S
GR
GS
0.873 GC
1 LJ
0.5 LW
N
327.685 192.828 M
125.801 270.283 L
S
GR
GS
0.873 GC
1 LJ
0.5 LW
N
401.453 133.33 M
401.453 240.895 L
S
GR
GS
0.873 GC
1 LJ
0.5 LW
N
364.569 109.296 M
364.569 216.861 L
S
GR
GS
0.873 GC
1 LJ
0.5 LW
N
327.685 85.262 M
327.685 192.828 L
S
GR
GS
0.873 GC
1 LJ
0.5 LW
N
312.932 183.214 M
111.047 260.67 L
S
GR
GS
0.873 GC
1 LJ
0.5 LW
N
312.932 156.979 M
111.047 234.434 L
S
GR
GS
0.873 GC
1 LJ
0.5 LW
N
312.932 130.743 M
111.047 208.199 L
S
GR
GS
0.873 GC
1 LJ
0.5 LW
N
312.932 104.508 M
111.047 181.964 L
S
GR
GS
0.873 GC
1 LJ
0.5 LW
N
312.932 78.272 M
111.047 155.728 L
S
GR
GS
0.873 GC
1 LJ
0.5 LW
N
401.453 240.895 M
312.932 183.214 L
S
GR
GS
0.873 GC
1 LJ
0.5 LW
N
401.453 214.66 M
312.932 156.979 L
S
GR
GS
0.873 GC
1 LJ
0.5 LW
N
401.453 188.425 M
312.932 130.743 L
S
GR
GS
0.873 GC
1 LJ
0.5 LW
N
401.453 162.189 M
312.932 104.508 L
S
GR
GS
0.873 GC
1 LJ
0.5 LW
N
401.453 135.954 M
312.932 78.272 L
S
GR
GS
[1 0 0 1 335.58911 99.47136] CT
/Helvetica 10 F
GS
[1 0 0 1 0 0] CT
-8 3.5 moveto 
1 -1 scale
(C) t 
GR
GR
GS
[1 0 0 1 323.57217 96.2112] CT
1 0 0 RC
10.0 ML
0.5 LW
N
-2.121 -2.121 M
2.121 2.121 L
-2.121 2.121 M
2.121 -2.121 L
S
GR
GS
[1 0 0 1 275.92978 211.93518] CT
/Helvetica 10 F
GS
[1 0 0 1 0 0] CT
-7 3.5 moveto 
1 -1 scale
(P) t 
GR
GR
GS
0.149 GC
2 setlinecap
1 LJ
0.5 LW
N
199.568 318.351 M
401.453 240.895 L
S
GR
GS
[1 0 0 1 263.9537 208.6331] CT
0 0.447 0.741 RC
N
1 0 M
1 0.552 0.552 1 0 1 C
-0.552 1 -1 0.552 -1 0 C
-1 -0.552 -0.552 -1 0 -1 C
0.552 -1 1 -0.552 1 0 C
cp
f
GR
GS
[1 0 0 1 263.83823 208.5359] CT
0 0.447 0.741 RC
N
/f-891180347{1 0 M
1 0.552 0.552 1 0 1 C
-0.552 1 -1 0.552 -1 0 C
-1 -0.552 -0.552 -1 0 -1 C
0.552 -1 1 -0.552 1 0 C
cp}def
f-891180347
f
GR
GS
[1 0 0 1 263.93881 208.50504] CT
0 0.447 0.741 RC
N
f-891180347
f
GR
GS
[1 0 0 1 264.11984 208.43774] CT
0 0.447 0.741 RC
N
f-891180347
f
GR
GS
[1 0 0 1 264.12479 208.4799] CT
0 0.447 0.741 RC
N
f-891180347
f
GR
GS
[1 0 0 1 264.24048 208.46626] CT
0 0.447 0.741 RC
N
f-891180347
f
GR
GS
[1 0 0 1 264.2908 208.45059] CT
0 0.447 0.741 RC
N
f-891180347
f
GR
GS
[1 0 0 1 264.10995 208.24091] CT
0 0.447 0.741 RC
N
f-891180347
f
GR
GS
[1 0 0 1 264.00067 208.89856] CT
0 0.447 0.741 RC
N
f-891180347
f
GR
GS
[1 0 0 1 263.97656 208.40894] CT
0 0.447 0.741 RC
N
f-891180347
f
GR
GS
[1 0 0 1 264.1496 208.5816] CT
0 0.447 0.741 RC
N
f-891180347
f
GR
GS
[1 0 0 1 264.18216 208.6096] CT
0 0.447 0.741 RC
N
f-891180347
f
GR
GS
[1 0 0 1 264.30548 208.46568] CT
0 0.447 0.741 RC
N
f-891180347
f
GR
GS
[1 0 0 1 264.27762 208.59021] CT
0 0.447 0.741 RC
N
f-891180347
f
GR
GS
[1 0 0 1 264.33072 208.40247] CT
0 0.447 0.741 RC
N
f-891180347
f
GR
GS
[1 0 0 1 264.25287 208.32143] CT
0 0.447 0.741 RC
N
f-891180347
f
GR
GS
[1 0 0 1 264.41858 208.51308] CT
0 0.447 0.741 RC
N
f-891180347
f
GR
GS
[1 0 0 1 263.91284 208.67502] CT
0 0.447 0.741 RC
N
f-891180347
f
GR
GS
[1 0 0 1 264.22214 208.61801] CT
0 0.447 0.741 RC
N
f-891180347
f
GR
GS
[1 0 0 1 264.25418 208.86684] CT
0 0.447 0.741 RC
N
f-891180347
f
GR
GS
[1 0 0 1 264.35794 208.55289] CT
0 0.447 0.741 RC
N
f-891180347
f
GR
GS
[1 0 0 1 264.74573 208.35431] CT
0 0.447 0.741 RC
N
f-891180347
f
GR
GS
[1 0 0 1 264.23746 208.35735] CT
0 0.447 0.741 RC
N
f-891180347
f
GR
GS
[1 0 0 1 264.30032 208.30986] CT
0 0.447 0.741 RC
N
f-891180347
f
GR
GS
[1 0 0 1 264.38773 208.64183] CT
0 0.447 0.741 RC
N
f-891180347
f
GR
GS
[1 0 0 1 264.41595 208.29588] CT
0 0.447 0.741 RC
N
f-891180347
f
GR
GS
[1 0 0 1 264.41315 208.46793] CT
0 0.447 0.741 RC
N
f-891180347
f
GR
GS
[1 0 0 1 264.56934 208.29753] CT
0 0.447 0.741 RC
N
f-891180347
f
GR
GS
[1 0 0 1 264.29477 208.54323] CT
0 0.447 0.741 RC
N
f-891180347
f
GR
GS
[1 0 0 1 264.47604 208.42035] CT
0 0.447 0.741 RC
N
f-891180347
f
GR
GS
[1 0 0 1 264.54846 208.73416] CT
0 0.447 0.741 RC
N
f-891180347
f
GR
GS
[1 0 0 1 264.62961 208.31116] CT
0 0.447 0.741 RC
N
f-891180347
f
GR
GS
[1 0 0 1 264.50781 208.89015] CT
0 0.447 0.741 RC
N
f-891180347
f
GR
GS
[1 0 0 1 264.23703 208.4108] CT
0 0.447 0.741 RC
N
f-891180347
f
GR
GS
[1 0 0 1 264.75253 208.6089] CT
0 0.447 0.741 RC
N
f-891180347
f
GR
GS
[1 0 0 1 264.28708 208.50568] CT
0 0.447 0.741 RC
N
f-891180347
f
GR
GS
[1 0 0 1 264.62161 208.4949] CT
0 0.447 0.741 RC
N
f-891180347
f
GR
GS
[1 0 0 1 264.4379 208.45787] CT
0 0.447 0.741 RC
N
f-891180347
f
GR
GS
[1 0 0 1 264.5036 208.23811] CT
0 0.447 0.741 RC
N
f-891180347
f
GR
GS
[1 0 0 1 264.58527 208.6346] CT
0 0.447 0.741 RC
N
f-891180347
f
GR
GS
0.149 GC
2 setlinecap
1 LJ
0.5 LW
N
391.839 244.584 M
396.368 247.535 L
S
GR
GS
[1 0 0 1 399.71954 249.7187] CT
0.149 GC
/Helvetica 10 F
GS
[1 0 0 1 0 0] CT
0 10 moveto 
1 -1 scale
(8000) t 
GR
GR
GS
[1 0 0 1 103.16692 255.53477] CT
0.149 GC
/Helvetica 10 F
GS
[1 0 0 1 0 0] CT
-6 3.5 moveto 
1 -1 scale
(0) t 
GR
GR
GS
0.149 GC
2 setlinecap
1 LJ
0.5 LW
N
111.047 260.67 M
106.518 257.719 L
S
GR
GS
0.149 GC
2 setlinecap
1 LJ
0.5 LW
N
111.047 260.67 M
111.047 153.105 L
S
GR
GS
0.149 GC
2 setlinecap
1 LJ
0.5 LW
N
199.568 318.351 M
111.047 260.67 L
S
GR
GS
0.149 GC
1 setlinecap
1 LJ
0.5 LW
N
343.771 263.026 M
348.301 265.977 L
S
GR
GS
[1 0 0 1 103.16692 229.29938] CT
0.149 GC
/Helvetica 10 F
GS
[1 0 0 1 0 0] CT
-23 3.5 moveto 
1 -1 scale
(1000) t 
GR
GR
GS
0.149 GC
1 setlinecap
1 LJ
0.5 LW
N
111.047 234.434 M
106.518 231.483 L
S
GR
GS
[1 0 0 1 351.65179 268.16055] CT
0.149 GC
/Helvetica 10 F
GS
[1 0 0 1 0 0] CT
0 10 moveto 
1 -1 scale
(6000) t 
GR
GR
GS
0.149 GC
2 setlinecap
1 LJ
0.5 LW
N
125.801 270.283 M
120.754 272.22 L
S
GR
GS
[1 0 0 1 103.16692 203.06398] CT
0.149 GC
/Helvetica 10 F
GS
[1 0 0 1 0 0] CT
-23 3.5 moveto 
1 -1 scale
(2000) t 
GR
GR
GS
[1 0 0 1 117.01915 273.65253] CT
0.149 GC
/Helvetica 10 F
GS
[1 0 0 1 0 0] CT
-23 10 moveto 
1 -1 scale
(4000) t 
GR
GR
GS
0.149 GC
1 setlinecap
1 LJ
0.5 LW
N
111.047 208.199 M
106.518 205.248 L
S
GR
GS
[0 -1 1 0 76.14154 206.88716] CT
0.149 GC
/Helvetica 11 F
GS
[1 0 0 1 0 0] CT
-28 -3 moveto 
1 -1 scale
(z axis [mm]) t 
GR
GR
GS
[1 0 0 1 289.9451 316.89294] CT
0.149 GC
/Helvetica 11 F
GS
[1 0 0 1 0 0] CT
0 11 moveto 
1 -1 scale
(x axis [mm]) t 
GR
GR
GS
0.149 GC
1 setlinecap
1 LJ
0.5 LW
N
295.704 281.467 M
300.233 284.419 L
S
GR
GS
[1 0 0 1 103.16692 176.82858] CT
0.149 GC
/Helvetica 10 F
GS
[1 0 0 1 0 0] CT
-23 3.5 moveto 
1 -1 scale
(3000) t 
GR
GR
GS
0.149 GC
1 setlinecap
1 LJ
0.5 LW
N
111.047 181.964 M
106.518 179.012 L
S
GR
GS
[1 0 0 1 123.24872 169.86504] CT
/Helvetica 10 F
GS
[1 0 0 1 0 0] CT
-7 3.5 moveto 
1 -1 scale
(B) t 
GR
GR
GS
[1 0 0 1 303.58408 286.60239] CT
0.149 GC
/Helvetica 10 F
GS
[1 0 0 1 0 0] CT
0 10 moveto 
1 -1 scale
(4000) t 
GR
GR
GS
[1 0 0 1 137.53214 321.83655] CT
0.149 GC
/Helvetica 11 F
GS
[1 0 0 1 0 0] CT
-56 11 moveto 
1 -1 scale
(y axis [mm]) t 
GR
GR
GS
[1 0 0 1 103.16692 150.5932] CT
0.149 GC
/Helvetica 10 F
GS
[1 0 0 1 0 0] CT
-23 3.5 moveto 
1 -1 scale
(4000) t 
GR
GR
GS
[1 0 0 1 111.23178 166.60487] CT
1 0 0 RC
10.0 ML
0.5 LW
N
-2.121 -2.121 M
2.121 2.121 L
-2.121 2.121 M
2.121 -2.121 L
S
GR
GS
0.149 GC
2 setlinecap
1 LJ
0.5 LW
N
111.047 155.728 M
106.518 152.777 L
S
GR
GS
0.149 GC
1 setlinecap
1 LJ
0.5 LW
N
162.684 294.317 M
157.637 296.254 L
S
GR
GS
[1 0 0 1 153.90282 297.6864] CT
0.149 GC
/Helvetica 10 F
GS
[1 0 0 1 0 0] CT
-23 10 moveto 
1 -1 scale
(2000) t 
GR
GR
GS
0.149 GC
1 setlinecap
1 LJ
0.5 LW
N
247.636 299.909 M
252.165 302.86 L
S
GR
GS
[1 0 0 1 255.51634 305.04422] CT
0.149 GC
/Helvetica 10 F
GS
[1 0 0 1 0 0] CT
0 10 moveto 
1 -1 scale
(2000) t 
GR
GR
GS
0.149 GC
2 setlinecap
1 LJ
0.5 LW
N
199.568 318.351 M
194.521 320.287 L
S
GR
GS
0.149 GC
2 setlinecap
1 LJ
0.5 LW
N
199.568 318.351 M
204.097 321.302 L
S
GR
GS
[1 0 0 1 190.78648 321.72025] CT
0.149 GC
/Helvetica 10 F
GS
[1 0 0 1 0 0] CT
-6 10 moveto 
1 -1 scale
(0) t 
GR
GR
GS
[1 0 0 1 207.44861 323.48605] CT
0.149 GC
/Helvetica 10 F
GS
[1 0 0 1 0 0] CT
0 10 moveto 
1 -1 scale
(0) t 
GR
GR
GS
[1 0 0 1 199.56816 232.56131] CT
/Helvetica 10 F
GS
[1 0 0 1 0 0] CT
-7 3.5 moveto 
1 -1 scale
(A) t 
GR
GR
GS
[1 0 0 1 199.56816 224.69069] CT
1 0 0 RC
10.0 ML
0.5 LW
N
-2.121 -2.121 M
2.121 2.121 L
-2.121 2.121 M
2.121 -2.121 L
S
GR
GS
1 GC
N
242.5 166.5 M
242.5 140 L
375 140 L
375 166.5 L
cp
f
GR
GS
[1 0 0 1 279.5 147.5] CT
/Helvetica 9 F
GS
[1 0 0 1 0 0] CT
0 3.5 moveto 
1 -1 scale
(calculated coordinates) t 
GR
GR
GS
[1 0 0 1 261.5 147.5] CT
0 0.447 0.741 RC
N
f-891180347
f
GR
GS
[1 0 0 1 279.5 159] CT
/Helvetica 9 F
GS
[1 0 0 1 0 0] CT
0 3.5 moveto 
1 -1 scale
(ref points) t 
GR
GR
GS
[1 0 0 1 261.5 159] CT
1 0 0 RC
10.0 ML
0.5 LW
N
-2.121 -2.121 M
2.121 2.121 L
-2.121 2.121 M
2.121 -2.121 L
S
GR
GS
0.149 GC
10.0 ML
0.5 LW
N
242.5 166.5 M
242.5 140 L
375 140 L
375 166.5 L
cp
S
GR
GS
1 GC
N
114.77 544.772 M
358.305 551.61 L
409.23 540.932 L
165.695 534.095 L
cp
f
GR
GS
1 GC
N
165.695 534.095 M
409.23 540.932 L
409.23 414.728 L
165.695 407.89 L
cp
f
GR
GS
1 GC
N
114.77 544.772 M
165.695 534.095 L
165.695 407.89 L
114.77 418.568 L
cp
f
GR
GS
0.873 GC
1 LJ
0.5 LW
N
114.77 544.772 M
165.695 534.095 L
S
GR
GS
0.873 GC
1 LJ
0.5 LW
N
172.754 546.4 M
223.68 535.723 L
S
GR
GS
0.873 GC
1 LJ
0.5 LW
N
230.739 548.028 M
281.664 537.351 L
S
GR
GS
0.873 GC
1 LJ
0.5 LW
N
288.723 549.656 M
339.649 538.979 L
S
GR
GS
0.873 GC
1 LJ
0.5 LW
N
346.708 551.284 M
397.633 540.607 L
S
GR
GS
0.873 GC
1 LJ
0.5 LW
N
165.695 534.095 M
165.695 407.89 L
S
GR
GS
0.873 GC
1 LJ
0.5 LW
N
223.68 535.723 M
223.68 409.518 L
S
GR
GS
0.873 GC
1 LJ
0.5 LW
N
281.664 537.351 M
281.664 411.146 L
S
GR
GS
0.873 GC
1 LJ
0.5 LW
N
339.649 538.979 M
339.649 412.774 L
S
GR
GS
0.873 GC
1 LJ
0.5 LW
N
397.633 540.607 M
397.633 414.402 L
S
GR
GS
0.873 GC
1 LJ
0.5 LW
N
358.305 551.61 M
114.77 544.772 L
S
GR
GS
0.873 GC
1 LJ
0.5 LW
N
379.524 547.161 M
135.989 540.323 L
S
GR
GS
0.873 GC
1 LJ
0.5 LW
N
400.743 542.712 M
157.207 535.874 L
S
GR
GS
0.873 GC
1 LJ
0.5 LW
N
114.77 544.772 M
114.77 418.568 L
S
GR
GS
0.873 GC
1 LJ
0.5 LW
N
135.989 540.323 M
135.989 414.119 L
S
GR
GS
0.873 GC
1 LJ
0.5 LW
N
157.207 535.874 M
157.207 409.67 L
S
GR
GS
0.873 GC
1 LJ
0.5 LW
N
409.23 540.932 M
165.695 534.095 L
S
GR
GS
0.873 GC
1 LJ
0.5 LW
N
409.23 510.151 M
165.695 503.313 L
S
GR
GS
0.873 GC
1 LJ
0.5 LW
N
409.23 479.369 M
165.695 472.531 L
S
GR
GS
0.873 GC
1 LJ
0.5 LW
N
409.23 448.588 M
165.695 441.75 L
S
GR
GS
0.873 GC
1 LJ
0.5 LW
N
409.23 417.806 M
165.695 410.968 L
S
GR
GS
0.873 GC
1 LJ
0.5 LW
N
165.695 534.095 M
114.77 544.772 L
S
GR
GS
0.873 GC
1 LJ
0.5 LW
N
165.695 503.313 M
114.77 513.99 L
S
GR
GS
0.873 GC
1 LJ
0.5 LW
N
165.695 472.531 M
114.77 483.209 L
S
GR
GS
0.873 GC
1 LJ
0.5 LW
N
165.695 441.75 M
114.77 452.427 L
S
GR
GS
0.873 GC
1 LJ
0.5 LW
N
165.695 410.968 M
114.77 421.646 L
S
GR
GS
[1 0 0 1 165.58888 423.61108] CT
1 0 0 RC
10.0 ML
0.5 LW
N
-2.121 -2.121 M
2.121 2.121 L
-2.121 2.121 M
2.121 -2.121 L
S
GR
GS
[1 0 0 1 180.08504 433.25256] CT
/Helvetica 10 F
GS
[1 0 0 1 0 0] CT
-7 3.5 moveto 
1 -1 scale
(B) t 
GR
GR
GS
0.149 GC
2 setlinecap
1 LJ
0.5 LW
N
358.305 551.61 M
409.23 540.932 L
S
GR
GS
[1 0 0 1 293.6459 511.19733] CT
0 0.447 0.741 RC
N
f-891180347
f
GR
GS
[1 0 0 1 293.68582 511.15826] CT
0 0.447 0.741 RC
N
f-891180347
f
GR
GS
[1 0 0 1 293.66736 511.29266] CT
0 0.447 0.741 RC
N
f-891180347
f
GR
GS
[1 0 0 1 293.49149 510.91193] CT
0 0.447 0.741 RC
N
f-891180347
f
GR
GS
[1 0 0 1 293.68979 511.03119] CT
0 0.447 0.741 RC
N
f-891180347
f
GR
GS
[1 0 0 1 293.66254 510.78574] CT
0 0.447 0.741 RC
N
f-891180347
f
GR
GS
[1 0 0 1 293.60379 511.02481] CT
0 0.447 0.741 RC
N
f-891180347
f
GR
GS
[1 0 0 1 293.31964 511.37082] CT
0 0.447 0.741 RC
N
f-891180347
f
GR
GS
[1 0 0 1 293.13629 511.01706] CT
0 0.447 0.741 RC
N
f-891180347
f
GR
GS
[1 0 0 1 293.66556 511.01556] CT
0 0.447 0.741 RC
N
f-891180347
f
GR
GS
[1 0 0 1 293.45367 511.04214] CT
0 0.447 0.741 RC
N
f-891180347
f
GR
GS
[1 0 0 1 293.68552 510.99573] CT
0 0.447 0.741 RC
N
f-891180347
f
GR
GS
[1 0 0 1 293.40463 511.03485] CT
0 0.447 0.741 RC
N
f-891180347
f
GR
GS
[1 0 0 1 293.48154 510.72565] CT
0 0.447 0.741 RC
N
f-891180347
f
GR
GS
[1 0 0 1 293.31677 510.97794] CT
0 0.447 0.741 RC
N
f-891180347
f
GR
GS
[1 0 0 1 293.46793 510.87158] CT
0 0.447 0.741 RC
N
f-891180347
f
GR
GS
[1 0 0 1 293.39066 510.97656] CT
0 0.447 0.741 RC
N
f-891180347
f
GR
GS
[1 0 0 1 293.49808 510.80942] CT
0 0.447 0.741 RC
N
f-891180347
f
GR
GS
[1 0 0 1 293.31995 510.6698] CT
0 0.447 0.741 RC
N
f-891180347
f
GR
GS
[1 0 0 1 293.35495 510.61868] CT
0 0.447 0.741 RC
N
f-891180347
f
GR
GS
[1 0 0 1 293.18689 511.17868] CT
0 0.447 0.741 RC
N
f-891180347
f
GR
GS
[1 0 0 1 293.18021 510.6442] CT
0 0.447 0.741 RC
N
f-891180347
f
GR
GS
[1 0 0 1 293.48257 510.90485] CT
0 0.447 0.741 RC
N
f-891180347
f
GR
GS
[1 0 0 1 293.35486 510.88763] CT
0 0.447 0.741 RC
N
f-891180347
f
GR
GS
[1 0 0 1 293.2204 510.80884] CT
0 0.447 0.741 RC
N
f-891180347
f
GR
GS
[1 0 0 1 293.15979 510.72858] CT
0 0.447 0.741 RC
N
f-891180347
f
GR
GS
[1 0 0 1 293.41666 510.60901] CT
0 0.447 0.741 RC
N
f-891180347
f
GR
GS
[1 0 0 1 293.32925 510.75632] CT
0 0.447 0.741 RC
N
f-891180347
f
GR
GS
[1 0 0 1 293.25873 510.92279] CT
0 0.447 0.741 RC
N
f-891180347
f
GR
GS
[1 0 0 1 293.36429 510.70508] CT
0 0.447 0.741 RC
N
f-891180347
f
GR
GS
[1 0 0 1 293.48325 510.6102] CT
0 0.447 0.741 RC
N
f-891180347
f
GR
GS
[1 0 0 1 293.2197 510.66821] CT
0 0.447 0.741 RC
N
f-891180347
f
GR
GS
[1 0 0 1 293.3421 510.46948] CT
0 0.447 0.741 RC
N
f-891180347
f
GR
GS
[1 0 0 1 293.47119 510.60168] CT
0 0.447 0.741 RC
N
f-891180347
f
GR
GS
[1 0 0 1 293.15375 511.11411] CT
0 0.447 0.741 RC
N
f-891180347
f
GR
GS
[1 0 0 1 293.24622 510.97827] CT
0 0.447 0.741 RC
N
f-891180347
f
GR
GS
[1 0 0 1 293.63239 510.72186] CT
0 0.447 0.741 RC
N
f-891180347
f
GR
GS
[1 0 0 1 293.32996 510.73007] CT
0 0.447 0.741 RC
N
f-891180347
f
GR
GS
[1 0 0 1 293.37323 510.85461] CT
0 0.447 0.741 RC
N
f-891180347
f
GR
GS
[1 0 0 1 293.05243 510.72845] CT
0 0.447 0.741 RC
N
f-891180347
f
GR
GS
[1 0 0 1 307.63245 520.65851] CT
/Helvetica 10 F
GS
[1 0 0 1 0 0] CT
-7 3.5 moveto 
1 -1 scale
(P) t 
GR
GR
GS
[1 0 0 1 400.74283 552.80273] CT
0.149 GC
/Helvetica 10 F
GS
[1 0 0 1 0 0] CT
0 10 moveto 
1 -1 scale
(4000) t 
GR
GR
GS
0.149 GC
2 setlinecap
1 LJ
0.5 LW
N
400.743 542.712 M
400.743 548.803 L
S
GR
GS
[1 0 0 1 402.68091 431.7309] CT
1 0 0 RC
10.0 ML
0.5 LW
N
-2.121 -2.121 M
2.121 2.121 L
-2.121 2.121 M
2.121 -2.121 L
S
GR
GS
[1 0 0 1 417.17706 441.37234] CT
/Helvetica 10 F
GS
[1 0 0 1 0 0] CT
-8 3.5 moveto 
1 -1 scale
(C) t 
GR
GR
GS
[1 0 0 1 104.68279 544.48877] CT
0.149 GC
/Helvetica 10 F
GS
[1 0 0 1 0 0] CT
-6 3.5 moveto 
1 -1 scale
(0) t 
GR
GR
GS
0.149 GC
10.0 ML
0.5 LW
N
114.77 544.772 M
108.681 544.601 L
S
GR
GS
[1 0 0 1 104.68279 513.70721] CT
0.149 GC
/Helvetica 10 F
GS
[1 0 0 1 0 0] CT
-23 3.5 moveto 
1 -1 scale
(1000) t 
GR
GR
GS
[1 0 0 1 114.76959 554.86279] CT
0.149 GC
/Helvetica 10 F
GS
[1 0 0 1 0 0] CT
-6 10 moveto 
1 -1 scale
(0) t 
GR
GR
GS
0.149 GC
10.0 ML
0.5 LW
N
114.77 544.772 M
114.77 550.863 L
S
GR
GS
0.149 GC
10.0 ML
0.5 LW
N
114.77 544.772 M
114.77 418.568 L
S
GR
GS
0.149 GC
10.0 ML
0.5 LW
N
114.77 544.772 M
358.305 551.61 L
S
GR
GS
0.149 GC
1 setlinecap
1 LJ
0.5 LW
N
114.77 513.99 M
108.681 513.82 L
S
GR
GS
[1 0 0 1 104.68279 482.92569] CT
0.149 GC
/Helvetica 10 F
GS
[1 0 0 1 0 0] CT
-23 3.5 moveto 
1 -1 scale
(2000) t 
GR
GR
GS
0.149 GC
1 setlinecap
1 LJ
0.5 LW
N
114.77 483.209 M
108.681 483.038 L
S
GR
GS
[1 0 0 1 104.68279 452.14413] CT
0.149 GC
/Helvetica 10 F
GS
[1 0 0 1 0 0] CT
-23 3.5 moveto 
1 -1 scale
(3000) t 
GR
GR
GS
[0 -1 1 0 79.17881 481.66977] CT
0.149 GC
/Helvetica 11 F
GS
[1 0 0 1 0 0] CT
-28 -3 moveto 
1 -1 scale
(z axis [mm]) t 
GR
GR
GS
0.149 GC
1 setlinecap
1 LJ
0.5 LW
N
114.77 452.427 M
108.681 452.256 L
S
GR
GS
[1 0 0 1 104.68279 421.36258] CT
0.149 GC
/Helvetica 10 F
GS
[1 0 0 1 0 0] CT
-23 3.5 moveto 
1 -1 scale
(4000) t 
GR
GR
GS
0.149 GC
2 setlinecap
1 LJ
0.5 LW
N
114.77 421.646 M
108.681 421.475 L
S
GR
GS
[1 0 0 1 114.76959 444.11633] CT
/Helvetica 10 F
GS
[1 0 0 1 0 0] CT
-7 3.5 moveto 
1 -1 scale
(A) t 
GR
GR
GS
[1 0 0 1 114.76959 434.88187] CT
1 0 0 RC
10.0 ML
0.5 LW
N
-2.121 -2.121 M
2.121 2.121 L
-2.121 2.121 M
2.121 -2.121 L
S
GR
GS
[1 0 0 1 411.62717 567.53119] CT
0.149 GC
/Helvetica 11 F
GS
[1 0 0 1 0 0] CT
0 11 moveto 
1 -1 scale
(y axis [mm]) t 
GR
GR
GS
[1 0 0 1 172.75423 556.49084] CT
0.149 GC
/Helvetica 10 F
GS
[1 0 0 1 0 0] CT
-23 10 moveto 
1 -1 scale
(2000) t 
GR
GR
GS
0.149 GC
1 setlinecap
1 LJ
0.5 LW
N
172.754 546.4 M
172.754 552.491 L
S
GR
GS
[1 0 0 1 379.52393 557.25165] CT
0.149 GC
/Helvetica 10 F
GS
[1 0 0 1 0 0] CT
0 10 moveto 
1 -1 scale
(2000) t 
GR
GR
GS
0.149 GC
1 setlinecap
1 LJ
0.5 LW
N
379.524 547.161 M
379.524 553.252 L
S
GR
GS
[1 0 0 1 230.73885 558.11884] CT
0.149 GC
/Helvetica 10 F
GS
[1 0 0 1 0 0] CT
-23 10 moveto 
1 -1 scale
(4000) t 
GR
GR
GS
0.149 GC
1 setlinecap
1 LJ
0.5 LW
N
230.739 548.028 M
230.739 554.119 L
S
GR
GS
[1 0 0 1 256.83038 568.49109] CT
0.149 GC
/Helvetica 11 F
GS
[1 0 0 1 0 0] CT
-56 11 moveto 
1 -1 scale
(x axis [mm]) t 
GR
GR
GS
[1 0 0 1 288.72348 559.74689] CT
0.149 GC
/Helvetica 10 F
GS
[1 0 0 1 0 0] CT
-23 10 moveto 
1 -1 scale
(6000) t 
GR
GR
GS
0.149 GC
1 setlinecap
1 LJ
0.5 LW
N
288.723 549.656 M
288.723 555.747 L
S
GR
GS
[1 0 0 1 346.7081 561.37494] CT
0.149 GC
/Helvetica 10 F
GS
[1 0 0 1 0 0] CT
-23 10 moveto 
1 -1 scale
(8000) t 
GR
GR
GS
0.149 GC
2 setlinecap
1 LJ
0.5 LW
N
346.708 551.284 M
346.708 557.375 L
S
GR
GS
[1 0 0 1 358.30502 561.70056] CT
0.149 GC
/Helvetica 10 F
GS
[1 0 0 1 0 0] CT
0 10 moveto 
1 -1 scale
(0) t 
GR
GR
GS
0.149 GC
2 setlinecap
1 LJ
0.5 LW
N
358.305 551.61 M
358.305 557.701 L
S
GR
GS
1 GC
N
245 467 M
245 440.5 L
377.5 440.5 L
377.5 467 L
cp
f
GR
GS
[1 0 0 1 282 448] CT
/Helvetica 9 F
GS
[1 0 0 1 0 0] CT
0 3.5 moveto 
1 -1 scale
(calculated coordinates) t 
GR
GR
GS
[1 0 0 1 264 448] CT
0 0.447 0.741 RC
N
f-891180347
f
GR
GS
[1 0 0 1 282 459.5] CT
/Helvetica 9 F
GS
[1 0 0 1 0 0] CT
0 3.5 moveto 
1 -1 scale
(ref points) t 
GR
GR
GS
[1 0 0 1 264 459.5] CT
1 0 0 RC
10.0 ML
0.5 LW
N
-2.121 -2.121 M
2.121 2.121 L
-2.121 2.121 M
2.121 -2.121 L
S
GR
GS
0.149 GC
10.0 ML
0.5 LW
N
245 467 M
245 440.5 L
377.5 440.5 L
377.5 467 L
cp
S
GR
%%Trailer
%%Pages: 1
%%EOF
