%!PS-Adobe-3.0 EPSF-3.0
%%Creator: (MATLAB, The Mathworks, Inc. Version 9.1.0.441655 \(R2016b\). Operating System: Mac OS X)
%%Title: (/Users/Pascal/Documents/Tech/LOC/Zeno Stoessel/Trilateration_and_Multilateration/Bericht/Bilder/measured_distances.eps)
%%CreationDate: 2017-03-20T19:37:20
%%Pages: (atend)
%%BoundingBox: 0 0 560 420
%%LanguageLevel: 3
%%EndComments
%%BeginProlog
%%BeginResource: procset (Apache XML Graphics Std ProcSet) 1.2 0
%%Version: 1.2 0
%%Copyright: (Copyright 2001-2003,2010 The Apache Software Foundation. License terms: http://www.apache.org/licenses/LICENSE-2.0)
/bd{bind def}bind def
/ld{load def}bd
/GR/grestore ld
/M/moveto ld
/LJ/setlinejoin ld
/C/curveto ld
/f/fill ld
/LW/setlinewidth ld
/GC/setgray ld
/t/show ld
/N/newpath ld
/CT/concat ld
/cp/closepath ld
/S/stroke ld
/L/lineto ld
/CC/setcmykcolor ld
/A/ashow ld
/GS/gsave ld
/RC/setrgbcolor ld
/RM/rmoveto ld
/ML/setmiterlimit ld
/re {4 2 roll M
1 index 0 rlineto
0 exch rlineto
neg 0 rlineto
cp } bd
/_ctm matrix def
/_tm matrix def
/BT { _ctm currentmatrix pop matrix _tm copy pop 0 0 moveto } bd
/ET { _ctm setmatrix } bd
/iTm { _ctm setmatrix _tm concat } bd
/Tm { _tm astore pop iTm 0 0 moveto } bd
/ux 0.0 def
/uy 0.0 def
/F {
  /Tp exch def
  /Tf exch def
  Tf findfont Tp scalefont setfont
  /cf Tf def  /cs Tp def
} bd
/ULS {currentpoint /uy exch def /ux exch def} bd
/ULE {
  /Tcx currentpoint pop def
  gsave
  newpath
  cf findfont cs scalefont dup
  /FontMatrix get 0 get /Ts exch def /FontInfo get dup
  /UnderlinePosition get Ts mul /To exch def
  /UnderlineThickness get Ts mul /Tt exch def
  ux uy To add moveto  Tcx uy To add lineto
  Tt setlinewidth stroke
  grestore
} bd
/OLE {
  /Tcx currentpoint pop def
  gsave
  newpath
  cf findfont cs scalefont dup
  /FontMatrix get 0 get /Ts exch def /FontInfo get dup
  /UnderlinePosition get Ts mul /To exch def
  /UnderlineThickness get Ts mul /Tt exch def
  ux uy To add cs add moveto Tcx uy To add cs add lineto
  Tt setlinewidth stroke
  grestore
} bd
/SOE {
  /Tcx currentpoint pop def
  gsave
  newpath
  cf findfont cs scalefont dup
  /FontMatrix get 0 get /Ts exch def /FontInfo get dup
  /UnderlinePosition get Ts mul /To exch def
  /UnderlineThickness get Ts mul /Tt exch def
  ux uy To add cs 10 mul 26 idiv add moveto Tcx uy To add cs 10 mul 26 idiv add lineto
  Tt setlinewidth stroke
  grestore
} bd
/QT {
/Y22 exch store
/X22 exch store
/Y21 exch store
/X21 exch store
currentpoint
/Y21 load 2 mul add 3 div exch
/X21 load 2 mul add 3 div exch
/X21 load 2 mul /X22 load add 3 div
/Y21 load 2 mul /Y22 load add 3 div
/X22 load /Y22 load curveto
} bd
/SSPD {
dup length /d exch dict def
{
/v exch def
/k exch def
currentpagedevice k known {
/cpdv currentpagedevice k get def
v cpdv ne {
/upd false def
/nullv v type /nulltype eq def
/nullcpdv cpdv type /nulltype eq def
nullv nullcpdv or
{
/upd true def
} {
/sametype v type cpdv type eq def
sametype {
v type /arraytype eq {
/vlen v length def
/cpdvlen cpdv length def
vlen cpdvlen eq {
0 1 vlen 1 sub {
/i exch def
/obj v i get def
/cpdobj cpdv i get def
obj cpdobj ne {
/upd true def
exit
} if
} for
} {
/upd true def
} ifelse
} {
v type /dicttype eq {
v {
/dv exch def
/dk exch def
/cpddv cpdv dk get def
dv cpddv ne {
/upd true def
exit
} if
} forall
} {
/upd true def
} ifelse
} ifelse
} if
} ifelse
upd true eq {
d k v put
} if
} if
} if
} forall
d length 0 gt {
d setpagedevice
} if
} bd
/RE { % /NewFontName [NewEncodingArray] /FontName RE -
  findfont dup length dict begin
  {
    1 index /FID ne
    {def} {pop pop} ifelse
  } forall
  /Encoding exch def
  /FontName 1 index def
  currentdict definefont pop
  end
} bind def
%%EndResource
%%BeginResource: procset (Apache XML Graphics EPS ProcSet) 1.0 0
%%Version: 1.0 0
%%Copyright: (Copyright 2002-2003 The Apache Software Foundation. License terms: http://www.apache.org/licenses/LICENSE-2.0)
/BeginEPSF { %def
/b4_Inc_state save def         % Save state for cleanup
/dict_count countdictstack def % Count objects on dict stack
/op_count count 1 sub def      % Count objects on operand stack
userdict begin                 % Push userdict on dict stack
/showpage { } def              % Redefine showpage, { } = null proc
0 setgray 0 setlinecap         % Prepare graphics state
1 setlinewidth 0 setlinejoin
10 setmiterlimit [ ] 0 setdash newpath
/languagelevel where           % If level not equal to 1 then
{pop languagelevel             % set strokeadjust and
1 ne                           % overprint to their defaults.
{false setstrokeadjust false setoverprint
} if
} if
} bd
/EndEPSF { %def
count op_count sub {pop} repeat            % Clean up stacks
countdictstack dict_count sub {end} repeat
b4_Inc_state restore
} bd
%%EndResource
%FOPBeginFontDict
%%IncludeResource: font Courier-Bold
%%IncludeResource: font Helvetica
%%IncludeResource: font Courier-BoldOblique
%%IncludeResource: font Courier-Oblique
%%IncludeResource: font Times-Roman
%%IncludeResource: font Helvetica-BoldOblique
%%IncludeResource: font Helvetica-Bold
%%IncludeResource: font Helvetica-Oblique
%%IncludeResource: font Times-BoldItalic
%%IncludeResource: font Courier
%%IncludeResource: font Times-Italic
%%IncludeResource: font Times-Bold
%%IncludeResource: font Symbol
%%IncludeResource: font ZapfDingbats
%FOPEndFontDict
%%BeginResource: encoding WinAnsiEncoding
/WinAnsiEncoding [
/.notdef /.notdef /.notdef /.notdef /.notdef
/.notdef /.notdef /.notdef /.notdef /.notdef
/.notdef /.notdef /.notdef /.notdef /.notdef
/.notdef /.notdef /.notdef /.notdef /.notdef
/.notdef /.notdef /.notdef /.notdef /.notdef
/.notdef /.notdef /.notdef /.notdef /.notdef
/.notdef /.notdef /space /exclam /quotedbl
/numbersign /dollar /percent /ampersand /quotesingle
/parenleft /parenright /asterisk /plus /comma
/hyphen /period /slash /zero /one
/two /three /four /five /six
/seven /eight /nine /colon /semicolon
/less /equal /greater /question /at
/A /B /C /D /E
/F /G /H /I /J
/K /L /M /N /O
/P /Q /R /S /T
/U /V /W /X /Y
/Z /bracketleft /backslash /bracketright /asciicircum
/underscore /quoteleft /a /b /c
/d /e /f /g /h
/i /j /k /l /m
/n /o /p /q /r
/s /t /u /v /w
/x /y /z /braceleft /bar
/braceright /asciitilde /bullet /Euro /bullet
/quotesinglbase /florin /quotedblbase /ellipsis /dagger
/daggerdbl /circumflex /perthousand /Scaron /guilsinglleft
/OE /bullet /Zcaron /bullet /bullet
/quoteleft /quoteright /quotedblleft /quotedblright /bullet
/endash /emdash /asciitilde /trademark /scaron
/guilsinglright /oe /bullet /zcaron /Ydieresis
/space /exclamdown /cent /sterling /currency
/yen /brokenbar /section /dieresis /copyright
/ordfeminine /guillemotleft /logicalnot /sfthyphen /registered
/macron /degree /plusminus /twosuperior /threesuperior
/acute /mu /paragraph /middot /cedilla
/onesuperior /ordmasculine /guillemotright /onequarter /onehalf
/threequarters /questiondown /Agrave /Aacute /Acircumflex
/Atilde /Adieresis /Aring /AE /Ccedilla
/Egrave /Eacute /Ecircumflex /Edieresis /Igrave
/Iacute /Icircumflex /Idieresis /Eth /Ntilde
/Ograve /Oacute /Ocircumflex /Otilde /Odieresis
/multiply /Oslash /Ugrave /Uacute /Ucircumflex
/Udieresis /Yacute /Thorn /germandbls /agrave
/aacute /acircumflex /atilde /adieresis /aring
/ae /ccedilla /egrave /eacute /ecircumflex
/edieresis /igrave /iacute /icircumflex /idieresis
/eth /ntilde /ograve /oacute /ocircumflex
/otilde /odieresis /divide /oslash /ugrave
/uacute /ucircumflex /udieresis /yacute /thorn
/ydieresis
] def
%%EndResource
%FOPBeginFontReencode
/Courier-Bold findfont
dup length dict begin
  {1 index /FID ne {def} {pop pop} ifelse} forall
  /Encoding WinAnsiEncoding def
  currentdict
end
/Courier-Bold exch definefont pop
/Helvetica findfont
dup length dict begin
  {1 index /FID ne {def} {pop pop} ifelse} forall
  /Encoding WinAnsiEncoding def
  currentdict
end
/Helvetica exch definefont pop
/Courier-BoldOblique findfont
dup length dict begin
  {1 index /FID ne {def} {pop pop} ifelse} forall
  /Encoding WinAnsiEncoding def
  currentdict
end
/Courier-BoldOblique exch definefont pop
/Courier-Oblique findfont
dup length dict begin
  {1 index /FID ne {def} {pop pop} ifelse} forall
  /Encoding WinAnsiEncoding def
  currentdict
end
/Courier-Oblique exch definefont pop
/Times-Roman findfont
dup length dict begin
  {1 index /FID ne {def} {pop pop} ifelse} forall
  /Encoding WinAnsiEncoding def
  currentdict
end
/Times-Roman exch definefont pop
/Helvetica-BoldOblique findfont
dup length dict begin
  {1 index /FID ne {def} {pop pop} ifelse} forall
  /Encoding WinAnsiEncoding def
  currentdict
end
/Helvetica-BoldOblique exch definefont pop
/Helvetica-Bold findfont
dup length dict begin
  {1 index /FID ne {def} {pop pop} ifelse} forall
  /Encoding WinAnsiEncoding def
  currentdict
end
/Helvetica-Bold exch definefont pop
/Helvetica-Oblique findfont
dup length dict begin
  {1 index /FID ne {def} {pop pop} ifelse} forall
  /Encoding WinAnsiEncoding def
  currentdict
end
/Helvetica-Oblique exch definefont pop
/Times-BoldItalic findfont
dup length dict begin
  {1 index /FID ne {def} {pop pop} ifelse} forall
  /Encoding WinAnsiEncoding def
  currentdict
end
/Times-BoldItalic exch definefont pop
/Courier findfont
dup length dict begin
  {1 index /FID ne {def} {pop pop} ifelse} forall
  /Encoding WinAnsiEncoding def
  currentdict
end
/Courier exch definefont pop
/Times-Italic findfont
dup length dict begin
  {1 index /FID ne {def} {pop pop} ifelse} forall
  /Encoding WinAnsiEncoding def
  currentdict
end
/Times-Italic exch definefont pop
/Times-Bold findfont
dup length dict begin
  {1 index /FID ne {def} {pop pop} ifelse} forall
  /Encoding WinAnsiEncoding def
  currentdict
end
/Times-Bold exch definefont pop
%FOPEndFontReencode
%%EndProlog
%%Page: 1 1
%%PageBoundingBox: 0 0 560 420
%%BeginPageSetup
[1 0 0 -1 0 420] CT
%%EndPageSetup
GS
1 GC
N
0 0 560 420 re
f
GR
GS
1 GC
N
0 0 560 420 re
f
GR
GS
1 GC
N
89 175 M
192 175 L
192 31.5 L
89 31.5 L
cp
f
GR
GS
0.149 GC
2 setlinecap
1 LJ
0.5 LW
N
89 175 M
192 175 L
S
GR
GS
0.149 GC
2 setlinecap
1 LJ
0.5 LW
N
89 31.5 M
192 31.5 L
S
GR
GS
0.149 GC
2 setlinecap
1 LJ
0.5 LW
N
140.5 175 M
140.5 173.567 L
S
GR
GS
0.149 GC
2 setlinecap
1 LJ
0.5 LW
N
140.5 31.5 M
140.5 32.933 L
S
GR
GS
[1 0 0 1 140.5 178.99911] CT
0.149 GC
/Helvetica 10 F
GS
[1 0 0 1 0 0] CT
-3.5 10 moveto 
1 -1 scale
(A) t 
GR
GR
GS
0.149 GC
2 setlinecap
1 LJ
0.5 LW
N
89 175 M
89 31.5 L
S
GR
GS
0.149 GC
2 setlinecap
1 LJ
0.5 LW
N
192 175 M
192 31.5 L
S
GR
GS
0.149 GC
2 setlinecap
1 LJ
0.5 LW
N
89 156.618 M
90.433 156.618 L
S
GR
GS
0.149 GC
2 setlinecap
1 LJ
0.5 LW
N
89 136.852 M
90.433 136.852 L
S
GR
GS
0.149 GC
2 setlinecap
1 LJ
0.5 LW
N
89 117.086 M
90.433 117.086 L
S
GR
GS
0.149 GC
2 setlinecap
1 LJ
0.5 LW
N
89 97.32 M
90.433 97.32 L
S
GR
GS
0.149 GC
2 setlinecap
1 LJ
0.5 LW
N
89 77.554 M
90.433 77.554 L
S
GR
GS
0.149 GC
2 setlinecap
1 LJ
0.5 LW
N
89 57.789 M
90.433 57.789 L
S
GR
GS
0.149 GC
2 setlinecap
1 LJ
0.5 LW
N
89 38.023 M
90.433 38.023 L
S
GR
GS
0.149 GC
2 setlinecap
1 LJ
0.5 LW
N
192 156.618 M
190.567 156.618 L
S
GR
GS
0.149 GC
2 setlinecap
1 LJ
0.5 LW
N
192 136.852 M
190.567 136.852 L
S
GR
GS
0.149 GC
2 setlinecap
1 LJ
0.5 LW
N
192 117.086 M
190.567 117.086 L
S
GR
GS
0.149 GC
2 setlinecap
1 LJ
0.5 LW
N
192 97.32 M
190.567 97.32 L
S
GR
GS
0.149 GC
2 setlinecap
1 LJ
0.5 LW
N
192 77.554 M
190.567 77.554 L
S
GR
GS
0.149 GC
2 setlinecap
1 LJ
0.5 LW
N
192 57.789 M
190.567 57.789 L
S
GR
GS
0.149 GC
2 setlinecap
1 LJ
0.5 LW
N
192 38.023 M
190.567 38.023 L
S
GR
GS
[1 0 0 1 85 156.61777] CT
0.149 GC
/Helvetica 10 F
GS
[1 0 0 1 0 0] CT
-23 3.5 moveto 
1 -1 scale
(6415) t 
GR
GR
GS
[1 0 0 1 85 136.85193] CT
0.149 GC
/Helvetica 10 F
GS
[1 0 0 1 0 0] CT
-23 3.5 moveto 
1 -1 scale
(6420) t 
GR
GR
GS
[1 0 0 1 85 117.08609] CT
0.149 GC
/Helvetica 10 F
GS
[1 0 0 1 0 0] CT
-23 3.5 moveto 
1 -1 scale
(6425) t 
GR
GR
GS
[1 0 0 1 85 97.32025] CT
0.149 GC
/Helvetica 10 F
GS
[1 0 0 1 0 0] CT
-23 3.5 moveto 
1 -1 scale
(6430) t 
GR
GR
GS
[1 0 0 1 85 77.55441] CT
0.149 GC
/Helvetica 10 F
GS
[1 0 0 1 0 0] CT
-23 3.5 moveto 
1 -1 scale
(6435) t 
GR
GR
GS
[1 0 0 1 85 57.78857] CT
0.149 GC
/Helvetica 10 F
GS
[1 0 0 1 0 0] CT
-23 3.5 moveto 
1 -1 scale
(6440) t 
GR
GR
GS
[1 0 0 1 85 38.02273] CT
0.149 GC
/Helvetica 10 F
GS
[1 0 0 1 0 0] CT
-23 3.5 moveto 
1 -1 scale
(6445) t 
GR
GR
GS
[0 -1 1 0 59.3 103.25] CT
0.149 GC
/Helvetica 11 F
GS
[1 0 0 1 0 0] CT
-35.5 -3 moveto 
1 -1 scale
(Distance [mm]) t 
GR
GR
GS
[10 6] 0 setdash
2 LJ
0.5 LW
N
140.5 83.484 M
140.5 38.023 L
S
GR
GS
[10 6] 0 setdash
2 LJ
0.5 LW
N
140.5 168.477 M
140.5 124.992 L
S
GR
GS
1 LJ
0.5 LW
N
136.637 38.023 M
144.363 38.023 L
S
GR
GS
1 LJ
0.5 LW
N
136.637 168.477 M
144.363 168.477 L
S
GR
GS
0 0 1 RC
1 LJ
0.5 LW
N
132.775 124.992 M
132.775 83.484 L
148.225 83.484 L
148.225 124.992 L
132.775 124.992 L
S
GR
GS
1 0 0 RC
1 LJ
0.5 LW
N
132.775 115.11 M
148.225 115.11 L
S
GR
GS
1 GC
N
246 175.001 M
349.5 175.001 L
349.5 31.499 L
246 31.499 L
cp
f
GR
GS
0.149 GC
2 setlinecap
1 LJ
0.5 LW
N
246 175.001 M
349.5 175.001 L
S
GR
GS
0.149 GC
2 setlinecap
1 LJ
0.5 LW
N
246 31.499 M
349.5 31.499 L
S
GR
GS
0.149 GC
2 setlinecap
1 LJ
0.5 LW
N
297.75 175.001 M
297.75 173.57 L
S
GR
GS
0.149 GC
2 setlinecap
1 LJ
0.5 LW
N
297.75 31.499 M
297.75 32.93 L
S
GR
GS
[1 0 0 1 297.75 179.00093] CT
0.149 GC
/Helvetica 10 F
GS
[1 0 0 1 0 0] CT
-3.5 10 moveto 
1 -1 scale
(B) t 
GR
GR
GS
0.149 GC
2 setlinecap
1 LJ
0.5 LW
N
246 175.001 M
246 31.499 L
S
GR
GS
0.149 GC
2 setlinecap
1 LJ
0.5 LW
N
349.5 175.001 M
349.5 31.499 L
S
GR
GS
0.149 GC
2 setlinecap
1 LJ
0.5 LW
N
246 141.013 M
247.433 141.013 L
S
GR
GS
0.149 GC
2 setlinecap
1 LJ
0.5 LW
N
246 106.683 M
247.433 106.683 L
S
GR
GS
0.149 GC
2 setlinecap
1 LJ
0.5 LW
N
246 72.353 M
247.433 72.353 L
S
GR
GS
0.149 GC
2 setlinecap
1 LJ
0.5 LW
N
246 38.023 M
247.433 38.023 L
S
GR
GS
0.149 GC
2 setlinecap
1 LJ
0.5 LW
N
349.5 141.013 M
348.067 141.013 L
S
GR
GS
0.149 GC
2 setlinecap
1 LJ
0.5 LW
N
349.5 106.683 M
348.067 106.683 L
S
GR
GS
0.149 GC
2 setlinecap
1 LJ
0.5 LW
N
349.5 72.353 M
348.067 72.353 L
S
GR
GS
0.149 GC
2 setlinecap
1 LJ
0.5 LW
N
349.5 38.023 M
348.067 38.023 L
S
GR
GS
[1 0 0 1 242 141.01315] CT
0.149 GC
/Helvetica 10 F
GS
[1 0 0 1 0 0] CT
-23 3.5 moveto 
1 -1 scale
(5915) t 
GR
GR
GS
[1 0 0 1 242 106.68301] CT
0.149 GC
/Helvetica 10 F
GS
[1 0 0 1 0 0] CT
-23 3.5 moveto 
1 -1 scale
(5920) t 
GR
GR
GS
[1 0 0 1 242 72.35287] CT
0.149 GC
/Helvetica 10 F
GS
[1 0 0 1 0 0] CT
-23 3.5 moveto 
1 -1 scale
(5925) t 
GR
GR
GS
[1 0 0 1 242 38.02273] CT
0.149 GC
/Helvetica 10 F
GS
[1 0 0 1 0 0] CT
-23 3.5 moveto 
1 -1 scale
(5930) t 
GR
GR
GS
[0 -1 1 0 216.54637 103.25] CT
0.149 GC
/Helvetica 11 F
GS
[1 0 0 1 0 0] CT
-35.5 -3 moveto 
1 -1 scale
(Distance [mm]) t 
GR
GR
GS
[10 6] 0 setdash
2 LJ
0.5 LW
N
297.75 89.518 M
297.75 44.889 L
S
GR
GS
[10 6] 0 setdash
2 LJ
0.5 LW
N
297.75 154.745 M
297.75 120.415 L
S
GR
GS
1 LJ
0.5 LW
N
293.869 44.889 M
301.631 44.889 L
S
GR
GS
1 LJ
0.5 LW
N
293.869 154.745 M
301.631 154.745 L
S
GR
GS
0 0 1 RC
1 LJ
0.5 LW
N
289.987 120.415 M
289.987 89.518 L
305.513 89.518 L
305.513 120.415 L
289.987 120.415 L
S
GR
GS
1 0 0 RC
1 LJ
0.5 LW
N
289.987 103.25 M
305.513 103.25 L
S
GR
GS
[1 0 0 1 297.75 168.47728] CT
1 0 0 RC
10.0 ML
0.5 LW
N
0 -3 M
0 3 L
-3 0 M
3 0 L
S
GR
GS
[1 0 0 1 297.75 38.02273] CT
1 0 0 RC
10.0 ML
0.5 LW
N
0 -3 M
0 3 L
-3 0 M
3 0 L
S
GR
GS
1 GC
N
403.5 175.001 M
505 175.001 L
505 31.499 L
403.5 31.499 L
cp
f
GR
GS
0.149 GC
2 setlinecap
1 LJ
0.5 LW
N
403.5 175.001 M
505 175.001 L
S
GR
GS
0.149 GC
2 setlinecap
1 LJ
0.5 LW
N
403.5 31.499 M
505 31.499 L
S
GR
GS
0.149 GC
2 setlinecap
1 LJ
0.5 LW
N
454.25 175.001 M
454.25 173.567 L
S
GR
GS
0.149 GC
2 setlinecap
1 LJ
0.5 LW
N
454.25 31.499 M
454.25 32.933 L
S
GR
GS
[1 0 0 1 454.25 179.002] CT
0.149 GC
/Helvetica 10 F
GS
[1 0 0 1 0 0] CT
-4 10 moveto 
1 -1 scale
(C) t 
GR
GR
GS
0.149 GC
2 setlinecap
1 LJ
0.5 LW
N
403.5 175.001 M
403.5 31.499 L
S
GR
GS
0.149 GC
2 setlinecap
1 LJ
0.5 LW
N
505 175.001 M
505 31.499 L
S
GR
GS
0.149 GC
2 setlinecap
1 LJ
0.5 LW
N
403.5 162.548 M
404.933 162.548 L
S
GR
GS
0.149 GC
2 setlinecap
1 LJ
0.5 LW
N
403.5 132.899 M
404.933 132.899 L
S
GR
GS
0.149 GC
2 setlinecap
1 LJ
0.5 LW
N
403.5 103.25 M
404.933 103.25 L
S
GR
GS
0.149 GC
2 setlinecap
1 LJ
0.5 LW
N
403.5 73.601 M
404.933 73.601 L
S
GR
GS
0.149 GC
2 setlinecap
1 LJ
0.5 LW
N
403.5 43.952 M
404.933 43.952 L
S
GR
GS
0.149 GC
2 setlinecap
1 LJ
0.5 LW
N
505 162.548 M
503.567 162.548 L
S
GR
GS
0.149 GC
2 setlinecap
1 LJ
0.5 LW
N
505 132.899 M
503.567 132.899 L
S
GR
GS
0.149 GC
2 setlinecap
1 LJ
0.5 LW
N
505 103.25 M
503.567 103.25 L
S
GR
GS
0.149 GC
2 setlinecap
1 LJ
0.5 LW
N
505 73.601 M
503.567 73.601 L
S
GR
GS
0.149 GC
2 setlinecap
1 LJ
0.5 LW
N
505 43.952 M
503.567 43.952 L
S
GR
GS
[1 0 0 1 399.5 162.54752] CT
0.149 GC
/Helvetica 10 F
GS
[1 0 0 1 0 0] CT
-23 3.5 moveto 
1 -1 scale
(4370) t 
GR
GR
GS
[1 0 0 1 399.5 132.89876] CT
0.149 GC
/Helvetica 10 F
GS
[1 0 0 1 0 0] CT
-23 3.5 moveto 
1 -1 scale
(4375) t 
GR
GR
GS
[1 0 0 1 399.5 103.25] CT
0.149 GC
/Helvetica 10 F
GS
[1 0 0 1 0 0] CT
-23 3.5 moveto 
1 -1 scale
(4380) t 
GR
GR
GS
[1 0 0 1 399.5 73.60124] CT
0.149 GC
/Helvetica 10 F
GS
[1 0 0 1 0 0] CT
-23 3.5 moveto 
1 -1 scale
(4385) t 
GR
GR
GS
[1 0 0 1 399.5 43.95248] CT
0.149 GC
/Helvetica 10 F
GS
[1 0 0 1 0 0] CT
-23 3.5 moveto 
1 -1 scale
(4390) t 
GR
GR
GS
[0 -1 1 0 373.79276 103.25] CT
0.149 GC
/Helvetica 11 F
GS
[1 0 0 1 0 0] CT
-35.5 -3 moveto 
1 -1 scale
(Distance [mm]) t 
GR
GR
GS
[10 6] 0 setdash
2 LJ
0.5 LW
N
454.25 91.39 M
454.25 38.023 L
S
GR
GS
[10 6] 0 setdash
2 LJ
0.5 LW
N
454.25 168.477 M
454.25 132.899 L
S
GR
GS
1 LJ
0.5 LW
N
450.444 38.023 M
458.056 38.023 L
S
GR
GS
1 LJ
0.5 LW
N
450.444 168.477 M
458.056 168.477 L
S
GR
GS
0 0 1 RC
1 LJ
0.5 LW
N
446.638 132.899 M
446.638 91.39 L
461.863 91.39 L
461.863 132.899 L
446.638 132.899 L
S
GR
GS
1 0 0 RC
1 LJ
0.5 LW
N
446.638 115.11 M
461.863 115.11 L
S
GR
GS
1 GC
N
89 374.001 M
192 374.001 L
192 230.499 L
89 230.499 L
cp
f
GR
GS
0.149 GC
2 setlinecap
1 LJ
0.5 LW
N
89 374.001 M
192 374.001 L
S
GR
GS
0.149 GC
2 setlinecap
1 LJ
0.5 LW
N
89 230.499 M
192 230.499 L
S
GR
GS
0.149 GC
2 setlinecap
1 LJ
0.5 LW
N
140.5 374.001 M
140.5 372.565 L
S
GR
GS
0.149 GC
2 setlinecap
1 LJ
0.5 LW
N
140.5 230.499 M
140.5 231.935 L
S
GR
GS
[1 0 0 1 140.5 378.00079] CT
0.149 GC
/Helvetica 10 F
GS
[1 0 0 1 0 0] CT
-4 10 moveto 
1 -1 scale
(D) t 
GR
GR
GS
0.149 GC
2 setlinecap
1 LJ
0.5 LW
N
89 374.001 M
89 230.499 L
S
GR
GS
0.149 GC
2 setlinecap
1 LJ
0.5 LW
N
192 374.001 M
192 230.499 L
S
GR
GS
0.149 GC
2 setlinecap
1 LJ
0.5 LW
N
89 367.477 M
90.435 367.477 L
S
GR
GS
0.149 GC
2 setlinecap
1 LJ
0.5 LW
N
89 345.735 M
90.435 345.735 L
S
GR
GS
0.149 GC
2 setlinecap
1 LJ
0.5 LW
N
89 323.992 M
90.435 323.992 L
S
GR
GS
0.149 GC
2 setlinecap
1 LJ
0.5 LW
N
89 302.25 M
90.435 302.25 L
S
GR
GS
0.149 GC
2 setlinecap
1 LJ
0.5 LW
N
89 280.508 M
90.435 280.508 L
S
GR
GS
0.149 GC
2 setlinecap
1 LJ
0.5 LW
N
89 258.765 M
90.435 258.765 L
S
GR
GS
0.149 GC
2 setlinecap
1 LJ
0.5 LW
N
89 237.023 M
90.435 237.023 L
S
GR
GS
0.149 GC
2 setlinecap
1 LJ
0.5 LW
N
192 367.477 M
190.565 367.477 L
S
GR
GS
0.149 GC
2 setlinecap
1 LJ
0.5 LW
N
192 345.735 M
190.565 345.735 L
S
GR
GS
0.149 GC
2 setlinecap
1 LJ
0.5 LW
N
192 323.992 M
190.565 323.992 L
S
GR
GS
0.149 GC
2 setlinecap
1 LJ
0.5 LW
N
192 302.25 M
190.565 302.25 L
S
GR
GS
0.149 GC
2 setlinecap
1 LJ
0.5 LW
N
192 280.508 M
190.565 280.508 L
S
GR
GS
0.149 GC
2 setlinecap
1 LJ
0.5 LW
N
192 258.765 M
190.565 258.765 L
S
GR
GS
0.149 GC
2 setlinecap
1 LJ
0.5 LW
N
192 237.023 M
190.565 237.023 L
S
GR
GS
[1 0 0 1 85 367.47726] CT
0.149 GC
/Helvetica 10 F
GS
[1 0 0 1 0 0] CT
-23 3.5 moveto 
1 -1 scale
(3602) t 
GR
GR
GS
[1 0 0 1 85 345.73486] CT
0.149 GC
/Helvetica 10 F
GS
[1 0 0 1 0 0] CT
-23 3.5 moveto 
1 -1 scale
(3604) t 
GR
GR
GS
[1 0 0 1 85 323.99243] CT
0.149 GC
/Helvetica 10 F
GS
[1 0 0 1 0 0] CT
-23 3.5 moveto 
1 -1 scale
(3606) t 
GR
GR
GS
[1 0 0 1 85 302.25] CT
0.149 GC
/Helvetica 10 F
GS
[1 0 0 1 0 0] CT
-23 3.5 moveto 
1 -1 scale
(3608) t 
GR
GR
GS
[1 0 0 1 85 280.50757] CT
0.149 GC
/Helvetica 10 F
GS
[1 0 0 1 0 0] CT
-23 3.5 moveto 
1 -1 scale
(3610) t 
GR
GR
GS
[1 0 0 1 85 258.76514] CT
0.149 GC
/Helvetica 10 F
GS
[1 0 0 1 0 0] CT
-23 3.5 moveto 
1 -1 scale
(3612) t 
GR
GR
GS
[1 0 0 1 85 237.02272] CT
0.149 GC
/Helvetica 10 F
GS
[1 0 0 1 0 0] CT
-23 3.5 moveto 
1 -1 scale
(3614) t 
GR
GR
GS
[0 -1 1 0 59.3 302.25] CT
0.149 GC
/Helvetica 11 F
GS
[1 0 0 1 0 0] CT
-35.5 -3 moveto 
1 -1 scale
(Distance [mm]) t 
GR
GR
GS
[10 6] 0 setdash
2 LJ
0.5 LW
N
140.5 269.636 M
140.5 237.023 L
S
GR
GS
[10 6] 0 setdash
2 LJ
0.5 LW
N
140.5 345.735 M
140.5 302.25 L
S
GR
GS
1 LJ
0.5 LW
N
136.637 237.023 M
144.363 237.023 L
S
GR
GS
1 LJ
0.5 LW
N
136.637 345.735 M
144.363 345.735 L
S
GR
GS
0 0 1 RC
1 LJ
0.5 LW
N
132.775 302.25 M
132.775 269.636 L
148.225 269.636 L
148.225 302.25 L
132.775 302.25 L
S
GR
GS
1 0 0 RC
1 LJ
0.5 LW
N
132.775 291.379 M
148.225 291.379 L
S
GR
GS
[1 0 0 1 140.5 367.47726] CT
1 0 0 RC
10.0 ML
0.5 LW
N
0 -3 M
0 3 L
-3 0 M
3 0 L
S
GR
GS
1 GC
N
246 374 M
349.5 374 L
349.5 230.5 L
246 230.5 L
cp
f
GR
GS
0.149 GC
2 setlinecap
1 LJ
0.5 LW
N
246 374 M
349.5 374 L
S
GR
GS
0.149 GC
2 setlinecap
1 LJ
0.5 LW
N
246 230.5 M
349.5 230.5 L
S
GR
GS
0.149 GC
2 setlinecap
1 LJ
0.5 LW
N
297.75 374 M
297.75 372.566 L
S
GR
GS
0.149 GC
2 setlinecap
1 LJ
0.5 LW
N
297.75 230.5 M
297.75 231.934 L
S
GR
GS
[1 0 0 1 297.75 377.99966] CT
0.149 GC
/Helvetica 10 F
GS
[1 0 0 1 0 0] CT
-3.5 10 moveto 
1 -1 scale
(E) t 
GR
GR
GS
0.149 GC
2 setlinecap
1 LJ
0.5 LW
N
246 374 M
246 230.5 L
S
GR
GS
0.149 GC
2 setlinecap
1 LJ
0.5 LW
N
349.5 374 M
349.5 230.5 L
S
GR
GS
0.149 GC
2 setlinecap
1 LJ
0.5 LW
N
246 367.477 M
247.435 367.477 L
S
GR
GS
0.149 GC
2 setlinecap
1 LJ
0.5 LW
N
246 336.417 M
247.435 336.417 L
S
GR
GS
0.149 GC
2 setlinecap
1 LJ
0.5 LW
N
246 305.356 M
247.435 305.356 L
S
GR
GS
0.149 GC
2 setlinecap
1 LJ
0.5 LW
N
246 274.295 M
247.435 274.295 L
S
GR
GS
0.149 GC
2 setlinecap
1 LJ
0.5 LW
N
246 243.235 M
247.435 243.235 L
S
GR
GS
0.149 GC
2 setlinecap
1 LJ
0.5 LW
N
349.5 367.477 M
348.065 367.477 L
S
GR
GS
0.149 GC
2 setlinecap
1 LJ
0.5 LW
N
349.5 336.417 M
348.065 336.417 L
S
GR
GS
0.149 GC
2 setlinecap
1 LJ
0.5 LW
N
349.5 305.356 M
348.065 305.356 L
S
GR
GS
0.149 GC
2 setlinecap
1 LJ
0.5 LW
N
349.5 274.295 M
348.065 274.295 L
S
GR
GS
0.149 GC
2 setlinecap
1 LJ
0.5 LW
N
349.5 243.235 M
348.065 243.235 L
S
GR
GS
[1 0 0 1 242 367.47726] CT
0.149 GC
/Helvetica 10 F
GS
[1 0 0 1 0 0] CT
-23 3.5 moveto 
1 -1 scale
(3730) t 
GR
GR
GS
[1 0 0 1 242 336.41666] CT
0.149 GC
/Helvetica 10 F
GS
[1 0 0 1 0 0] CT
-23 3.5 moveto 
1 -1 scale
(3735) t 
GR
GR
GS
[1 0 0 1 242 305.35605] CT
0.149 GC
/Helvetica 10 F
GS
[1 0 0 1 0 0] CT
-23 3.5 moveto 
1 -1 scale
(3740) t 
GR
GR
GS
[1 0 0 1 242 274.29544] CT
0.149 GC
/Helvetica 10 F
GS
[1 0 0 1 0 0] CT
-23 3.5 moveto 
1 -1 scale
(3745) t 
GR
GR
GS
[1 0 0 1 242 243.23485] CT
0.149 GC
/Helvetica 10 F
GS
[1 0 0 1 0 0] CT
-23 3.5 moveto 
1 -1 scale
(3750) t 
GR
GR
GS
[0 -1 1 0 216.54637 302.25] CT
0.149 GC
/Helvetica 11 F
GS
[1 0 0 1 0 0] CT
-35.5 -3 moveto 
1 -1 scale
(Distance [mm]) t 
GR
GR
GS
[10 6] 0 setdash
2 LJ
0.5 LW
N
297.75 268.083 M
297.75 237.023 L
S
GR
GS
[10 6] 0 setdash
2 LJ
0.5 LW
N
297.75 367.477 M
297.75 311.568 L
S
GR
GS
1 LJ
0.5 LW
N
293.869 237.023 M
301.631 237.023 L
S
GR
GS
1 LJ
0.5 LW
N
293.869 367.477 M
301.631 367.477 L
S
GR
GS
0 0 1 RC
1 LJ
0.5 LW
N
289.987 311.568 M
289.987 268.083 L
305.513 268.083 L
305.513 311.568 L
289.987 311.568 L
S
GR
GS
1 0 0 RC
1 LJ
0.5 LW
N
289.987 286.72 M
305.513 286.72 L
S
GR
%%Trailer
%%Pages: 1
%%EOF
