%!PS-Adobe-3.0 EPSF-3.0
%%Creator: (MATLAB, The Mathworks, Inc. Version 9.1.0.441655 \(R2016b\). Operating System: Mac OS X)
%%Title: (/Users/Pascal/Documents/Tech/LOC/Zeno Stoessel/Trilateration_and_Multilateration/Bericht/Bilder/multilateration.eps)
%%CreationDate: 2017-03-21T13:38:27
%%Pages: (atend)
%%BoundingBox: 0 0 560 420
%%LanguageLevel: 3
%%EndComments
%%BeginProlog
%%BeginResource: procset (Apache XML Graphics Std ProcSet) 1.2 0
%%Version: 1.2 0
%%Copyright: (Copyright 2001-2003,2010 The Apache Software Foundation. License terms: http://www.apache.org/licenses/LICENSE-2.0)
/bd{bind def}bind def
/ld{load def}bd
/GR/grestore ld
/M/moveto ld
/LJ/setlinejoin ld
/C/curveto ld
/f/fill ld
/LW/setlinewidth ld
/GC/setgray ld
/t/show ld
/N/newpath ld
/CT/concat ld
/cp/closepath ld
/S/stroke ld
/L/lineto ld
/CC/setcmykcolor ld
/A/ashow ld
/GS/gsave ld
/RC/setrgbcolor ld
/RM/rmoveto ld
/ML/setmiterlimit ld
/re {4 2 roll M
1 index 0 rlineto
0 exch rlineto
neg 0 rlineto
cp } bd
/_ctm matrix def
/_tm matrix def
/BT { _ctm currentmatrix pop matrix _tm copy pop 0 0 moveto } bd
/ET { _ctm setmatrix } bd
/iTm { _ctm setmatrix _tm concat } bd
/Tm { _tm astore pop iTm 0 0 moveto } bd
/ux 0.0 def
/uy 0.0 def
/F {
  /Tp exch def
  /Tf exch def
  Tf findfont Tp scalefont setfont
  /cf Tf def  /cs Tp def
} bd
/ULS {currentpoint /uy exch def /ux exch def} bd
/ULE {
  /Tcx currentpoint pop def
  gsave
  newpath
  cf findfont cs scalefont dup
  /FontMatrix get 0 get /Ts exch def /FontInfo get dup
  /UnderlinePosition get Ts mul /To exch def
  /UnderlineThickness get Ts mul /Tt exch def
  ux uy To add moveto  Tcx uy To add lineto
  Tt setlinewidth stroke
  grestore
} bd
/OLE {
  /Tcx currentpoint pop def
  gsave
  newpath
  cf findfont cs scalefont dup
  /FontMatrix get 0 get /Ts exch def /FontInfo get dup
  /UnderlinePosition get Ts mul /To exch def
  /UnderlineThickness get Ts mul /Tt exch def
  ux uy To add cs add moveto Tcx uy To add cs add lineto
  Tt setlinewidth stroke
  grestore
} bd
/SOE {
  /Tcx currentpoint pop def
  gsave
  newpath
  cf findfont cs scalefont dup
  /FontMatrix get 0 get /Ts exch def /FontInfo get dup
  /UnderlinePosition get Ts mul /To exch def
  /UnderlineThickness get Ts mul /Tt exch def
  ux uy To add cs 10 mul 26 idiv add moveto Tcx uy To add cs 10 mul 26 idiv add lineto
  Tt setlinewidth stroke
  grestore
} bd
/QT {
/Y22 exch store
/X22 exch store
/Y21 exch store
/X21 exch store
currentpoint
/Y21 load 2 mul add 3 div exch
/X21 load 2 mul add 3 div exch
/X21 load 2 mul /X22 load add 3 div
/Y21 load 2 mul /Y22 load add 3 div
/X22 load /Y22 load curveto
} bd
/SSPD {
dup length /d exch dict def
{
/v exch def
/k exch def
currentpagedevice k known {
/cpdv currentpagedevice k get def
v cpdv ne {
/upd false def
/nullv v type /nulltype eq def
/nullcpdv cpdv type /nulltype eq def
nullv nullcpdv or
{
/upd true def
} {
/sametype v type cpdv type eq def
sametype {
v type /arraytype eq {
/vlen v length def
/cpdvlen cpdv length def
vlen cpdvlen eq {
0 1 vlen 1 sub {
/i exch def
/obj v i get def
/cpdobj cpdv i get def
obj cpdobj ne {
/upd true def
exit
} if
} for
} {
/upd true def
} ifelse
} {
v type /dicttype eq {
v {
/dv exch def
/dk exch def
/cpddv cpdv dk get def
dv cpddv ne {
/upd true def
exit
} if
} forall
} {
/upd true def
} ifelse
} ifelse
} if
} ifelse
upd true eq {
d k v put
} if
} if
} if
} forall
d length 0 gt {
d setpagedevice
} if
} bd
/RE { % /NewFontName [NewEncodingArray] /FontName RE -
  findfont dup length dict begin
  {
    1 index /FID ne
    {def} {pop pop} ifelse
  } forall
  /Encoding exch def
  /FontName 1 index def
  currentdict definefont pop
  end
} bind def
%%EndResource
%%BeginResource: procset (Apache XML Graphics EPS ProcSet) 1.0 0
%%Version: 1.0 0
%%Copyright: (Copyright 2002-2003 The Apache Software Foundation. License terms: http://www.apache.org/licenses/LICENSE-2.0)
/BeginEPSF { %def
/b4_Inc_state save def         % Save state for cleanup
/dict_count countdictstack def % Count objects on dict stack
/op_count count 1 sub def      % Count objects on operand stack
userdict begin                 % Push userdict on dict stack
/showpage { } def              % Redefine showpage, { } = null proc
0 setgray 0 setlinecap         % Prepare graphics state
1 setlinewidth 0 setlinejoin
10 setmiterlimit [ ] 0 setdash newpath
/languagelevel where           % If level not equal to 1 then
{pop languagelevel             % set strokeadjust and
1 ne                           % overprint to their defaults.
{false setstrokeadjust false setoverprint
} if
} if
} bd
/EndEPSF { %def
count op_count sub {pop} repeat            % Clean up stacks
countdictstack dict_count sub {end} repeat
b4_Inc_state restore
} bd
%%EndResource
%FOPBeginFontDict
%%IncludeResource: font Courier-Bold
%%IncludeResource: font Helvetica
%%IncludeResource: font Courier-BoldOblique
%%IncludeResource: font Courier-Oblique
%%IncludeResource: font Times-Roman
%%IncludeResource: font Helvetica-BoldOblique
%%IncludeResource: font Helvetica-Bold
%%IncludeResource: font Helvetica-Oblique
%%IncludeResource: font Times-BoldItalic
%%IncludeResource: font Courier
%%IncludeResource: font Times-Italic
%%IncludeResource: font Times-Bold
%%IncludeResource: font Symbol
%%IncludeResource: font ZapfDingbats
%FOPEndFontDict
%%BeginResource: encoding WinAnsiEncoding
/WinAnsiEncoding [
/.notdef /.notdef /.notdef /.notdef /.notdef
/.notdef /.notdef /.notdef /.notdef /.notdef
/.notdef /.notdef /.notdef /.notdef /.notdef
/.notdef /.notdef /.notdef /.notdef /.notdef
/.notdef /.notdef /.notdef /.notdef /.notdef
/.notdef /.notdef /.notdef /.notdef /.notdef
/.notdef /.notdef /space /exclam /quotedbl
/numbersign /dollar /percent /ampersand /quotesingle
/parenleft /parenright /asterisk /plus /comma
/hyphen /period /slash /zero /one
/two /three /four /five /six
/seven /eight /nine /colon /semicolon
/less /equal /greater /question /at
/A /B /C /D /E
/F /G /H /I /J
/K /L /M /N /O
/P /Q /R /S /T
/U /V /W /X /Y
/Z /bracketleft /backslash /bracketright /asciicircum
/underscore /quoteleft /a /b /c
/d /e /f /g /h
/i /j /k /l /m
/n /o /p /q /r
/s /t /u /v /w
/x /y /z /braceleft /bar
/braceright /asciitilde /bullet /Euro /bullet
/quotesinglbase /florin /quotedblbase /ellipsis /dagger
/daggerdbl /circumflex /perthousand /Scaron /guilsinglleft
/OE /bullet /Zcaron /bullet /bullet
/quoteleft /quoteright /quotedblleft /quotedblright /bullet
/endash /emdash /asciitilde /trademark /scaron
/guilsinglright /oe /bullet /zcaron /Ydieresis
/space /exclamdown /cent /sterling /currency
/yen /brokenbar /section /dieresis /copyright
/ordfeminine /guillemotleft /logicalnot /sfthyphen /registered
/macron /degree /plusminus /twosuperior /threesuperior
/acute /mu /paragraph /middot /cedilla
/onesuperior /ordmasculine /guillemotright /onequarter /onehalf
/threequarters /questiondown /Agrave /Aacute /Acircumflex
/Atilde /Adieresis /Aring /AE /Ccedilla
/Egrave /Eacute /Ecircumflex /Edieresis /Igrave
/Iacute /Icircumflex /Idieresis /Eth /Ntilde
/Ograve /Oacute /Ocircumflex /Otilde /Odieresis
/multiply /Oslash /Ugrave /Uacute /Ucircumflex
/Udieresis /Yacute /Thorn /germandbls /agrave
/aacute /acircumflex /atilde /adieresis /aring
/ae /ccedilla /egrave /eacute /ecircumflex
/edieresis /igrave /iacute /icircumflex /idieresis
/eth /ntilde /ograve /oacute /ocircumflex
/otilde /odieresis /divide /oslash /ugrave
/uacute /ucircumflex /udieresis /yacute /thorn
/ydieresis
] def
%%EndResource
%FOPBeginFontReencode
/Courier-Bold findfont
dup length dict begin
  {1 index /FID ne {def} {pop pop} ifelse} forall
  /Encoding WinAnsiEncoding def
  currentdict
end
/Courier-Bold exch definefont pop
/Helvetica findfont
dup length dict begin
  {1 index /FID ne {def} {pop pop} ifelse} forall
  /Encoding WinAnsiEncoding def
  currentdict
end
/Helvetica exch definefont pop
/Courier-BoldOblique findfont
dup length dict begin
  {1 index /FID ne {def} {pop pop} ifelse} forall
  /Encoding WinAnsiEncoding def
  currentdict
end
/Courier-BoldOblique exch definefont pop
/Courier-Oblique findfont
dup length dict begin
  {1 index /FID ne {def} {pop pop} ifelse} forall
  /Encoding WinAnsiEncoding def
  currentdict
end
/Courier-Oblique exch definefont pop
/Times-Roman findfont
dup length dict begin
  {1 index /FID ne {def} {pop pop} ifelse} forall
  /Encoding WinAnsiEncoding def
  currentdict
end
/Times-Roman exch definefont pop
/Helvetica-BoldOblique findfont
dup length dict begin
  {1 index /FID ne {def} {pop pop} ifelse} forall
  /Encoding WinAnsiEncoding def
  currentdict
end
/Helvetica-BoldOblique exch definefont pop
/Helvetica-Bold findfont
dup length dict begin
  {1 index /FID ne {def} {pop pop} ifelse} forall
  /Encoding WinAnsiEncoding def
  currentdict
end
/Helvetica-Bold exch definefont pop
/Helvetica-Oblique findfont
dup length dict begin
  {1 index /FID ne {def} {pop pop} ifelse} forall
  /Encoding WinAnsiEncoding def
  currentdict
end
/Helvetica-Oblique exch definefont pop
/Times-BoldItalic findfont
dup length dict begin
  {1 index /FID ne {def} {pop pop} ifelse} forall
  /Encoding WinAnsiEncoding def
  currentdict
end
/Times-BoldItalic exch definefont pop
/Courier findfont
dup length dict begin
  {1 index /FID ne {def} {pop pop} ifelse} forall
  /Encoding WinAnsiEncoding def
  currentdict
end
/Courier exch definefont pop
/Times-Italic findfont
dup length dict begin
  {1 index /FID ne {def} {pop pop} ifelse} forall
  /Encoding WinAnsiEncoding def
  currentdict
end
/Times-Italic exch definefont pop
/Times-Bold findfont
dup length dict begin
  {1 index /FID ne {def} {pop pop} ifelse} forall
  /Encoding WinAnsiEncoding def
  currentdict
end
/Times-Bold exch definefont pop
%FOPEndFontReencode
%%EndProlog
%%Page: 1 1
%%PageBoundingBox: 0 0 560 420
%%BeginPageSetup
[1 0 0 -1 0 420] CT
%%EndPageSetup
GS
1 GC
N
0 0 560 420 re
f
GR
GS
1 GC
N
0 0 560 420 re
f
GR
GS
1 GC
N
222.295 346.077 M
463.272 253.623 L
357.705 184.834 L
116.728 277.288 L
cp
f
GR
GS
1 GC
N
116.728 277.288 M
357.705 184.834 L
357.705 59.423 L
116.728 151.877 L
cp
f
GR
GS
1 GC
N
357.705 184.834 M
463.272 253.623 L
463.272 128.212 L
357.705 59.423 L
cp
f
GR
GS
0.873 GC
1 LJ
0.5 LW
N
222.295 346.077 M
116.728 277.288 L
S
GR
GS
0.873 GC
1 LJ
0.5 LW
N
279.739 324.038 M
174.172 255.249 L
S
GR
GS
0.873 GC
1 LJ
0.5 LW
N
337.183 301.999 M
231.616 233.21 L
S
GR
GS
0.873 GC
1 LJ
0.5 LW
N
394.627 279.96 M
289.059 211.171 L
S
GR
GS
0.873 GC
1 LJ
0.5 LW
N
452.071 257.921 M
346.503 189.132 L
S
GR
GS
0.873 GC
1 LJ
0.5 LW
N
116.728 277.288 M
116.728 151.877 L
S
GR
GS
0.873 GC
1 LJ
0.5 LW
N
174.172 255.249 M
174.172 129.838 L
S
GR
GS
0.873 GC
1 LJ
0.5 LW
N
231.616 233.21 M
231.616 107.798 L
S
GR
GS
0.873 GC
1 LJ
0.5 LW
N
289.059 211.171 M
289.059 85.759 L
S
GR
GS
0.873 GC
1 LJ
0.5 LW
N
346.503 189.132 M
346.503 63.72 L
S
GR
GS
0.873 GC
1 LJ
0.5 LW
N
463.272 253.623 M
222.295 346.077 L
S
GR
GS
0.873 GC
1 LJ
0.5 LW
N
441.233 239.262 M
200.256 331.716 L
S
GR
GS
0.873 GC
1 LJ
0.5 LW
N
419.194 224.901 M
178.217 317.355 L
S
GR
GS
0.873 GC
1 LJ
0.5 LW
N
397.155 210.54 M
156.178 302.995 L
S
GR
GS
0.873 GC
1 LJ
0.5 LW
N
375.116 196.179 M
134.139 288.634 L
S
GR
GS
0.873 GC
1 LJ
0.5 LW
N
463.272 128.212 M
463.272 253.623 L
S
GR
GS
0.873 GC
1 LJ
0.5 LW
N
441.233 113.851 M
441.233 239.262 L
S
GR
GS
0.873 GC
1 LJ
0.5 LW
N
419.194 99.49 M
419.194 224.901 L
S
GR
GS
0.873 GC
1 LJ
0.5 LW
N
397.155 85.129 M
397.155 210.54 L
S
GR
GS
0.873 GC
1 LJ
0.5 LW
N
375.116 70.768 M
375.116 196.179 L
S
GR
GS
0.873 GC
1 LJ
0.5 LW
N
357.705 184.834 M
116.728 277.288 L
S
GR
GS
0.873 GC
1 LJ
0.5 LW
N
357.705 153.481 M
116.728 245.935 L
S
GR
GS
0.873 GC
1 LJ
0.5 LW
N
357.705 122.128 M
116.728 214.583 L
S
GR
GS
0.873 GC
1 LJ
0.5 LW
N
357.705 90.775 M
116.728 183.23 L
S
GR
GS
0.873 GC
1 LJ
0.5 LW
N
357.705 59.423 M
116.728 151.877 L
S
GR
GS
0.873 GC
1 LJ
0.5 LW
N
463.272 253.623 M
357.705 184.834 L
S
GR
GS
0.873 GC
1 LJ
0.5 LW
N
463.272 222.27 M
357.705 153.481 L
S
GR
GS
0.873 GC
1 LJ
0.5 LW
N
463.272 190.917 M
357.705 122.128 L
S
GR
GS
0.873 GC
1 LJ
0.5 LW
N
463.272 159.565 M
357.705 90.775 L
S
GR
GS
0.873 GC
1 LJ
0.5 LW
N
463.272 128.212 M
357.705 59.423 L
S
GR
GS
[1 0 0 1 384.84854 84.50272] CT
/Helvetica 10 F
GS
[1 0 0 1 0 0] CT
-8 3.5 moveto 
1 -1 scale
(C) t 
GR
GR
GS
[1 0 0 1 370.48758 80.60663] CT
1 0 0 RC
10.0 ML
0.5 LW
N
-2.121 -2.121 M
2.121 2.121 L
-2.121 2.121 M
2.121 -2.121 L
S
GR
GS
[1 0 0 1 429.94769 169.98543] CT
/Helvetica 10 F
GS
[1 0 0 1 0 0] CT
-8 3.5 moveto 
1 -1 scale
(D) t 
GR
GR
GS
[1 0 0 1 415.58673 166.08932] CT
1 0 0 RC
10.0 ML
0.5 LW
N
-2.121 -2.121 M
2.121 2.121 L
-2.121 2.121 M
2.121 -2.121 L
S
GR
GS
0.149 GC
2 setlinecap
1 LJ
0.5 LW
N
222.295 346.077 M
463.272 253.623 L
S
GR
GS
0.149 GC
2 setlinecap
1 LJ
0.5 LW
N
452.071 257.921 M
457.477 261.444 L
S
GR
GS
[1 0 0 1 299.12305 207.44405] CT
0 0.447 0.741 RC
10.0 ML
0.5 LW
N
-2.121 -2.121 M
2.121 2.121 L
-2.121 2.121 M
2.121 -2.121 L
S
GR
GS
[1 0 0 1 299.31567 208.43378] CT
0 0.447 0.741 RC
10.0 ML
0.5 LW
N
-2.121 -2.121 M
2.121 2.121 L
-2.121 2.121 M
2.121 -2.121 L
S
GR
GS
[1 0 0 1 299.26166 207.3316] CT
0 0.447 0.741 RC
10.0 ML
0.5 LW
N
-2.121 -2.121 M
2.121 2.121 L
-2.121 2.121 M
2.121 -2.121 L
S
GR
GS
[1 0 0 1 299.24387 207.17691] CT
0 0.447 0.741 RC
10.0 ML
0.5 LW
N
-2.121 -2.121 M
2.121 2.121 L
-2.121 2.121 M
2.121 -2.121 L
S
GR
GS
[1 0 0 1 299.21115 208.01048] CT
0 0.447 0.741 RC
10.0 ML
0.5 LW
N
-2.121 -2.121 M
2.121 2.121 L
-2.121 2.121 M
2.121 -2.121 L
S
GR
GS
[1 0 0 1 299.46112 206.76559] CT
0 0.447 0.741 RC
10.0 ML
0.5 LW
N
-2.121 -2.121 M
2.121 2.121 L
-2.121 2.121 M
2.121 -2.121 L
S
GR
GS
[1 0 0 1 299.28922 206.97514] CT
0 0.447 0.741 RC
10.0 ML
0.5 LW
N
-2.121 -2.121 M
2.121 2.121 L
-2.121 2.121 M
2.121 -2.121 L
S
GR
GS
[1 0 0 1 299.60522 206.80959] CT
0 0.447 0.741 RC
10.0 ML
0.5 LW
N
-2.121 -2.121 M
2.121 2.121 L
-2.121 2.121 M
2.121 -2.121 L
S
GR
GS
[1 0 0 1 299.46765 206.57799] CT
0 0.447 0.741 RC
10.0 ML
0.5 LW
N
-2.121 -2.121 M
2.121 2.121 L
-2.121 2.121 M
2.121 -2.121 L
S
GR
GS
[1 0 0 1 299.53513 207.13765] CT
0 0.447 0.741 RC
10.0 ML
0.5 LW
N
-2.121 -2.121 M
2.121 2.121 L
-2.121 2.121 M
2.121 -2.121 L
S
GR
GS
[1 0 0 1 299.66623 206.46185] CT
0 0.447 0.741 RC
10.0 ML
0.5 LW
N
-2.121 -2.121 M
2.121 2.121 L
-2.121 2.121 M
2.121 -2.121 L
S
GR
GS
[1 0 0 1 299.58246 207.31848] CT
0 0.447 0.741 RC
10.0 ML
0.5 LW
N
-2.121 -2.121 M
2.121 2.121 L
-2.121 2.121 M
2.121 -2.121 L
S
GR
GS
[1 0 0 1 299.49731 206.70195] CT
0 0.447 0.741 RC
10.0 ML
0.5 LW
N
-2.121 -2.121 M
2.121 2.121 L
-2.121 2.121 M
2.121 -2.121 L
S
GR
GS
[1 0 0 1 299.45078 205.98183] CT
0 0.447 0.741 RC
10.0 ML
0.5 LW
N
-2.121 -2.121 M
2.121 2.121 L
-2.121 2.121 M
2.121 -2.121 L
S
GR
GS
[1 0 0 1 299.62106 207.49596] CT
0 0.447 0.741 RC
10.0 ML
0.5 LW
N
-2.121 -2.121 M
2.121 2.121 L
-2.121 2.121 M
2.121 -2.121 L
S
GR
GS
[1 0 0 1 299.68369 206.52969] CT
0 0.447 0.741 RC
10.0 ML
0.5 LW
N
-2.121 -2.121 M
2.121 2.121 L
-2.121 2.121 M
2.121 -2.121 L
S
GR
GS
[1 0 0 1 299.65048 206.63469] CT
0 0.447 0.741 RC
10.0 ML
0.5 LW
N
-2.121 -2.121 M
2.121 2.121 L
-2.121 2.121 M
2.121 -2.121 L
S
GR
GS
[1 0 0 1 299.71411 206.34924] CT
0 0.447 0.741 RC
10.0 ML
0.5 LW
N
-2.121 -2.121 M
2.121 2.121 L
-2.121 2.121 M
2.121 -2.121 L
S
GR
GS
[1 0 0 1 299.74597 206.77641] CT
0 0.447 0.741 RC
10.0 ML
0.5 LW
N
-2.121 -2.121 M
2.121 2.121 L
-2.121 2.121 M
2.121 -2.121 L
S
GR
GS
[1 0 0 1 299.81952 206.32834] CT
0 0.447 0.741 RC
10.0 ML
0.5 LW
N
-2.121 -2.121 M
2.121 2.121 L
-2.121 2.121 M
2.121 -2.121 L
S
GR
GS
[1 0 0 1 299.62198 205.91812] CT
0 0.447 0.741 RC
10.0 ML
0.5 LW
N
-2.121 -2.121 M
2.121 2.121 L
-2.121 2.121 M
2.121 -2.121 L
S
GR
GS
[1 0 0 1 299.67084 206.63586] CT
0 0.447 0.741 RC
10.0 ML
0.5 LW
N
-2.121 -2.121 M
2.121 2.121 L
-2.121 2.121 M
2.121 -2.121 L
S
GR
GS
[1 0 0 1 299.78226 206.63652] CT
0 0.447 0.741 RC
10.0 ML
0.5 LW
N
-2.121 -2.121 M
2.121 2.121 L
-2.121 2.121 M
2.121 -2.121 L
S
GR
GS
[1 0 0 1 299.92538 207.06543] CT
0 0.447 0.741 RC
10.0 ML
0.5 LW
N
-2.121 -2.121 M
2.121 2.121 L
-2.121 2.121 M
2.121 -2.121 L
S
GR
GS
[1 0 0 1 299.60309 206.13974] CT
0 0.447 0.741 RC
10.0 ML
0.5 LW
N
-2.121 -2.121 M
2.121 2.121 L
-2.121 2.121 M
2.121 -2.121 L
S
GR
GS
[1 0 0 1 299.60178 206.50313] CT
0 0.447 0.741 RC
10.0 ML
0.5 LW
N
-2.121 -2.121 M
2.121 2.121 L
-2.121 2.121 M
2.121 -2.121 L
S
GR
GS
[1 0 0 1 299.67825 206.05908] CT
0 0.447 0.741 RC
10.0 ML
0.5 LW
N
-2.121 -2.121 M
2.121 2.121 L
-2.121 2.121 M
2.121 -2.121 L
S
GR
GS
[1 0 0 1 299.81656 206.00505] CT
0 0.447 0.741 RC
10.0 ML
0.5 LW
N
-2.121 -2.121 M
2.121 2.121 L
-2.121 2.121 M
2.121 -2.121 L
S
GR
GS
[1 0 0 1 299.81354 206.08521] CT
0 0.447 0.741 RC
10.0 ML
0.5 LW
N
-2.121 -2.121 M
2.121 2.121 L
-2.121 2.121 M
2.121 -2.121 L
S
GR
GS
[1 0 0 1 299.66238 206.31123] CT
0 0.447 0.741 RC
10.0 ML
0.5 LW
N
-2.121 -2.121 M
2.121 2.121 L
-2.121 2.121 M
2.121 -2.121 L
S
GR
GS
[1 0 0 1 299.88879 206.00444] CT
0 0.447 0.741 RC
10.0 ML
0.5 LW
N
-2.121 -2.121 M
2.121 2.121 L
-2.121 2.121 M
2.121 -2.121 L
S
GR
GS
[1 0 0 1 299.84241 206.33951] CT
0 0.447 0.741 RC
10.0 ML
0.5 LW
N
-2.121 -2.121 M
2.121 2.121 L
-2.121 2.121 M
2.121 -2.121 L
S
GR
GS
[1 0 0 1 300.0007 205.69331] CT
0 0.447 0.741 RC
10.0 ML
0.5 LW
N
-2.121 -2.121 M
2.121 2.121 L
-2.121 2.121 M
2.121 -2.121 L
S
GR
GS
[1 0 0 1 300.21222 205.48993] CT
0 0.447 0.741 RC
10.0 ML
0.5 LW
N
-2.121 -2.121 M
2.121 2.121 L
-2.121 2.121 M
2.121 -2.121 L
S
GR
GS
[1 0 0 1 299.97571 206.22591] CT
0 0.447 0.741 RC
10.0 ML
0.5 LW
N
-2.121 -2.121 M
2.121 2.121 L
-2.121 2.121 M
2.121 -2.121 L
S
GR
GS
[1 0 0 1 300.06314 205.95285] CT
0 0.447 0.741 RC
10.0 ML
0.5 LW
N
-2.121 -2.121 M
2.121 2.121 L
-2.121 2.121 M
2.121 -2.121 L
S
GR
GS
[1 0 0 1 300.07318 205.53685] CT
0 0.447 0.741 RC
10.0 ML
0.5 LW
N
-2.121 -2.121 M
2.121 2.121 L
-2.121 2.121 M
2.121 -2.121 L
S
GR
GS
[1 0 0 1 299.92221 205.60677] CT
0 0.447 0.741 RC
10.0 ML
0.5 LW
N
-2.121 -2.121 M
2.121 2.121 L
-2.121 2.121 M
2.121 -2.121 L
S
GR
GS
[1 0 0 1 300.0188 206.45474] CT
0 0.447 0.741 RC
10.0 ML
0.5 LW
N
-2.121 -2.121 M
2.121 2.121 L
-2.121 2.121 M
2.121 -2.121 L
S
GR
GS
[1 0 0 1 300.22061 205.69539] CT
0 0.447 0.741 RC
10.0 ML
0.5 LW
N
-2.121 -2.121 M
2.121 2.121 L
-2.121 2.121 M
2.121 -2.121 L
S
GR
GS
[1 0 0 1 460.82819 263.62738] CT
0.149 GC
/Helvetica 10 F
GS
[1 0 0 1 0 0] CT
0 10 moveto 
1 -1 scale
(8000) t 
GR
GR
GS
[1 0 0 1 107.97025 271.58188] CT
0.149 GC
/Helvetica 10 F
GS
[1 0 0 1 0 0] CT
-6 3.5 moveto 
1 -1 scale
(0) t 
GR
GR
GS
0.149 GC
10.0 ML
0.5 LW
N
116.728 277.288 M
111.322 273.766 L
S
GR
GS
0.149 GC
10.0 ML
0.5 LW
N
222.295 346.077 M
116.728 277.288 L
S
GR
GS
0.149 GC
10.0 ML
0.5 LW
N
116.728 277.288 M
116.728 151.877 L
S
GR
GS
0.149 GC
1 setlinecap
1 LJ
0.5 LW
N
394.627 279.96 M
400.033 283.483 L
S
GR
GS
[1 0 0 1 107.97025 240.22897] CT
0.149 GC
/Helvetica 10 F
GS
[1 0 0 1 0 0] CT
-23 3.5 moveto 
1 -1 scale
(1000) t 
GR
GR
GS
0.149 GC
1 setlinecap
1 LJ
0.5 LW
N
116.728 245.935 M
111.322 242.413 L
S
GR
GS
[1 0 0 1 403.38428 285.66653] CT
0.149 GC
/Helvetica 10 F
GS
[1 0 0 1 0 0] CT
0 10 moveto 
1 -1 scale
(6000) t 
GR
GR
GS
0.149 GC
2 setlinecap
1 LJ
0.5 LW
N
134.139 288.634 M
128.114 290.945 L
S
GR
GS
[1 0 0 1 124.37962 292.37772] CT
0.149 GC
/Helvetica 10 F
GS
[1 0 0 1 0 0] CT
-23 10 moveto 
1 -1 scale
(4000) t 
GR
GR
GS
[1 0 0 1 107.97025 208.87605] CT
0.149 GC
/Helvetica 10 F
GS
[1 0 0 1 0 0] CT
-23 3.5 moveto 
1 -1 scale
(2000) t 
GR
GR
GS
0.149 GC
1 setlinecap
1 LJ
0.5 LW
N
116.728 214.583 M
111.322 211.06 L
S
GR
GS
[0 -1 1 0 80.7751 214.58247] CT
0.149 GC
/Helvetica 11 F
GS
[1 0 0 1 0 0] CT
-28 -3 moveto 
1 -1 scale
(z axis [mm]) t 
GR
GR
GS
[1 0 0 1 323.49203 341.9165] CT
0.149 GC
/Helvetica 11 F
GS
[1 0 0 1 0 0] CT
0 11 moveto 
1 -1 scale
(x axis [mm]) t 
GR
GR
GS
0.149 GC
1 setlinecap
1 LJ
0.5 LW
N
337.183 301.999 M
342.589 305.522 L
S
GR
GS
[1 0 0 1 107.97025 177.52315] CT
0.149 GC
/Helvetica 10 F
GS
[1 0 0 1 0 0] CT
-23 3.5 moveto 
1 -1 scale
(3000) t 
GR
GR
GS
0.149 GC
1 setlinecap
1 LJ
0.5 LW
N
156.178 302.995 M
150.153 305.306 L
S
GR
GS
0.149 GC
1 setlinecap
1 LJ
0.5 LW
N
116.728 183.23 M
111.322 179.707 L
S
GR
GS
[1 0 0 1 131.08868 168.62749] CT
/Helvetica 10 F
GS
[1 0 0 1 0 0] CT
-7 3.5 moveto 
1 -1 scale
(B) t 
GR
GR
GS
[1 0 0 1 146.41875 306.73868] CT
0.149 GC
/Helvetica 10 F
GS
[1 0 0 1 0 0] CT
-23 10 moveto 
1 -1 scale
(3000) t 
GR
GR
GS
[1 0 0 1 345.9404 307.70566] CT
0.149 GC
/Helvetica 10 F
GS
[1 0 0 1 0 0] CT
0 10 moveto 
1 -1 scale
(4000) t 
GR
GR
GS
[1 0 0 1 154.95067 347.83276] CT
0.149 GC
/Helvetica 11 F
GS
[1 0 0 1 0 0] CT
-56 11 moveto 
1 -1 scale
(y axis [mm]) t 
GR
GR
GS
[1 0 0 1 107.97025 146.17023] CT
0.149 GC
/Helvetica 10 F
GS
[1 0 0 1 0 0] CT
-23 3.5 moveto 
1 -1 scale
(4000) t 
GR
GR
GS
[1 0 0 1 116.72771 164.7314] CT
1 0 0 RC
10.0 ML
0.5 LW
N
-2.121 -2.121 M
2.121 2.121 L
-2.121 2.121 M
2.121 -2.121 L
S
GR
GS
0.149 GC
2 setlinecap
1 LJ
0.5 LW
N
116.728 151.877 M
111.322 148.354 L
S
GR
GS
0.149 GC
1 setlinecap
1 LJ
0.5 LW
N
178.217 317.355 M
172.192 319.667 L
S
GR
GS
[1 0 0 1 168.45787 321.09967] CT
0.149 GC
/Helvetica 10 F
GS
[1 0 0 1 0 0] CT
-23 10 moveto 
1 -1 scale
(2000) t 
GR
GR
GS
0.149 GC
1 setlinecap
1 LJ
0.5 LW
N
279.739 324.038 M
285.145 327.561 L
S
GR
GS
[1 0 0 1 325.35574 175.01578] CT
/Helvetica 10 F
GS
[1 0 0 1 0 0] CT
-7 3.5 moveto 
1 -1 scale
(E) t 
GR
GR
GS
[1 0 0 1 288.49649 329.74478] CT
0.149 GC
/Helvetica 10 F
GS
[1 0 0 1 0 0] CT
0 10 moveto 
1 -1 scale
(2000) t 
GR
GR
GS
0.149 GC
1 setlinecap
1 LJ
0.5 LW
N
200.256 331.716 M
194.232 334.028 L
S
GR
GS
[1 0 0 1 190.49699 335.46063] CT
0.149 GC
/Helvetica 10 F
GS
[1 0 0 1 0 0] CT
-23 10 moveto 
1 -1 scale
(1000) t 
GR
GR
GS
[1 0 0 1 310.99475 171.11969] CT
1 0 0 RC
10.0 ML
0.5 LW
N
-2.121 -2.121 M
2.121 2.121 L
-2.121 2.121 M
2.121 -2.121 L
S
GR
GS
0.149 GC
2 setlinecap
1 LJ
0.5 LW
N
222.295 346.077 M
216.271 348.389 L
S
GR
GS
0.149 GC
2 setlinecap
1 LJ
0.5 LW
N
222.295 346.077 M
227.701 349.6 L
S
GR
GS
[1 0 0 1 212.53613 349.82159] CT
0.149 GC
/Helvetica 10 F
GS
[1 0 0 1 0 0] CT
-6 10 moveto 
1 -1 scale
(0) t 
GR
GR
GS
[1 0 0 1 231.05258 351.78391] CT
0.149 GC
/Helvetica 10 F
GS
[1 0 0 1 0 0] CT
0 10 moveto 
1 -1 scale
(0) t 
GR
GR
GS
[1 0 0 1 222.29514 243.55341] CT
/Helvetica 10 F
GS
[1 0 0 1 0 0] CT
-7 3.5 moveto 
1 -1 scale
(A) t 
GR
GR
GS
[1 0 0 1 222.29514 234.14754] CT
1 0 0 RC
10.0 ML
0.5 LW
N
-2.121 -2.121 M
2.121 2.121 L
-2.121 2.121 M
2.121 -2.121 L
S
GR
GS
1 GC
N
242.5 140 M
242.5 113.5 L
375 113.5 L
375 140 L
cp
f
GR
GS
[1 0 0 1 279.5 121] CT
/Helvetica 9 F
GS
[1 0 0 1 0 0] CT
0 3.5 moveto 
1 -1 scale
(calculated coordinates) t 
GR
GR
GS
[1 0 0 1 261.5 121] CT
0 0.447 0.741 RC
10.0 ML
0.5 LW
N
-2.121 -2.121 M
2.121 2.121 L
-2.121 2.121 M
2.121 -2.121 L
S
GR
GS
[1 0 0 1 279.5 132.5] CT
/Helvetica 9 F
GS
[1 0 0 1 0 0] CT
0 3.5 moveto 
1 -1 scale
(ref points) t 
GR
GR
GS
[1 0 0 1 261.5 132.5] CT
1 0 0 RC
10.0 ML
0.5 LW
N
-2.121 -2.121 M
2.121 2.121 L
-2.121 2.121 M
2.121 -2.121 L
S
GR
GS
0.149 GC
10.0 ML
0.5 LW
N
242.5 140 M
242.5 113.5 L
375 113.5 L
375 140 L
cp
S
GR
%%Trailer
%%Pages: 1
%%EOF
